1 8304 7788 7 43 6444 43932
2 8059 7703 7 33 6696 36020
3 6815 6422 7 28 6696 31266
4 28559 26544 8 98 7882 106726
5 3111 2840 6 6 5258 6182
6 1202 939 7 9 6360 9236
7 25535 25209 8 39 7546 42296
8 1579 1301 8 16 7462 17202
9 1200 941 5 9 3316 8312
10 2265 1993 5 10 3568 10674
11 3772 3520 8 16 6706 17034
12 55124 54535 8 73 7546 80520
13 5153 4844 8 13 7798 14316
14 1224 948 5 7 4744 7536
15 2567 2271 5 11 3820 12364
16 1585 1315 7 12 5604 11954
17 2614 1542 9 13 8732 11208
18 1653 1370 6 16 5510 16362
19 1218 933 5 9 3904 7556
20 1202 936 8 7 6454 6360
21 1224 952 6 12 5930 13634
22 2692 2390 7 14 6276 14830
23 6825 6056 8 52 7462 57294
24 1224 948 6 7 5258 6780
25 1655 1315 5 27 3652 29240
26 1226 942 5 12 2980 11786
27 2740 2468 7 12 5352 12374
28 6741 6394 8 27 8134 32684
29 2102 1736 8 30 7882 31874
30 1204 939 5 5 3904 3988
31 12143 11678 7 14 7536 14662
32 1211 940 6 10 4922 10170
33 2084 1786 8 19 6706 19668
34 8081 7640 6 46 5342 50094
35 6879 6418 7 22 7032 23982
36 1192 933 5 5 3904 3988
37 75588 72918 7 127 6024 139356
38 2259 1449 8 52 7462 56538
39 1255 945 7 7 6864 8040
