1 7729 6665 6 44 4838 45034
2 3512 2185 8 50 7462 54838
3 3270 2727 7 37 6528 40428
4 61590 57414 10 101 9330 109360
5 8340 8392 5 7 4324 7368
6 4892 4253 9 13 9068 13896
7 19584 19103 8 39 7546 42296
8 3063 2570 8 24 6706 27194
9 1549 1071 9 9 7892 8312
10 3019 2472 7 13 6192 13896
11 3184 2666 9 18 7976 19070
12 34166 32881 8 80 7546 88570
13 8354 7687 9 13 8816 14316
14 1563 1121 6 7 5174 7536
15 9589 8782 8 18 7042 21254
16 1734 1081 6 12 4754 11954
17 5553 4661 5 15 3652 13160
18 3116 2683 7 25 5688 26196
19 4151 3051 7 33 4932 33500
20 1805 1442 8 7 7714 6360
21 1503 1125 6 12 5174 13634
22 4908 4317 6 14 5174 14830
23 6052 4745 7 60 5688 66278
24 1500 1069 5 7 3652 6780
25 1999 1570 5 31 3316 33648
26 1724 1139 9 12 8312 11786
27 3487 3012 7 15 5436 15932
28 9598 9007 10 27 11094 32684
29 4167 3709 6 31 5174 32724
30 7269 6852 10 26 8658 25114
31 3734 3266 7 14 6192 14662
32 1391 1124 6 10 4082 10170
33 3231 2736 6 19 4418 19668
34 10510 9967 7 53 6948 57388
35 9399 8748 6 22 5174 23982
36 4920 4566 7 22 4932 20958
37 62795 57788 11 137 9256 149368
38 2626 1661 6 54 4922 58910
39 1645 1060 8 7 7210 8040
40 3424 2987 6 10 5006 9666
41 1642 1414 8 5 7462 5080
42 4509 3930 7 22 4932 20958
43 1781 1438 6 10 5342 11010
44 10352 9962 6 15 4334 14840
45 90778 87465 9 116 8564 125638
46 1716 1075 9 9 7304 8060
47 2325 1864 6 26 4082 27550
48 30931 30258 8 49 6706 55668
49 3265 2832 7 23 6948 24328
50 1455 1072 6 15 4250 15176
51 61433 60578 8 59 7546 64756
52 2221 1603 10 11 11934 11608
53 1896 1070 5 10 3652 11010
54 1869 1413 7 7 6108 6864
55 4837 3993 8 26 6874 29734
56 3807 3224 6 18 3914 16886
57 102654 100030 10 115 8406 126720
58 11792 10883 7 48 7788 58850
59 1614 1145 7 9 6864 9992
60 50393 48167 11 87 13120 104516
61 3500 2630 7 9 5772 8900
62 1919 1123 9 19 8060 21852
63 1409 1085 5 15 3316 15176
64 1969 1510 7 8 5352 8050
65 4509 3918 8 16 6454 17118
66 20545 19310 8 79 6622 81924
67 1443 1125 8 19 5866 19752
68 7643 7049 5 11 3652 10936
69 4417 4010 7 13 6024 14820
70 1529 1079 6 10 4502 8406
71 11557 8438 8 119 6622 128356
72 1914 1492 5 29 3148 29596
73 19813 18906 6 54 4502 59582
74 1497 1124 6 10 4586 10842
75 68373 66774 13 65 15744 79768
76 1484 1077 6 17 3998 17716
77 3560 2923 7 9 6192 8816
78 2238 1514 7 10 5352 10422
79 2845 2453 6 12 5174 12878
80 1465 1161 6 7 3914 7620
81 1369 1064 5 5 3568 4996
82 5761 5283 5 17 3736 17380
83 2731 2288 7 27 4932 26216
84 11184 10468 6 46 5342 56394
85 19469 18690 8 59 6706 65260
86 2407 1955 7 26 4932 25198
87 12160 11541 6 28 6266 32526
88 1899 1492 7 21 6528 22628
89 3269 2883 9 25 7640 24264
90 1552 1073 6 9 5426 9656
91 2064 1653 5 12 4324 13718
92 1368 1080 5 5 3568 4996
93 1537 1078 8 7 7882 7536
94 3071 2681 7 9 7536 10412
96 18714 17997 8 62 7546 67390
97 26020 21575 10 141 9330 155204
98 1878 1444 8 7 7630 7536
99 5806 5376 8 10 7798 11430
100 16726 12859 10 128 8322 141214
101 1389 1061 5 5 3988 4912
102 3329 2857 7 26 6948 27634
103 1525 1084 8 5 7798 4744
104 7279 6977 7 40 6948 43482
105 2600 1679 5 54 3316 59330
106 165899 165447 6 67 5426 81216
107 44127 41141 7 113 5100 122920
108 1391 1066 8 5 7462 5080
109 3499 2788 8 12 7042 10946
110 30249 29533 8 67 7546 72480
111 5224 4802 6 21 6014 24644
112 1436 1077 7 9 7452 11084
113 11813 11293 6 43 5426 51996
114 1465 1063 5 6 3904 4418
115 1867 1533 6 25 3998 25524
116 1540 1064 10 10 8154 12438
117 1430 1077 6 11 5174 12448
118 5966 5649 6 17 4922 19396
119 2193 1505 9 10 8228 10170
120 2163 1879 8 11 7294 11776
