1 3683 3352 6 37 5006 37908
2 2133 1834 5 15 3820 16016
3 2086 1757 5 20 3820 22030
4 26343 25274 11 92 9424 99862
5 1646 1369 8 6 7882 6182
6 1568 1301 7 7 7200 6360
7 8102 7694 8 33 6622 36776
8 1979 1671 7 18 6192 19490
9 1217 940 9 9 9740 8312
10 2015 1700 5 13 4744 13896
11 3917 3619 8 18 8638 19070
12 2675 1988 5 59 3820 65344
13 3237 2888 8 14 10990 15250
14 1199 938 6 7 6854 7536
15 1518 1245 6 8 5762 8638
16 1207 936 8 8 8218 8386
17 1697 1457 5 6 3652 4502
18 1208 938 5 5 3820 4492
19 1217 935 6 8 5090 6538
20 1215 942 9 7 9740 6360
21 1228 949 6 12 6602 13634
22 1575 1298 10 13 10422 14064
23 1751 1091 5 48 4576 53138
24 2069 1797 8 9 7966 9236
25 1255 951 5 18 4576 19574
26 1221 946 10 7 12186 6276
27 1923 1646 5 9 4156 8984
28 9504 9114 9 31 8648 37596
29 2052 1703 7 23 6024 24748
30 1196 932 6 5 5090 3988
31 7525 7193 6 11 6350 10768
32 1202 945 7 9 6696 8900
33 1559 1279 11 8 11440 7882
34 7590 7167 5 43 3652 46956
35 9624 9245 9 22 7808 23982
36 1205 939 5 5 4156 3988
37 45668 42060 8 128 6706 140374
38 1679 1049 5 43 4576 46704
39 1196 935 6 7 6014 8040
40 2830 2588 7 8 9552 7462
41 1206 938 5 5 4240 5080
42 1204 939 5 5 4156 3988
43 1220 934 5 9 3652 9656
44 2820 2557 5 13 4156 12468
45 12272 10216 9 105 7052 114272
46 1209 933 5 7 4660 6276
47 1643 1314 11 21 11272 21956
48 26474 26006 6 50 5342 56434
49 1665 1348 5 22 3652 23142
50 1219 943 5 10 4576 9666
51 2687 2165 6 47 4838 53044
52 1231 951 6 11 6854 11608
53 1208 940 5 6 5332 6098
54 1224 939 7 7 6864 6864
55 8882 8469 8 18 7378 21338
56 1934 1669 6 7 4670 6108
57 15455 12480 7 107 6192 118072
58 13383 13075 5 52 5668 63426
59 1218 945 7 7 7116 7032
60 28814 27112 8 89 9142 107308
61 1191 940 7 7 6360 6108
62 1254 949 7 15 6948 17612
63 1222 940 5 10 4576 9498
64 1191 933 6 6 5762 5258
65 1191 939 6 7 5930 7032
66 5436 4389 8 79 8050 81924
67 1244 946 8 17 7546 17212
68 11171 10876 12 10 12038 10170
69 1861 1592 11 14 9676 15838
70 1222 945 6 10 5258 8406
71 48106 45674 9 115 8816 123612
72 1240 950 7 12 5856 11030
73 3067 2740 5 24 4072 25514
74 1233 937 8 9 9142 10076
75 41034 40195 12 72 15734 88238
76 1242 949 9 15 8984 14672
77 1203 943 8 8 10066 7462
78 1917 1650 7 10 6948 10422
79 1215 947 7 8 6024 7546
80 1195 933 6 7 5678 7620
81 1188 939 5 5 5164 4996
82 2053 1799 5 5 4996 4324
83 1189 932 6 5 5090 3988
84 4412 3742 6 54 6854 64118
85 24757 23627 6 59 5342 65260
86 1196 928 5 5 4156 3988
87 2011 1678 8 17 8134 20152
88 1237 951 9 12 8984 12542
89 1204 929 5 6 4156 4754
90 1556 1308 6 9 5006 9656
91 1961 1657 6 15 5006 17528
92 1204 937 5 5 5164 4996
93 1201 942 6 7 6854 7536
94 1230 947 11 8 12448 9478
95 21140 20587 5 58 5668 70710
96 1976 1514 5 43 3820 48888
97 10191 7161 9 126 7472 137414
98 1230 944 8 8 8302 8470
99 2421 2164 9 7 10244 6612
100 43078 40018 7 112 6192 123078
101 1209 937 7 5 7284 4912
102 1690 1348 5 23 3652 24328
103 1200 942 9 5 10664 4744
104 3078 2688 5 36 3652 39746
105 1656 1060 5 44 4576 48478
106 92225 92205 13 77 16332 91144
107 53256 50372 8 110 7294 118690
108 1207 952 5 5 4240 5080
109 1230 948 9 9 9824 7640
110 2594 2114 5 44 3820 49654
111 3007 2661 5 24 4240 28286
112 1237 943 10 9 10590 11084
113 10502 10052 6 48 6770 57842
114 1207 944 9 6 9236 4418
115 1248 944 7 16 5856 16026
116 1203 946 8 8 7882 10318
117 1231 954 7 13 8292 14652
118 1209 941 5 9 4156 9824
119 1217 941 9 6 10244 5258
120 1207 943 7 7 5940 8208
