1 2831 2848 7893 7897
2 3390 3390 7868 7869
3 3322 3326 7795 7797
4 3963 3971 7768 7771
5 3989 3996 7781 7782
6 4152 4167 7719 7729
7 3885 3893 7737 7753
8 4266 4268 7644 7646
9 3480 3481 7615 7616
10 4322 4331 7539 7576
11 4091 4097 7518 7522
12 3534 3540 7525 7531
13 4044 4051 7496 7501
14 3557 3563 7475 7486
15 4338 4344 7455 7462
16 4353 4373 7443 7448
17 7905 7915 7413 7424
18 4474 4483 7409 7415
19 3564 3579 7381 7437
20 5598 5611 7374 7395
21 7788 7801 7352 7358
22 3455 3466 7360 7372
23 3347 3403 7322 7335
24 4448 4459 7312 7312
25 4626 4652 7311 7312
26 4026 4050 7310 7312
27 3568 3575 7359 7368
28 7592 7593 7285 7306
29 4734 4739 7281 7284
30 7382 7452 7300 7301
31 6987 6994 7252 7252
32 5112 5115 7267 7281
33 6729 6745 7243 7250
34 6853 6916 7215 7238
35 3419 3428 7202 7207
36 5069 5091 7183 7188
37 6727 6747 7182 7193
38 5007 5036 7169 7174
39 4344 4346 7174 7175
40 4851 4869 7153 7155
41 5081 5101 7143 7152
42 3804 3819 7134 7142
43 3937 3945 7124 7124
44 5301 5308 7113 7128
45 5299 5299 7108 7109
46 4463 4471 7099 7101
47 8322 8333 7116 7127
48 6688 6689 7085 7101
49 4295 4309 7080 7081
50 6419 6434 7088 7089
51 4309 4356 7073 7080
52 6339 6346 7078 7080
53 6298 6303 7064 7066
54 5150 5161 7095 7118
55 6643 6652 7047 7060
56 6947 6957 7033 7036
57 5234 5237 7030 7039
58 3757 3759 7009 7009
59 4582 4664 6999 7016
60 3612 3617 6982 6987
61 8239 8260 7033 7039
62 8063 8072 6964 6965
63 4721 4734 6954 6964
64 4204 4212 6946 6946
65 5203 5217 6956 6982
66 8629 8639 6956 6960
67 3680 3692 6928 6932
68 4014 4016 6925 6928
69 6123 6139 6982 6995
70 6049 6069 6909 6920
71 3707 3721 6914 6922
72 7626 7659 6895 6897
73 4394 4398 6870 6873
74 5705 5708 6857 6858
75 6842 6852 6869 6894
76 5182 5203 6841 6841
77 5708 5726 6856 6857
78 5965 5981 6863 6893
79 5057 5066 6830 6830
80 3204 3221 6843 6845
81 4149 4159 6824 6832
82 4887 4888 6808 6809
83 6181 6205 6816 6839
84 6661 6670 6800 6804
85 6774 6792 6809 6814
86 4282 4285 6789 6789
87 4577 4593 6780 6790
88 7285 7309 6775 6792
89 4470 4479 6771 6781
90 5969 5976 6766 6769
91 5918 5928 6765 6768
92 4152 4160 6757 6759
93 6871 6901 6752 6753
94 7021 7033 6754 6757
95 4470 4474 6760 6771
96 4773 4778 6731 6733
97 5555 5559 6751 6769
98 6303 6308 6709 6711
99 7381 7408 6705 6711
100 7725 7737 6715 6728
101 8580 8582 6688 6691
102 4750 4767 6681 6722
103 4884 4885 6679 6689
104 6390 6401 6667 6672
105 6756 6757 6695 6707
106 5684 5693 6650 6653
107 6992 6997 6639 6645
108 5215 5235 6669 6679
109 3678 3696 6656 6674
110 4341 4346 6626 6629
111 4346 4365 6616 6626
112 3177 3191 6617 6618
113 7905 7931 6626 6651
114 8475 8488 6620 6624
115 3099 3110 6602 6610
116 1782 1879 6606 6629
117 4660 4667 6594 6604
118 6532 6541 6589 6593
119 5889 5900 6585 6590
120 1724 1736 6573 6584
121 7050 7064 6583 6585
122 4525 4533 6623 6630
123 4407 4419 6588 6596
124 4431 4432 6564 6564
125 7750 7765 6569 6598
126 4352 4376 6558 6558
127 4543 4552 6557 6558
128 3996 4058 6551 6586
129 5170 5173 6548 6603
130 7047 7072 6542 6543
131 7177 7178 6529 6531
132 4920 4929 6521 6524
133 6761 6769 6540 6541
134 3303 3311 6514 6516
135 8331 8346 6524 6525
136 8240 8255 6509 6512
137 6775 6792 6531 6532
138 4973 4981 6504 6509
139 8188 8240 6512 6517
140 2532 2545 6498 6514
141 3787 3843 6494 6510
142 5117 5126 6516 6524
143 6877 6889 6490 6499
144 6265 6276 6477 6486
145 4474 4478 6492 6497
146 4429 4444 6473 6474
147 3739 3762 6470 6471
148 1794 1806 6485 6502
149 8259 8260 6500 6505
150 7818 7819 6459 6462
151 3987 3995 6451 6453
152 3223 3225 6444 6445
153 3237 3239 6439 6439
154 6337 6339 6435 6436
155 5682 5683 6435 6436
156 7399 7410 6440 6454
157 5703 5713 6408 6413
158 8640 8641 6413 6418
159 3512 3519 6406 6423
160 2661 2672 6394 6394
161 5082 5086 6380 6382
162 6826 6836 6374 6379
163 7587 7599 6375 6376
164 8268 8277 6404 6418
165 7579 7585 6363 6363
166 1722 1727 6358 6360
167 7085 7093 6373 6375
168 5902 5947 6360 6381
169 8302 8314 6360 6366
170 4429 4433 6365 6376
171 6078 6083 6373 6376
172 5058 5072 6366 6374
173 2927 2956 6326 6335
174 4356 4374 6321 6329
175 1905 1918 6323 6324
176 6000 6005 6309 6319
177 3786 3824 6307 6311
178 8312 8332 6304 6313
179 8557 8570 6299 6305
180 5230 5234 6291 6293
181 4003 4015 6287 6290
182 5221 5229 6294 6298
183 5130 5143 6276 6285
184 7468 7478 6294 6299
185 3629 3644 6298 6299
186 4950 4976 6258 6274
187 2677 2689 6255 6280
188 7586 7587 6303 6311
189 3306 3312 6241 6288
190 3469 3471 6293 6306
191 4611 4623 6239 6271
192 3417 3418 6231 6231
193 3389 3417 6221 6231
194 4944 4957 6221 6223
195 2187 2209 6212 6212
196 2383 2395 6201 6204
197 2955 2976 6206 6227
198 7677 7726 6190 6192
199 2457 2509 6183 6189
200 5011 5025 6208 6214
201 8387 8390 6200 6209
202 5199 5225 6170 6174
203 6238 6240 6160 6171
204 8517 8518 6242 6257
205 6701 6715 6160 6205
206 2700 2700 6177 6178
207 8133 8140 6168 6171
208 7789 7798 6211 6212
209 6777 6788 6147 6149
210 4997 5002 6138 6141
211 2495 2513 6159 6177
212 4783 4819 6149 6152
213 4325 4344 6202 6223
214 8054 8075 6140 6152
215 3893 3905 6115 6117
216 3867 3893 6111 6115
217 5398 5412 6173 6175
218 4542 4553 6130 6151
219 4662 4665 6224 6233
220 7969 7984 6105 6108
221 3264 3291 6103 6112
222 1894 1909 6093 6103
223 8380 8380 6123 6144
224 3073 3075 6086 6087
225 6430 6484 6088 6098
226 7678 7682 6081 6095
227 6359 6376 6074 6078
228 3242 3243 6065 6073
229 3209 3228 6061 6061
230 3095 3142 6057 6058
231 3307 3308 6083 6101
232 3417 3424 6042 6044
233 8124 8174 6083 6106
234 8469 8477 6033 6043
235 8503 8523 6032 6044
236 5210 5215 6059 6061
237 6805 6812 6084 6089
238 8479 8491 6018 6028
239 7675 7678 6053 6081
240 3300 3301 5999 6000
241 6266 6277 5992 5994
242 4642 4720 5991 6000
243 5078 5083 6071 6077
244 4314 4323 5984 5984
245 4344 4354 5981 5983
246 5621 5629 5991 5996
247 3685 3695 5977 5982
248 3389 3422 5973 5987
249 5043 5045 5960 5962
250 8251 8252 5961 5963
251 5031 5043 5953 5960
252 7160 7174 5951 5962
253 8526 8529 5975 5992
254 3824 3858 5944 5947
255 4620 4627 5986 5987
256 4094 4115 5939 5974
257 5635 5637 5923 5928
258 3313 3314 5920 5921
259 3744 3744 5910 5912
260 2712 2752 5905 5955
261 7643 7650 5898 5902
262 5125 5139 5894 5896
263 6894 6950 5895 5935
264 7123 7147 5881 5881
265 6013 6018 5878 5879
266 2650 2686 5872 5886
267 4459 4465 5898 5911
268 4258 4278 5887 5905
269 4182 4193 5860 5861
270 5404 5414 5858 5861
271 6046 6064 5862 5869
272 4632 4642 5889 5937
273 2567 2576 5849 5849
274 8300 8305 5843 5861
275 7007 7014 5850 5856
276 5674 5675 5837 5839
277 2549 2560 5835 5844
278 5173 5176 5832 5840
279 3416 3418 5858 5870
280 4080 4094 5830 5848
281 7910 7913 5813 5825
282 5679 5688 5827 5830
283 6236 6257 5799 5827
284 3683 3693 5807 5808
285 8512 8538 5836 5849
286 3143 3149 5788 5793
287 3802 3806 5825 5832
288 5783 5925 5769 5829
289 4532 4542 5778 5793
290 6858 6868 5760 5779
291 2755 2755 5779 5788
292 2893 2896 5792 5797
293 5342 5345 5772 5793
294 7750 7752 5745 5746
295 8572 8602 5741 5769
296 2296 2357 5737 5738
297 2411 2445 5731 5735
298 6340 6351 5741 5748
299 2157 2184 5720 5728
300 5216 5221 5718 5724
301 3029 3032 5715 5715
302 5660 5680 5712 5712
303 8125 8165 5706 5747
304 7775 7778 5706 5712
305 5603 5612 5695 5697
306 4110 4119 5690 5697
307 6298 6299 5688 5690
308 3441 3472 5686 5689
309 5194 5197 5679 5682
310 7207 7253 5678 5718
311 5188 5194 5674 5679
312 8584 8595 5670 5672
313 7787 7789 5690 5695
314 6064 6094 5667 5694
315 8057 8079 5665 5670
316 4589 4608 5666 5672
317 8039 8040 5657 5658
318 4413 4427 5658 5668
319 3308 3312 5653 5670
320 8005 8010 5644 5648
321 8357 8366 5686 5686
322 8241 8247 5637 5639
323 8226 8236 5634 5636
324 6843 6845 5633 5644
325 6845 6850 5628 5633
326 7963 7979 5622 5631
327 2927 2934 5633 5639
328 2976 2983 5614 5615
329 7698 7700 5647 5652
330 1274 1296 5619 5621
331 7952 7954 5608 5608
332 4512 4514 5607 5608
333 4574 4579 5599 5624
334 6343 6361 5601 5610
335 6796 6800 5595 5615
336 7154 7168 5588 5589
337 6552 6561 5587 5588
338 7483 7503 5579 5585
339 6383 6408 5576 5588
340 2354 2386 5617 5631
341 7495 7516 5564 5575
342 3216 3228 5574 5601
343 5400 5400 5554 5572
344 6452 6454 5550 5552
345 8026 8030 5545 5552
346 3512 3540 5558 5567
347 4640 4643 5536 5537
348 8892 8892 5536 5537
349 7814 7834 5576 5577
350 4655 4661 5532 5533
351 8891 8892 5530 5530
352 8403 8409 5527 5527
353 8598 8633 5523 5531
354 2170 2176 5521 5524
355 7852 7879 5524 5528
356 7910 7921 5518 5520
357 8272 8275 5524 5524
358 8277 8277 5514 5515
359 7838 7839 5511 5511
360 8037 8039 5507 5516
361 1488 1491 5521 5526
362 3608 3626 5506 5520
363 7803 7825 5496 5506
364 4521 4550 5495 5580
365 1815 1817 5509 5514
366 4517 4517 5482 5483
367 7978 7983 5512 5516
368 7812 7834 5477 5483
369 3178 3201 5534 5556
370 3606 3655 5463 5499
371 4507 4508 5457 5460
372 3586 3601 5464 5475
373 6527 6529 5452 5454
374 2470 2497 5445 5475
375 4776 4807 5441 5447
376 5075 5095 5439 5447
377 3454 3457 5437 5440
378 8220 8225 5433 5438
379 6309 6311 5429 5432
380 8031 8034 5433 5436
381 5209 5234 5423 5424
382 3346 3355 5445 5450
383 4741 4776 5434 5441
384 5505 5528 5429 5433
385 6647 6659 5403 5405
386 7102 7140 5406 5411
387 9031 9066 5478 5503
388 7472 7473 5436 5447
389 2832 2837 5430 5439
390 5449 5458 5416 5428
391 4246 4249 5455 5458
392 8986 9007 5388 5398
393 7576 7578 5386 5388
394 4466 4469 5381 5381
395 4475 4476 5387 5389
396 4301 4311 5377 5378
397 8108 8109 5374 5375
398 4471 4471 5370 5372
399 8529 8556 5367 5371
400 2434 2437 5363 5383
401 6916 6932 5364 5376
402 8115 8119 5354 5365
403 6469 6498 5359 5387
404 3536 3547 5433 5441
405 4257 4267 5352 5369
406 7578 7596 5339 5357
407 7911 7915 5337 5349
408 7800 7879 5338 5343
409 8911 8949 5334 5338
410 7554 7556 5329 5329
411 1806 1817 5477 5489
412 2217 2222 5359 5362
413 5746 5758 5352 5356
414 2850 2870 5322 5324
415 2389 2393 5319 5319
416 7617 7686 5319 5325
417 3153 3159 5314 5317
418 1946 1982 5313 5368
419 1540 1596 5311 5311
420 2478 2482 5310 5311
421 3102 3118 5307 5308
422 9047 9052 5305 5314
423 3405 3422 5301 5313
424 5570 5578 5301 5302
425 4907 4931 5310 5320
426 5121 5152 5322 5330
427 3355 3357 5306 5308
428 7915 7933 5290 5337
429 2004 2019 5289 5302
430 1945 1946 5310 5313
431 3678 3679 5305 5320
432 3994 4005 5283 5292
433 7452 7455 5278 5286
434 5365 5371 5353 5357
435 1648 1649 5304 5310
436 1954 1957 5271 5271
437 7439 7455 5270 5278
438 5694 5734 5272 5276
439 3631 3632 5266 5266
440 5089 5118 5263 5269
441 2545 2548 5259 5260
442 6541 6547 5315 5316
443 9190 9197 5254 5258
444 1944 1960 5248 5267
445 4136 4137 5289 5297
446 2700 2768 5242 5263
447 7950 7961 5241 5242
448 4986 4997 5247 5251
449 3038 3044 5287 5289
450 8463 8474 5227 5236
451 1554 1569 5225 5231
452 6283 6288 5219 5224
453 1482 1504 5218 5220
454 4142 4161 5214 5218
455 5525 5532 5225 5228
456 2856 2859 5211 5211
457 3623 3625 5209 5219
458 2955 2955 5206 5206
459 3594 3597 5203 5204
460 3262 3296 5201 5207
461 2316 2342 5199 5210
462 3304 3317 5197 5199
463 5917 5923 5203 5214
464 3909 3912 5215 5222
465 8534 8551 5194 5201
466 3189 3203 5192 5194
467 3581 3586 5188 5194
468 4554 4649 5185 5199
469 8741 8748 5178 5180
470 3168 3176 5173 5181
471 7920 7938 5209 5218
472 2387 2394 5169 5173
473 5654 5684 5167 5181
474 4978 5006 5166 5167
475 8848 8875 5163 5163
476 4966 4970 5160 5161
477 3168 3169 5159 5161
478 8692 8710 5163 5164
479 1823 1825 5155 5156
480 4918 4930 5155 5156
481 3584 3589 5154 5161
482 4882 4884 5150 5151
483 6177 6180 5146 5146
484 4879 4884 5144 5150
485 7862 7865 5142 5146
486 7388 7425 5139 5173
487 2393 2394 5160 5169
488 5956 5988 5132 5132
489 4800 4802 5138 5139
490 6015 6033 5124 5130
491 1881 1882 5125 5125
492 4875 4879 5139 5144
493 5776 5785 5110 5110
494 4448 4456 5106 5108
495 2586 2588 5107 5110
496 3956 3965 5112 5115
497 4678 4687 5121 5126
498 4383 4404 5096 5102
499 7852 7855 5093 5094
500 6808 6844 5088 5094
501 1519 1594 5086 5121
502 6904 6907 5085 5089
503 7308 7340 5093 5095
504 5831 5841 5096 5097
505 3595 3600 5125 5126
506 4537 4539 5084 5091
507 7978 8008 5072 5138
508 3258 3259 5070 5070
509 5429 5432 5074 5083
510 9147 9153 5104 5134
511 3261 3261 5059 5061
512 3782 3816 5067 5070
513 5164 5182 5076 5078
514 6071 6077 5050 5052
515 4849 4858 5043 5044
516 4780 4783 5071 5076
517 4994 5018 5034 5044
518 4507 4508 5034 5042
519 3041 3055 5029 5042
520 5055 5056 5027 5027
521 3434 3441 5026 5026
522 3041 3076 5018 5029
523 7742 7766 5064 5070
524 2122 2130 5034 5043
525 7560 7566 5006 5011
526 7548 7559 4997 5005
527 6498 6540 5001 5015
528 3334 3339 5003 5010
529 1432 1435 4993 4993
530 3608 3630 4991 4997
531 1738 1750 4989 4990
532 3728 3739 5033 5038
533 3310 3310 4985 4986
534 6478 6485 4992 4995
535 4009 4013 4983 4986
536 8044 8055 5008 5023
537 5472 5485 4980 4982
538 3809 3824 4988 4995
539 9185 9187 4988 4994
540 3012 3024 4964 4973
541 6485 6573 4961 4995
542 8418 8420 4990 4992
543 1726 1738 4981 4990
544 9200 9201 4968 4969
545 8373 8375 4953 4957
546 5081 5085 4964 4984
547 8305 8326 4960 4973
548 1378 1399 4950 4961
549 5921 5925 4964 4971
550 4308 4317 4983 4989
551 6306 6365 4939 4967
552 2501 2518 4949 4950
553 3604 3605 4934 4938
554 6868 6880 5012 5032
555 5254 5268 4930 4931
556 2105 2113 4930 4945
557 4764 4809 4947 4952
558 2135 2146 4925 4926
559 1898 1921 4962 4975
560 3692 3705 4936 4938
561 4632 4641 4924 4935
562 4859 4863 4923 4927
563 3623 3626 4915 4922
564 4509 4511 4924 4935
565 4920 4941 4913 4915
566 5014 5032 4924 4940
567 2628 2649 4921 4929
568 2158 2158 4905 4907
569 5358 5380 4902 4904
570 4171 4172 4916 4921
571 5555 5571 4896 4905
572 1929 1936 4893 4896
573 6881 6913 4890 4894
574 2102 2114 4895 4928
575 7090 7091 4919 4930
576 1686 1701 4881 4897
577 2986 3001 4878 4879
578 7170 7172 4877 4878
579 2926 2953 4876 4884
580 5936 5944 4903 4928
581 7109 7129 4869 4875
582 3592 3593 4866 4868
583 8225 8293 4862 4881
584 2805 2808 4860 4860
585 6095 6103 4864 4871
586 2776 2793 4857 4858
587 8072 8088 4862 4863
588 2234 2234 4895 4910
589 5483 5487 4864 4866
590 1407 1422 4870 4885
591 2531 2545 4844 4881
592 4054 4095 4857 4874
593 1368 1375 4842 4851
594 4417 4425 4869 4872
595 5308 5311 4851 4852
596 5266 5269 4839 4840
597 1749 1762 4839 4847
598 967 974 4836 4838
599 2831 2832 4834 4834
600 1793 1797 4832 4832
601 1257 1289 4830 4830
602 2633 2652 4828 4831
603 2811 2817 4826 4829
604 1786 1789 4821 4824
605 4320 4336 4819 4820
606 7550 7599 4815 4928
607 6873 6876 4815 4840
608 6211 6237 4817 4830
609 3508 3525 4808 4813
610 899 910 4806 4815
611 8322 8348 4805 4823
612 3490 3498 4813 4816
613 2945 2989 4812 4818
614 6236 6241 4806 4806
615 5439 5440 4806 4809
616 6103 6115 4796 4802
617 5846 5863 4799 4800
618 7061 7127 4792 4837
619 6738 6740 4793 4806
620 7437 7460 4791 4800
621 8570 8594 4785 4794
622 5229 5230 4803 4805
623 8433 8465 4831 4833
624 8593 8594 4777 4785
625 8532 8554 4775 4779
626 1587 1623 4823 4871
627 5234 5236 4773 4778
628 1926 1928 4772 4773
629 8613 8706 4765 4783
630 2542 2542 4763 4764
631 5188 5195 4763 4767
632 2571 2577 4759 4761
633 1707 1747 4756 4790
634 5345 5357 4754 4760
635 6041 6057 4758 4759
636 8706 8719 4764 4765
637 671 672 4749 4751
638 8964 8970 4747 4759
639 5536 5540 4744 4745
640 5269 5277 4762 4764
641 3502 3506 4766 4768
642 9111 9114 4740 4741
643 6455 6461 4740 4742
644 9142 9154 4735 4735
645 5183 5186 4743 4745
646 2731 2745 4734 4735
647 7879 7889 4728 4730
648 5662 5686 4730 4731
649 5747 5749 4725 4725
650 6242 6264 4721 4722
651 3455 3459 4757 4764
652 1513 1514 4718 4723
653 7275 7291 4714 4726
654 4484 4489 4710 4715
655 1937 1956 4708 4759
656 6216 6229 4717 4721
657 3561 3577 4722 4726
658 3724 3730 4700 4700
659 742 756 4764 4771
660 8904 8927 4692 4695
661 2843 2845 4691 4693
662 6034 6050 4705 4720
663 4584 4602 4688 4695
664 1957 1958 4683 4691
665 6440 6444 4685 4687
666 4377 4393 4681 4687
667 3115 3121 4678 4681
668 6260 6264 4716 4722
669 2852 2854 4682 4683
670 6899 6944 4683 4714
671 2845 2867 4672 4674
672 8644 8650 4675 4680
673 3202 3204 4675 4677
674 1626 1674 4667 4668
675 2306 2324 4670 4676
676 2201 2254 4670 4687
677 2458 2466 4689 4692
678 3893 3909 4659 4674
679 5224 5247 4662 4674
680 1107 1110 4657 4659
681 8805 8816 4655 4660
682 1111 1128 4653 4660
683 8196 8215 4651 4679
684 4669 4677 4659 4662
685 5635 5639 4671 4679
686 4824 4837 4648 4656
687 3001 3001 4648 4649
688 7311 7322 4675 4696
689 5364 5370 4682 4687
690 3035 3102 4645 4671
691 2255 2259 4641 4641
692 4263 4275 4658 4663
693 3476 3482 4673 4676
694 6777 6789 4638 4639
695 4749 4775 4635 4643
696 1899 1904 4632 4634
697 7183 7191 4658 4661
698 3025 3037 4629 4633
699 6788 6790 4630 4631
700 6331 6351 4631 4639
701 4086 4119 4627 4628
702 6026 6033 4625 4626
703 5293 5308 4640 4641
704 697 704 4622 4628
705 5580 5585 4626 4628
706 8508 8512 4642 4643
707 1802 1807 4615 4639
708 1566 1567 4614 4615
709 6158 6168 4616 4623
710 2267 2274 4608 4621
711 1772 1780 4607 4609
712 1012 1054 4601 4622
713 7703 7738 4599 4679
714 8689 8705 4627 4640
715 3020 3021 4595 4600
716 6780 6782 4593 4599
717 5912 5920 4597 4598
718 1570 1572 4592 4599
719 6755 6771 4596 4597
720 6027 6031 4604 4607
721 1152 1215 4583 4622
722 740 742 4589 4592
723 4151 4169 4611 4623
724 2615 2637 4578 4578
725 5283 5292 4587 4595
726 6105 6110 4585 4590
727 5068 5085 4578 4586
728 5992 5995 4574 4576
729 1845 1869 4573 4578
730 5793 5798 4581 4585
731 4438 4458 4638 4655
732 4391 4397 4573 4578
733 8511 8528 4570 4574
734 4296 4302 4585 4586
735 4662 4683 4638 4642
736 1237 1254 4563 4573
737 7909 7928 4583 4584
738 7495 7505 4560 4565
739 3505 3522 4617 4625
740 1797 1799 4557 4557
741 6604 6606 4556 4560
742 1939 1945 4554 4559
743 5961 5962 4552 4555
744 1736 1737 4552 4552
745 8812 8824 4550 4553
746 7459 7470 4547 4552
747 2176 2180 4549 4552
748 8485 8489 4560 4564
749 5959 5959 4542 4544
750 1982 1990 4540 4541
751 2150 2153 4543 4545
752 1090 1099 4539 4546
753 2137 2141 4538 4540
754 8718 8721 4536 4546
755 3638 3646 4566 4568
756 2004 2006 4532 4535
757 5273 5278 4531 4532
758 8833 8847 4529 4531
759 4910 4923 4535 4540
760 3054 3056 4552 4560
761 3157 3169 4619 4620
762 4424 4424 4552 4554
763 8440 8446 4527 4531
764 6437 6457 4562 4573
765 4396 4409 4523 4525
766 3609 3619 4521 4525
767 6027 6036 4520 4522
768 7873 7889 4519 4523
769 8692 8713 4522 4531
770 3619 3627 4518 4521
771 4740 4741 4516 4516
772 8265 8272 4525 4532
773 2826 2837 4518 4521
774 6304 6308 4521 4522
775 1916 1919 4513 4513
776 1909 1915 4512 4513
777 7889 7897 4519 4519
778 6791 6810 4511 4512
779 8479 8500 4510 4528
780 6368 6369 4509 4509
781 8952 8965 4508 4510
782 3904 3906 4542 4546
783 8246 8253 4505 4506
784 4302 4307 4518 4520
785 6378 6379 4506 4507
786 5281 5282 4513 4514
787 1341 1377 4502 4502
788 6593 6639 4500 4502
789 3502 3525 4513 4523
790 8915 8928 4502 4504
791 2237 2239 4494 4497
792 8449 8465 4493 4503
793 6460 6460 4512 4521
794 1939 1953 4491 4502
795 1986 1988 4490 4490
796 2831 2831 4510 4512
797 3664 3666 4488 4492
798 1590 1590 4486 4496
799 1614 1623 4484 4486
800 1963 1964 4484 4487
801 3732 3745 4487 4489
802 8296 8305 4490 4493
803 1759 1769 4480 4481
804 8400 8439 4477 4500
805 2296 2297 4477 4477
806 2081 2081 4482 4486
807 1597 1608 4477 4485
808 8384 8390 4474 4476
809 1590 1592 4473 4474
810 1963 1964 4471 4484
811 8907 8911 4469 4475
812 968 970 4485 4492
813 1818 1821 4467 4469
814 6303 6318 4465 4466
815 5502 5513 4462 4472
816 5636 5696 4461 4462
817 1178 1190 4459 4475
818 8631 8643 4462 4464
819 8374 8383 4456 4458
820 8439 8440 4490 4500
821 8383 8410 4454 4456
822 7138 7152 4452 4457
823 5376 5388 4451 4452
824 1945 1949 4449 4454
825 6514 6518 4449 4451
826 6458 6461 4460 4476
827 5012 5041 4464 4467
828 5248 5253 4480 4483
829 1295 1296 4445 4445
830 1586 1594 4444 4444
831 1356 1374 4442 4445
832 8292 8300 4455 4459
833 8352 8356 4440 4443
834 7725 7731 4453 4457
835 5132 5140 4459 4459
836 1063 1067 4439 4439
837 1452 1468 4448 4448
838 912 918 4434 4440
839 8727 8733 4432 4433
840 2483 2500 4430 4437
841 2500 2502 4427 4430
842 3060 3069 4439 4441
843 2502 2502 4424 4427
844 6518 6522 4445 4449
845 2495 2502 4421 4421
846 7968 8007 4424 4445
847 1288 1289 4424 4426
848 4165 4166 4415 4415
849 7167 7172 4444 4462
850 9081 9086 4437 4446
851 1943 1949 4436 4449
852 8859 8864 4407 4414
853 2548 2550 4422 4423
854 2566 2573 4405 4406
855 8298 8349 4403 4441
856 1665 1674 4401 4402
857 6589 6601 4434 4441
858 1297 1303 4399 4411
859 4106 4111 4399 4401
860 2636 2640 4396 4397
861 4188 4194 4405 4406
862 1677 1679 4392 4393
863 7074 7091 4439 4441
864 6124 6151 4389 4395
865 2596 2611 4396 4397
866 5066 5084 4416 4420
867 3561 3568 4392 4393
868 8651 8660 4389 4394
869 1581 1587 4393 4409
870 2490 2496 4409 4417
871 6373 6401 4381 4389
872 4726 4738 4391 4391
873 4784 4789 4378 4379
874 8268 8273 4377 4384
875 6073 6081 4375 4376
876 6817 6835 4376 4381
877 2176 2198 4373 4379
878 8859 8874 4401 4407
879 2937 2937 4371 4371
880 922 923 4369 4377
881 4590 4605 4372 4374
882 2360 2372 4367 4373
883 3955 3963 4375 4380
884 3913 3915 4462 4468
885 7276 7277 4396 4411
886 6857 6863 4363 4367
887 2027 2038 4379 4381
888 2945 2952 4366 4369
889 3907 3915 4360 4364
890 3091 3092 4375 4379
891 8934 8945 4359 4359
892 6702 6752 4360 4360
893 7138 7139 4356 4356
894 2779 2796 4355 4355
895 7154 7205 4353 4356
896 4299 4307 4386 4393
897 2089 2101 4351 4351
898 4077 4085 4390 4398
899 1795 1800 4349 4354
900 7290 7326 4348 4352
901 6044 6049 4366 4368
902 7099 7123 4356 4356
903 3052 3059 4344 4345
904 2485 2486 4364 4367
905 1387 1400 4340 4347
906 6959 6961 4340 4341
907 1036 1077 4336 4352
908 1492 1499 4334 4335
909 3787 3797 4368 4374
910 1414 1438 4331 4333
911 687 696 4328 4338
912 6501 6523 4328 4333
913 1123 1123 4327 4329
914 3490 3492 4350 4361
915 7824 7838 4324 4324
916 729 761 4323 4327
917 1810 1813 4321 4324
918 5330 5338 4356 4362
919 776 784 4318 4320
920 1591 1597 4339 4347
921 1030 1037 4315 4318
922 6293 6300 4314 4320
923 7598 7604 4311 4312
924 5717 5727 4320 4331
925 6300 6304 4309 4314
926 6347 6354 4305 4306
927 9346 9356 4360 4365
928 1375 1378 4308 4308
929 7618 7631 4304 4308
930 9285 9313 4299 4306
931 6455 6460 4297 4314
932 3982 4016 4320 4328
933 5221 5235 4295 4296
934 5248 5251 4298 4304
935 3296 3316 4293 4300
936 2297 2305 4293 4293
937 5087 5096 4321 4324
938 9406 9426 4304 4304
939 1810 1813 4293 4294
940 4354 4359 4289 4312
941 5232 5237 4289 4289
942 1503 1513 4302 4307
943 6810 6812 4287 4298
944 5881 5910 4298 4299
945 4136 4144 4284 4290
946 3213 3219 4303 4304
947 2183 2186 4287 4287
948 4461 4463 4278 4282
949 7244 7245 4353 4359
950 7264 7273 4277 4282
951 2023 2030 4316 4322
952 907 950 4273 4289
953 4465 4469 4272 4275
954 1040 1040 4273 4275
955 1029 1031 4267 4269
956 8427 8442 4297 4316
957 6805 6808 4263 4273
958 8583 8585 4262 4263
959 842 844 4269 4270
960 4333 4337 4258 4261
961 6402 6413 4276 4278
962 3923 3926 4258 4260
963 1561 1566 4254 4267
964 3696 3703 4266 4266
965 3761 3772 4252 4254
966 6756 6761 4297 4301
967 5368 5369 4269 4271
968 1541 1546 4252 4256
969 1615 1619 4248 4250
970 7253 7257 4242 4244
971 8369 8390 4239 4255
972 7535 7549 4238 4238
973 1001 1028 4237 4240
974 2979 2981 4268 4280
975 6814 6820 4236 4239
976 4713 4714 4240 4244
977 5216 5219 4282 4287
978 5076 5088 4233 4237
979 2348 2349 4232 4235
980 9056 9069 4236 4239
981 1624 1625 4231 4235
982 6883 6884 4228 4231
983 1718 1721 4225 4226
984 8872 8875 4235 4247
985 7492 7496 4225 4230
986 6423 6439 4246 4255
987 6834 6845 4220 4236
988 5638 5643 4230 4238
989 699 736 4246 4247
990 2023 2025 4251 4266
991 4672 4695 4219 4228
992 943 946 4222 4224
993 4198 4222 4230 4233
994 4474 4478 4261 4263
995 5930 5949 4212 4219
996 1740 1747 4211 4223
997 4218 4225 4208 4212
998 6903 6921 4229 4240
999 6015 6046 4212 4215
1000 1569 1576 4205 4212
1001 1348 1358 4203 4208
1002 4225 4226 4208 4208
1003 1494 1502 4206 4215
1004 3386 3388 4198 4203
1005 6958 6960 4197 4197
1006 1806 1813 4242 4249
1007 8050 8052 4221 4227
1008 7798 7808 4199 4217
1009 6763 6772 4217 4231
1010 8335 8336 4191 4193
1011 8003 8031 4238 4251
1012 7224 7229 4192 4202
1013 4289 4292 4202 4206
1014 9193 9202 4187 4193
1015 8896 8900 4184 4192
1016 1844 1850 4206 4208
1017 1679 1694 4181 4182
1018 8897 8929 4179 4179
1019 1206 1208 4176 4177
1020 8507 8510 4183 4191
1021 6925 6934 4183 4185
1022 8639 8639 4203 4208
1023 8317 8321 4169 4172
1024 9464 9465 4181 4184
1025 3998 4004 4197 4202
1026 1472 1489 4167 4168
1027 4033 4040 4165 4167
1028 6294 6303 4163 4167
1029 6944 6950 4161 4163
1030 2778 2786 4188 4189
1031 8223 8225 4196 4200
1032 7313 7340 4159 4164
1033 1627 1649 4159 4167
1034 6902 6908 4173 4181
1035 1507 1512 4157 4167
1036 2981 2981 4231 4236
1037 685 699 4154 4157
1038 6899 6907 4157 4158
1039 9427 9429 4149 4149
1040 3582 3586 4183 4185
1041 1808 1821 4153 4162
1042 906 925 4146 4155
1043 7450 7471 4161 4162
1044 4453 4464 4142 4145
1045 8301 8301 4142 4142
1046 7289 7293 4144 4146
1047 6694 6706 4142 4144
1048 6924 6936 4140 4140
1049 8748 8756 4139 4140
1050 8067 8069 4139 4139
1051 7970 7984 4161 4163
1052 5462 5469 4174 4175
1053 9296 9309 4132 4135
1054 8300 8310 4130 4140
1055 2450 2455 4141 4142
1056 3711 3734 4128 4128
1057 1858 1874 4129 4137
1058 1903 1904 4125 4125
1059 7591 7592 4128 4128
1060 3115 3120 4126 4129
1061 6568 6585 4140 4147
1062 8321 8373 4122 4130
1063 9200 9201 4142 4145
1064 7153 7157 4124 4130
1065 6416 6440 4115 4115
1066 1933 1942 4119 4121
1067 7806 7817 4187 4194
1068 8082 8084 4115 4117
1069 3396 3402 4167 4168
1070 2138 2139 4114 4115
1071 1080 1086 4109 4111
1072 9158 9161 4113 4116
1073 8102 8108 4110 4112
1074 2142 2146 4105 4106
1075 9140 9153 4104 4106
1076 967 975 4102 4107
1077 1507 1507 4101 4109
1078 7523 7543 4107 4110
1079 6855 6855 4101 4116
1080 9163 9172 4098 4099
1081 8897 8911 4096 4104
1082 8269 8286 4094 4104
1083 1640 1652 4095 4105
1084 1985 1987 4107 4114
1085 8996 9005 4095 4100
1086 2359 2363 4111 4113
1087 7943 7953 4130 4135
1088 5331 5332 4099 4102
1089 8111 8120 4088 4090
1090 1388 1391 4085 4093
1091 8815 8828 4091 4093
1092 2569 2572 4096 4099
1093 6852 6857 4083 4088
1094 660 682 4081 4100
1095 2244 2253 4092 4105
1096 4440 4442 4086 4095
1097 819 836 4076 4088
1098 7437 7447 4081 4081
1099 8239 8249 4074 4084
1100 682 683 4080 4081
1101 3834 3841 4070 4078
1102 6755 6760 4070 4075
1103 6194 6196 4080 4086
1104 6672 6677 4064 4066
1105 6803 6808 4069 4075
1106 4037 4044 4083 4090
1107 7683 7698 4060 4067
1108 4404 4415 4060 4066
1109 5166 5173 4080 4094
1110 9124 9135 4069 4082
1111 5354 5370 4066 4077
1112 718 721 4058 4059
1113 1510 1514 4052 4062
1114 7646 7653 4064 4068
1115 2526 2535 4064 4068
1116 8165 8179 4062 4073
1117 7296 7306 4046 4048
1118 7383 7393 4052 4052
1119 6442 6453 4050 4053
1120 8919 8924 4075 4086
1121 2039 2039 4053 4058
1122 8231 8236 4038 4046
1123 2339 2347 4061 4079
1124 1120 1133 4039 4043
1125 8509 8514 4034 4035
1126 9012 9028 4035 4036
1127 2061 2068 4029 4036
1128 8702 8716 4027 4030
1129 2326 2338 4031 4035
1130 3909 3912 4023 4024
1131 6538 6547 4023 4025
1132 9127 9130 4054 4056
1133 5550 5553 4056 4065
1134 2890 2891 4027 4034
1135 9089 9100 4029 4035
1136 3988 3999 4019 4031
1137 6904 6921 4011 4014
1138 2486 2489 4008 4012
1139 4089 4112 4072 4077
1140 6937 6940 4009 4018
1141 2477 2486 4002 4008
1142 7208 7211 4000 4011
1143 685 686 4017 4027
1144 6495 6507 4007 4008
1145 2078 2078 4001 4006
1146 5207 5211 4056 4058
1147 1195 1203 4031 4038
1148 1940 1947 3993 3995
1149 2991 3014 3991 3998
1150 2018 2026 3989 3992
1151 1501 1508 3988 3996
1152 5554 5556 3997 4001
1153 2612 2614 3988 3990
1154 6173 6175 4044 4048
1155 8682 8690 4021 4021
1156 5505 5534 3984 3987
1157 8776 8777 3982 3983
1158 2817 2820 3995 3998
1159 5625 5636 3993 3994
1160 3062 3070 3981 3982
1161 8764 8769 3984 3985
1162 5799 5813 3979 3981
1163 8770 8772 3978 3981
1164 4331 4356 4023 4031
1165 4296 4306 3974 3975
1166 1349 1359 3976 3978
1167 7614 7625 3978 3989
1168 6974 6977 3984 3991
1169 8353 8355 3970 3971
1170 3227 3229 3990 3994
1171 6491 6493 3989 3996
1172 2678 2693 3968 3970
1173 1492 1494 3963 3963
1174 8439 8442 3980 3983
1175 1176 1177 3988 3992
1176 1450 1451 3962 3963
1177 7614 7620 3959 3965
1178 2337 2346 4017 4027
1179 9408 9414 3973 3974
1180 3831 3835 3967 3972
1181 7771 7774 3982 3990
1182 1119 1128 3950 3952
1183 2016 2031 3958 3961
1184 8728 8735 3969 3973
1185 8072 8083 3946 3948
1186 7314 7328 3945 3948
1187 6376 6387 3972 3973
1188 5218 5220 3944 3944
1189 1812 1828 3959 3971
1190 1446 1446 3943 3943
1191 1443 1444 3955 3956
1192 1498 1501 3942 3944
1193 1395 1399 3938 3952
1194 8576 8581 3945 3950
1195 7205 7209 3937 3938
1196 4772 4773 3948 3954
1197 6036 6060 3937 3944
1198 2871 2877 3951 3952
1199 9373 9380 3934 3937
1200 1492 1493 3938 3938
1201 1483 1484 3934 3934
1202 1470 1471 3933 3933
1203 1460 1460 3934 3934
1204 1451 1451 3938 3938
1205 4954 4996 3942 3949
1206 613 624 3953 3961
1207 3713 3718 3994 4005
1208 1549 1574 3929 3951
1209 935 938 3988 4022
1210 4732 4737 3927 3933
1211 3711 3747 3924 3936
1212 9362 9364 3923 3926
1213 2962 2969 3921 3921
1214 2929 2933 3931 3932
1215 1212 1217 3919 3925
1216 3685 3699 3918 3924
1217 3690 3693 3915 3915
1218 3451 3454 3935 3944
1219 7784 7794 3924 3927
1220 7815 7841 3911 3918
1221 9322 9326 3911 3912
1222 6526 6535 3932 3936
1223 1400 1419 3933 3953
1224 2372 2373 3906 3911
1225 5341 5358 3907 3917
1226 3027 3028 3911 3911
1227 1417 1429 3904 3907
1228 8038 8046 3945 3947
1229 9295 9309 3901 3903
1230 5100 5102 3900 3901
1231 4500 4504 3898 3899
1232 5792 5799 3979 3979
1233 6933 6939 3895 3906
1234 2500 2502 3945 3954
1235 2162 2167 3898 3911
1236 5071 5084 3891 3899
1237 8702 8719 3896 3904
1238 4499 4500 3882 3883
1239 7369 7377 3914 3916
1240 6539 6545 3897 3902
1241 7859 7859 3884 3889
1242 7184 7187 3900 3904
1243 9249 9254 3873 3873
1244 4444 4450 3873 3879
1245 1410 1429 3878 3904
1246 773 785 3892 3894
1247 4218 4219 3868 3871
1248 5794 5811 3893 3894
1249 7380 7383 3870 3874
1250 9242 9252 3865 3872
1251 4257 4262 3871 3876
1252 6709 6725 3863 3865
1253 2381 2382 3862 3867
1254 1337 1351 3861 3865
1255 4218 4218 3859 3868
1256 8315 8326 3915 3916
1257 8475 8487 3887 3887
1258 7555 7563 3858 3859
1259 7735 7753 3909 3913
1260 3039 3042 3892 3900
1261 4191 4193 3854 3858
1262 3142 3154 3856 3863
1263 1484 1484 3851 3852
1264 3623 3628 3850 3857
1265 6960 6963 3850 3857
1266 2590 2604 3853 3855
1267 5453 5464 3839 3839
1268 1516 1534 3852 3865
1269 4003 4015 3855 3856
1270 8164 8165 3895 3898
1271 2962 2971 3851 3869
1272 7298 7322 3858 3858
1273 2805 2818 3834 3838
1274 6898 6905 3833 3838
1275 3408 3430 3829 3854
1276 3484 3496 3827 3831
1277 1623 1623 3834 3837
1278 6576 6579 3824 3833
1279 4397 4402 3827 3830
1280 4312 4318 3856 3857
1281 4623 4632 3822 3826
1282 4657 4663 3821 3822
1283 7428 7429 3820 3836
1284 7348 7371 3816 3818
1285 807 828 3816 3828
1286 2359 2362 3856 3858
1287 3932 3934 3824 3827
1288 4568 4580 3836 3836
1289 6081 6083 3817 3821
1290 686 692 3811 3814
1291 3578 3582 3810 3812
1292 7300 7321 3811 3816
1293 1678 1680 3807 3808
1294 4491 4498 3805 3807
1295 7421 7422 3807 3809
1296 5504 5510 3803 3806
1297 4111 4116 3799 3803
1298 616 616 3802 3808
1299 5507 5512 3796 3797
1300 2844 2847 3811 3816
1301 2356 2358 3797 3797
1302 7276 7283 3797 3800
1303 7104 7118 3791 3801
1304 4971 4977 3787 3796
1305 981 990 3785 3796
1306 4601 4620 3789 3800
1307 4938 4940 3820 3821
1308 6665 6680 3784 3786
1309 632 650 3779 3787
1310 7944 7953 3796 3805
1311 6070 6075 3794 3797
1312 2441 2443 3776 3776
1313 1428 1438 3775 3788
1314 6527 6546 3779 3781
1315 8305 8309 3798 3807
1316 4897 4908 3781 3785
1317 1899 1908 3772 3775
1318 8267 8272 3771 3778
1319 7664 7670 3761 3765
1320 7631 7636 3839 3839
1321 4040 4055 3770 3774
1322 2957 2965 3758 3761
1323 2906 2909 3783 3788
1324 6026 6042 3777 3777
1325 7335 7348 3751 3751
1326 3006 3019 3753 3754
1327 7132 7133 3748 3749
1328 2710 2710 3789 3799
1329 2603 2607 3751 3755
1330 2642 2648 3742 3746
1331 5297 5301 3742 3742
1332 4979 4980 3763 3770
1333 2709 2715 3742 3746
1334 3814 3819 3753 3754
1335 6361 6362 3735 3735
1336 6372 6378 3734 3739
1337 2138 2149 3760 3767
1338 4811 4822 3758 3764
1339 7591 7594 3766 3776
1340 8135 8153 3728 3731
1341 7412 7418 3733 3733
1342 7475 7476 3765 3772
1343 2338 2346 3725 3728
1344 5872 5895 3725 3726
1345 4326 4334 3751 3754
1346 3150 3170 3727 3728
1347 2865 2867 3753 3755
1348 8016 8069 3732 3742
1349 2366 2374 3725 3732
1350 3494 3495 3724 3734
1351 1553 1553 3721 3722
1352 8153 8164 3731 3733
1353 5313 5326 3739 3749
1354 6565 6570 3755 3765
1355 2918 2923 3721 3724
1356 6096 6105 3726 3729
1357 5354 5362 3714 3715
1358 7670 7677 3761 3763
1359 991 994 3733 3736
1360 6619 6631 3768 3769
1361 6896 6903 3708 3710
1362 5819 5828 3716 3720
1363 3677 3692 3703 3721
1364 5018 5030 3694 3695
1365 6072 6077 3692 3696
1366 5642 5654 3689 3691
1367 5687 5698 3687 3688
1368 6949 6959 3691 3693
1369 4228 4229 3714 3718
1370 6539 6543 3701 3705
1371 4618 4626 3687 3692
1372 2675 2679 3705 3710
1373 4228 4238 3698 3702
1374 740 742 3749 3753
1375 6989 7011 3674 3686
1376 6368 6390 3669 3677
1377 4263 4266 3669 3675
1378 2233 2242 3683 3689
1379 5861 5867 3664 3664
1380 3270 3279 3668 3669
1381 1310 1313 3661 3662
1382 7798 7818 3660 3667
1383 5182 5191 3659 3675
1384 6853 6859 3658 3662
1385 6700 6700 3668 3669
1386 3199 3213 3677 3693
1387 5352 5353 3655 3659
1388 5054 5056 3674 3679
1389 694 696 3654 3657
1390 5487 5494 3659 3665
1391 7711 7715 3682 3683
1392 6737 6749 3651 3651
1393 7843 7850 3650 3654
1394 7882 7888 3646 3648
1395 4500 4506 3659 3662
1396 2081 2108 3668 3670
1397 7056 7065 3653 3662
1398 952 965 3703 3703
1399 971 984 3663 3665
1400 7261 7277 3649 3653
1401 2731 2735 3642 3646
1402 1519 1528 3701 3708
1403 1521 1524 3630 3632
1404 1465 1494 3629 3630
1405 7565 7566 3645 3650
1406 7559 7561 3723 3731
1407 754 765 3641 3642
1408 4502 4511 3626 3627
1409 7248 7261 3625 3628
1410 7176 7186 3621 3632
1411 5353 5358 3648 3651
1412 2822 2828 3638 3644
1413 3498 3521 3606 3612
1414 5162 5186 3604 3610
1415 5128 5133 3602 3602
1416 5893 5905 3612 3612
1417 3150 3159 3612 3616
1418 7223 7227 3608 3611
1419 3235 3249 3594 3604
1420 3333 3340 3599 3599
1421 1147 1159 3592 3593
1422 2878 2904 3590 3595
1423 7537 7544 3617 3620
1424 7689 7696 3623 3623
1425 754 764 3605 3610
1426 2402 2406 3621 3626
1427 7218 7226 3581 3582
1428 7195 7195 3580 3581
1429 5211 5215 3580 3584
1430 3106 3115 3585 3587
1431 2974 2979 3584 3586
1432 6766 6775 3605 3614
1433 3034 3039 3572 3572
1434 5877 5884 3577 3579
1435 7503 7504 3568 3587
1436 5324 5331 3611 3614
1437 3003 3014 3566 3567
1438 4270 4294 3579 3582
1439 5613 5619 3604 3606
1440 3148 3154 3565 3570
1441 1269 1293 3587 3601
1442 2052 2056 3629 3634
1443 7500 7505 3557 3563
1444 6674 6677 3560 3565
1445 2463 2466 3559 3561
1446 1646 1650 3547 3547
1447 6347 6355 3575 3581
1448 3197 3208 3552 3555
1449 6534 6538 3581 3582
1450 7273 7280 3543 3545
1451 6764 6771 3543 3550
1452 2888 2902 3542 3544
1453 6809 6830 3553 3555
1454 4983 4997 3549 3564
1455 4922 4943 3531 3534
1456 2416 2418 3540 3544
1457 2823 2830 3535 3544
1458 7344 7355 3533 3534
1459 7416 7425 3552 3554
1460 2911 2914 3535 3541
1461 6477 6502 3528 3542
1462 6620 6620 3523 3532
1463 695 699 3528 3533
1464 6641 6646 3534 3537
1465 6868 6875 3536 3536
1466 6115 6124 3540 3574
1467 7134 7138 3517 3522
1468 5097 5109 3518 3518
1469 7008 7016 3533 3535
1470 7547 7549 3528 3531
1471 5308 5324 3525 3533
1472 6894 6896 3508 3515
1473 3457 3468 3539 3541
1474 5768 5777 3524 3527
1475 5676 5680 3503 3504
1476 6634 6637 3502 3518
1477 6896 6897 3498 3501
1478 3824 3831 3519 3524
1479 1122 1125 3499 3506
1480 5881 5891 3510 3513
1481 5200 5220 3492 3499
1482 6689 6708 3495 3498
1483 2770 2772 3489 3495
1484 2441 2443 3488 3493
1485 7289 7294 3520 3539
1486 3399 3416 3485 3506
1487 3834 3847 3478 3481
1488 7040 7044 3485 3492
1489 6849 6860 3474 3476
1490 6106 6107 3475 3481
1491 6036 6039 3490 3495
1492 6155 6156 3512 3514
1493 6858 6860 3468 3468
1494 1479 1484 3508 3513
1495 3146 3147 3465 3466
1496 6609 6615 3476 3477
1497 2228 2232 3462 3462
1498 4171 4176 3485 3502
1499 4945 4948 3459 3464
1500 2541 2544 3452 3459
1501 2341 2343 3450 3457
1502 6725 6732 3454 3458
1503 6140 6145 3447 3459
1504 4336 4351 3448 3448
1505 4309 4320 3445 3446
1506 2316 2319 3452 3454
1507 3217 3244 3450 3457
1508 3187 3189 3450 3456
1509 2138 2150 3450 3450
1510 2862 2867 3436 3440
1511 1897 1911 3433 3439
1512 1911 1912 3431 3433
1513 6413 6420 3512 3518
1514 2078 2080 3435 3437
1515 6876 6878 3436 3442
1516 1677 1684 3432 3439
1517 3452 3465 3427 3431
1518 2535 2537 3419 3425
1519 5228 5243 3414 3418
1520 5875 5877 3421 3428
1521 2474 2481 3418 3424
1522 6647 6654 3411 3414
1523 4988 5000 3431 3431
1524 4062 4071 3406 3408
1525 3002 3002 3418 3426
1526 6433 6437 3432 3436
1527 2710 2723 3402 3406
1528 5423 5459 3396 3404
1529 2651 2660 3407 3407
1530 2034 2060 3391 3400
1531 1418 1424 3386 3395
1532 5545 5548 3392 3409
1533 3235 3241 3412 3417
1534 2543 2550 3378 3383
1535 6019 6020 3369 3375
1536 4058 4071 3398 3405
1537 3613 3621 3379 3385
1538 5692 5701 3399 3401
1539 872 891 3364 3366
1540 3479 3485 3379 3387
1541 4580 4590 3397 3402
1542 6866 6868 3363 3372
1543 6895 6900 3415 3416
1544 4010 4019 3358 3369
1545 1066 1089 3424 3439
1546 4077 4081 3373 3373
1547 3314 3325 3353 3359
1548 1010 1014 3355 3357
1549 887 891 3355 3358
1550 6184 6186 3360 3362
1551 6720 6727 3349 3362
1552 2700 2707 3347 3348
1553 3552 3555 3353 3361
1554 2977 2989 3347 3354
1555 1748 1753 3352 3355
1556 6440 6452 3365 3387
1557 1712 1717 3325 3334
1558 2473 2489 3357 3358
1559 5995 6007 3323 3328
1560 4009 4013 3338 3341
1561 1866 1875 3318 3324
1562 6765 6767 3316 3328
1563 4795 4803 3345 3345
1564 2106 2125 3313 3314
1565 3518 3526 3321 3322
1566 5626 5634 3310 3312
1567 6268 6276 3309 3315
1568 2554 2561 3341 3348
1569 2333 2345 3310 3315
1570 2173 2179 3323 3332
1571 2119 2125 3306 3309
1572 4103 4112 3336 3343
1573 1773 1777 3315 3318
1574 3287 3299 3310 3319
1575 3218 3228 3308 3312
1576 2750 2758 3296 3313
1577 1146 1147 3296 3300
1578 3481 3485 3288 3299
1579 5493 5507 3281 3283
1580 4725 4729 3315 3325
1581 2562 2563 3282 3294
1582 4252 4257 3299 3301
1583 3086 3093 3282 3285
1584 1147 1161 3258 3268
1585 5461 5463 3250 3265
1586 5964 5967 3290 3292
1587 6479 6487 3251 3252
1588 3352 3356 3248 3252
1589 3147 3147 3242 3246
1590 2140 2149 3240 3241
1591 1225 1236 3248 3249
1592 1161 1168 3250 3258
1593 1634 1641 3287 3294
1594 3794 3802 3240 3241
1595 1489 1492 3234 3238
1596 6796 6797 3257 3259
1597 1174 1177 3230 3234
1598 3140 3144 3226 3227
1599 977 989 3240 3248
1600 5562 5570 3222 3229
1601 1130 1133 3220 3227
1602 1933 1937 3249 3261
1603 6579 6596 3214 3223
1604 2760 2763 3211 3225
1605 929 929 3210 3215
1606 5639 5643 3205 3205
1607 1325 1330 3228 3236
1608 1426 1433 3236 3239
1609 2044 2047 3230 3233
1610 1355 1359 3201 3205
1611 3329 3338 3199 3201
1612 6335 6347 3205 3212
1613 6237 6250 3200 3202
1614 6303 6318 3192 3200
1615 5747 5758 3188 3191
1616 3635 3636 3188 3188
1617 2952 2953 3180 3180
1618 2953 2954 3178 3180
1619 3415 3416 3180 3182
1620 4581 4583 3192 3193
1621 3159 3160 3166 3166
1622 5335 5340 3212 3217
1623 5469 5479 3193 3198
1624 2816 2821 3160 3160
1625 5689 5701 3153 3168
1626 1131 1137 3200 3205
1627 4123 4124 3197 3208
1628 2585 2587 3150 3152
1629 4525 4540 3147 3155
1630 6246 6264 3190 3195
1631 3309 3332 3143 3144
1632 4629 4634 3140 3146
1633 2198 2209 3175 3179
1634 3016 3026 3134 3140
1635 2628 2637 3133 3138
1636 3430 3444 3129 3143
1637 3444 3458 3124 3129
1638 2068 2074 3122 3125
1639 3036 3054 3122 3128
1640 3343 3346 3122 3122
1641 3446 3449 3116 3117
1642 804 818 3132 3134
1643 6428 6433 3151 3152
1644 5992 5996 3113 3114
1645 2822 2825 3109 3114
1646 6384 6385 3106 3108
1647 5927 5929 3103 3104
1648 6033 6037 3131 3132
1649 6192 6218 3101 3110
1650 2667 2669 3117 3120
1651 3578 3591 3090 3091
1652 4264 4277 3119 3120
1653 3011 3047 3088 3111
1654 2946 2947 3083 3084
1655 6625 6628 3080 3088
1656 6610 6612 3152 3157
1657 6090 6091 3083 3086
1658 2694 2699 3094 3095
1659 6103 6111 3080 3090
1660 2038 2044 3087 3087
1661 2248 2250 3134 3138
1662 3303 3303 3066 3068
1663 5369 5374 3113 3123
1664 4215 4219 3073 3077
1665 2261 2263 3075 3080
1666 3686 3698 3059 3060
1667 6515 6520 3065 3071
1668 2796 2803 3057 3058
1669 2792 2796 3056 3057
1670 4181 4193 3059 3062
1671 4154 4162 3066 3067
1672 6532 6543 3046 3058
1673 1374 1387 3133 3154
1674 1375 1381 3083 3090
1675 4717 4726 3040 3041
1676 4701 4715 3034 3039
1677 3164 3169 3032 3077
1678 2684 2695 3032 3032
1679 775 780 3087 3091
1680 4236 4255 3030 3033
1681 4015 4031 3041 3042
1682 6537 6543 3045 3046
1683 4962 4980 3022 3034
1684 2967 2984 3017 3029
1685 5859 5865 3046 3048
1686 2749 2751 3020 3022
1687 6600 6619 3012 3019
1688 2798 2811 3010 3011
1689 4150 4151 3036 3040
1690 1933 1938 3047 3050
1691 1524 1542 3003 3009
1692 2706 2739 3000 3000
1693 1374 1376 3018 3026
1694 2376 2376 3000 3002
1695 2611 2629 3000 3004
1696 3160 3160 3004 3005
1697 3521 3577 3001 3064
1698 4303 4305 3000 3001
1699 5382 5392 3023 3046
1700 2923 2933 2999 2999
1701 2842 2850 2995 2995
1702 3156 3156 2989 2991
1703 1395 1402 2983 2987
1704 2495 2504 2997 3000
1705 3323 3327 2980 2981
1706 3304 3305 2978 2978
1707 3576 3593 2975 2976
1708 3059 3061 2973 2975
1709 4258 4264 2991 2995
1710 3474 3556 2964 2975
1711 3460 3474 2960 2964
1712 2171 2175 2994 2996
1713 6799 6800 2984 2999
1714 6100 6101 2957 2957
1715 2880 2940 2950 2984
1716 1910 1917 2948 2951
1717 1888 1902 2945 2953
1718 6142 6147 2961 2964
1719 5458 5474 2939 2941
1720 4458 4477 2973 2975
1721 6448 6451 2938 2942
1722 1814 1834 2927 2934
1723 2820 2834 2922 2927
1724 6137 6145 2930 2937
1725 4587 4591 2914 2919
1726 4280 4297 2948 2952
1727 4094 4098 2953 2956
1728 4318 4325 2905 2909
1729 3186 3194 2913 2916
1730 3172 3173 2894 2894
1731 2250 2270 2947 2956
1732 2394 2399 2918 2920
1733 2806 2812 2923 2924
1734 2662 2685 2881 2898
1735 3175 3177 2889 2892
1736 1732 1750 2908 2912
1737 6320 6332 2886 2900
1738 1109 1110 2916 2920
1739 3423 3426 2877 2886
1740 6286 6295 2871 2877
1741 6103 6108 2896 2904
1742 2753 2768 2867 2871
1743 3266 3270 2859 2861
1744 3664 3670 2855 2867
1745 956 964 2850 2857
1746 3659 3660 2841 2844
1747 4351 4370 2850 2868
1748 2352 2352 2834 2834
1749 3686 3700 2832 2836
1750 3275 3282 2826 2827
1751 5048 5052 2837 2838
1752 4380 4380 2819 2829
1753 5497 5501 2815 2818
1754 2347 2360 2813 2822
1755 6878 6886 2819 2829
1756 6212 6217 2820 2821
1757 6654 6660 2813 2816
1758 4379 4380 2816 2819
1759 1135 1144 2833 2834
1760 1660 1662 2815 2817
1761 4852 4857 2811 2814
1762 1626 1632 2799 2803
1763 1994 2007 2797 2798
1764 2971 2975 2786 2804
1765 2727 2741 2822 2836
1766 1985 1988 2792 2794
1767 2193 2205 2782 2785
1768 5690 5695 2777 2783
1769 6396 6398 2799 2807
1770 4604 4611 2775 2778
1771 4783 4795 2776 2778
1772 6048 6049 2765 2767
1773 4065 4095 2784 2788
1774 3991 3997 2787 2792
1775 2978 2988 2764 2777
1776 3894 3900 2777 2777
1777 3486 3491 2771 2795
1778 2614 2616 2747 2751
1779 5144 5153 2747 2748
1780 1952 1952 2781 2784
1781 6666 6667 2784 2796
1782 2205 2208 2782 2785
1783 1141 1146 2742 2756
1784 6672 6673 2728 2728
1785 2732 2732 2748 2756
1786 6658 6664 2726 2729
1787 3717 3735 2710 2720
1788 1060 1066 2706 2708
1789 3786 3817 2745 2746
1790 1897 1903 2730 2734
1791 1828 1829 2700 2700
1792 1066 1069 2698 2698
1793 5573 5578 2695 2702
1794 4681 4684 2718 2724
1795 4755 4763 2693 2694
1796 3509 3509 2695 2698
1797 5540 5553 2694 2700
1798 4073 4082 2706 2707
1799 6551 6568 2682 2687
1800 6648 6649 2680 2680
1801 1441 1446 2725 2726
1802 2542 2552 2694 2699
1803 6050 6052 2744 2754
1804 4518 4521 2686 2703
1805 4621 4632 2662 2663
1806 1352 1354 2660 2664
1807 6648 6653 2664 2674
1808 2113 2126 2665 2676
1809 6115 6132 2669 2679
1810 3725 3730 2680 2689
1811 2882 2894 2651 2651
1812 2959 2960 2644 2648
1813 4499 4500 2644 2644
1814 1095 1096 2640 2644
1815 2678 2684 2632 2633
1816 6835 6841 2631 2632
1817 6810 6817 2638 2642
1818 3253 3253 2622 2624
1819 6997 7002 2640 2641
1820 6487 6493 2619 2621
1821 5009 5012 2618 2620
1822 1081 1083 2628 2632
1823 1725 1729 2612 2617
1824 1738 1748 2610 2611
1825 6309 6335 2635 2641
1826 1262 1270 2615 2619
1827 1231 1234 2647 2654
1828 3243 3254 2602 2610
1829 3831 3854 2603 2616
1830 4318 4326 2602 2602
1831 5140 5150 2610 2611
1832 3495 3496 2597 2603
1833 2679 2686 2585 2599
1834 3940 3956 2610 2613
1835 5103 5104 2576 2576
1836 1668 1674 2603 2605
1837 4686 4688 2645 2649
1838 1501 1509 2602 2604
1839 2417 2462 2574 2588
1840 5489 5500 2572 2587
1841 2361 2379 2568 2571
1842 2389 2397 2564 2568
1843 3274 3296 2569 2577
1844 1615 1616 2571 2575
1845 3212 3219 2559 2575
1846 4713 4717 2561 2563
1847 5216 5230 2550 2553
1848 1955 1955 2579 2588
1849 4202 4229 2542 2577
1850 5976 5981 2591 2597
1851 5645 5654 2538 2547
1852 4224 4229 2537 2542
1853 5650 5654 2533 2538
1854 6220 6227 2543 2545
1855 4755 4759 2534 2542
1856 4546 4555 2548 2552
1857 6356 6360 2528 2532
1858 5887 5901 2512 2516
1859 5782 5788 2509 2515
1860 5977 5986 2508 2511
1861 4952 4961 2519 2522
1862 2394 2394 2553 2558
1863 4918 4919 2501 2502
1864 2851 2870 2498 2510
1865 6011 6017 2497 2500
1866 2147 2159 2531 2538
1867 6231 6232 2504 2508
1868 6241 6245 2495 2496
1869 6254 6259 2491 2494
1870 1396 1399 2531 2534
1871 5480 5482 2500 2508
1872 2218 2223 2486 2491
1873 3159 3161 2485 2521
1874 6268 6276 2484 2485
1875 1367 1379 2481 2483
1876 4403 4404 2483 2492
1877 2797 2814 2479 2479
1878 5376 5395 2504 2506
1879 5176 5181 2476 2482
1880 2192 2202 2473 2473
1881 4385 4393 2469 2469
1882 1203 1207 2479 2487
1883 6346 6348 2486 2497
1884 3487 3493 2461 2466
1885 5644 5652 2461 2461
1886 6348 6351 2458 2462
1887 2697 2709 2465 2467
1888 4766 4770 2472 2476
1889 2234 2238 2476 2481
1890 5612 5636 2472 2479
1891 1104 1134 2449 2475
1892 5423 5437 2457 2462
1893 2273 2310 2448 2459
1894 1753 1756 2461 2473
1895 3062 3064 2441 2442
1896 3842 3842 2439 2443
1897 5466 5466 2451 2452
1898 6348 6353 2447 2457
1899 4420 4424 2463 2471
1900 6871 6878 2433 2435
1901 1357 1358 2427 2439
1902 4808 4842 2426 2445
1903 3797 3813 2434 2434
1904 5470 5477 2433 2436
1905 6400 6416 2430 2433
1906 2061 2071 2414 2414
1907 2214 2238 2427 2434
1908 5639 5655 2407 2419
1909 1693 1699 2414 2414
1910 3547 3553 2407 2419
1911 5577 5597 2413 2434
1912 5335 5345 2416 2417
1913 1669 1673 2400 2404
1914 1511 1521 2398 2416
1915 6668 6670 2404 2414
1916 6809 6813 2398 2401
1917 1363 1372 2398 2398
1918 3384 3388 2422 2429
1919 2867 2870 2393 2397
1920 1351 1354 2392 2397
1921 6624 6639 2385 2398
1922 6515 6527 2398 2401
1923 2539 2553 2380 2391
1924 2569 2577 2374 2374
1925 6579 6593 2377 2379
1926 1585 1595 2367 2368
1927 3725 3731 2399 2400
1928 5333 5344 2358 2363
1929 2671 2674 2372 2386
1930 2201 2205 2392 2400
1931 1246 1254 2351 2357
1932 1681 1682 2349 2350
1933 1675 1681 2349 2350
1934 4483 4486 2351 2355
1935 1840 1853 2349 2369
1936 4085 4099 2353 2364
1937 2525 2528 2359 2364
1938 3630 3634 2341 2345
1939 1136 1168 2359 2361
1940 7181 7191 2357 2359
1941 1430 1436 2336 2341
1942 3848 3855 2352 2353
1943 6408 6420 2370 2376
1944 3282 3284 2375 2381
1945 7373 7378 2317 2319
1946 5752 5768 2352 2362
1947 2920 2924 2322 2331
1948 3474 3484 2315 2321
1949 2917 2919 2306 2311
1950 6661 6662 2320 2324
1951 5001 5035 2301 2303
1952 4451 4466 2297 2317
1953 3938 3944 2299 2305
1954 3205 3216 2293 2295
1955 2185 2189 2346 2352
1956 4073 4082 2287 2287
1957 2142 2148 2283 2286
1958 3806 3808 2285 2294
1959 1275 1287 2277 2288
1960 5861 5863 2298 2309
1961 6447 6451 2301 2317
1962 1303 1307 2270 2271
1963 1612 1619 2268 2269
1964 5112 5131 2279 2281
1965 4489 4491 2265 2271
1966 1475 1482 2258 2264
1967 7289 7297 2259 2268
1968 3588 3589 2282 2287
1969 4884 4905 2253 2270
1970 3343 3352 2255 2262
1971 1775 1790 2260 2263
1972 5305 5307 2258 2265
1973 5588 5589 2249 2249
1974 1671 1675 2257 2266
1975 6807 6810 2241 2241
1976 2066 2074 2258 2259
1977 3848 3860 2234 2237
1978 3734 3746 2264 2271
1979 1342 1347 2231 2236
1980 7141 7148 2230 2235
1981 3266 3276 2229 2241
1982 1587 1596 2257 2264
1983 3625 3635 2237 2238
1984 1966 1974 2225 2225
1985 7278 7281 2255 2256
1986 3571 3586 2234 2237
1987 4547 4550 2223 2229
1988 2193 2196 2228 2230
1989 2947 2958 2227 2232
1990 6955 6963 2229 2235
1991 4549 4557 2210 2220
1992 2870 2877 2207 2208
1993 5981 5984 2207 2214
1994 6583 6588 2208 2209
1995 2240 2258 2204 2204
1996 3997 4016 2200 2201
1997 4185 4192 2224 2229
1998 1339 1341 2208 2210
1999 6610 6610 2193 2195
2000 2863 2870 2200 2207
2001 2624 2626 2188 2189
2002 5525 5541 2192 2198
2003 2975 2984 2188 2195
2004 4163 4183 2190 2199
2005 7351 7363 2170 2174
2006 6212 6224 2161 2162
2007 7246 7252 2193 2195
2008 4596 4610 2159 2162
2009 3130 3143 2157 2173
2010 3445 3455 2157 2159
2011 7279 7303 2163 2163
2012 3111 3116 2144 2146
2013 3632 3642 2141 2142
2014 1751 1757 2209 2212
2015 3105 3106 2138 2142
2016 3439 3446 2146 2154
2017 6589 6601 2166 2172
2018 4505 4520 2131 2134
2019 3105 3105 2136 2138
2020 5283 5293 2123 2125
2021 4186 4189 2149 2153
2022 6773 6777 2126 2130
2023 3694 3701 2127 2134
2024 2776 2776 2114 2122
2025 7258 7263 2113 2123
2026 5238 5257 2107 2118
2027 5462 5472 2102 2104
2028 2774 2776 2099 2114
2029 4384 4396 2114 2121
2030 5686 5689 2111 2120
2031 5202 5209 2097 2101
2032 3649 3653 2105 2113
2033 3263 3287 2084 2086
2034 4819 4828 2078 2091
2035 5248 5264 2091 2097
2036 4834 4835 2069 2071
2037 3580 3588 2064 2072
2038 6354 6361 2082 2083
2039 2711 2765 2052 2077
2040 3159 3168 2071 2082
2041 2888 2891 2052 2056
2042 5460 5460 2058 2069
2043 3227 3228 2035 2044
2044 7730 7737 2066 2071
2045 7624 7628 2027 2034
2046 7206 7214 2028 2032
2047 6517 6531 2014 2014
2048 7721 7724 2011 2017
2049 3021 3026 2008 2008
2050 2894 2920 2005 2009
2051 4255 4259 2028 2032
2052 7730 7741 2003 2011
2053 4020 4029 1995 2000
2054 4232 4244 1989 1990
2055 2755 2787 2019 2041
2056 5415 5416 1973 1974
2057 7496 7500 2045 2047
2058 3642 3650 2057 2062
2059 7541 7551 1972 1974
2060 3364 3419 1957 1958
2061 3578 3585 1962 1964
2062 3234 3250 1993 2001
2063 3344 3347 1952 1953
2064 7586 7605 1958 1962
2065 7229 7234 1966 1974
2066 4344 4349 1948 1950
2067 3639 3644 1947 1951
2068 7825 7837 1943 1951
2069 2916 2921 1937 1938
2070 4911 4915 2002 2010
2071 3749 3758 1943 1944
2072 6537 6539 1981 1988
2073 4360 4363 1935 1944
2074 3628 3631 1923 1927
2075 4628 4634 1929 1943
2076 7481 7484 1908 1928
2077 6479 6485 1921 1922
2078 3650 3650 1901 1903
2079 3194 3195 1902 1903
2080 3633 3643 1890 1890
2081 6109 6110 1890 1894
2082 2995 2998 1913 1920
2083 4090 4104 1883 1898
2084 5694 5711 1879 1885
2085 7883 7888 1882 1886
2086 6936 6967 1875 1876
2087 5677 5679 1885 1897
2088 7479 7479 1868 1877
2089 4658 4677 1891 1898
2090 4027 4033 1873 1882
2091 5654 5665 1872 1874
2092 4131 4137 1859 1860
2093 3675 3675 1857 1858
2094 4806 4811 1856 1858
2095 3134 3138 1860 1861
2096 6691 6692 1852 1867
2097 3485 3487 1847 1851
2098 4594 4603 1850 1862
2099 4876 4887 1841 1845
2100 4593 4609 1835 1842
2101 3691 3696 1842 1843
2102 3618 3621 1828 1832
2103 6627 6638 1830 1833
2104 3566 3573 1824 1826
2105 6352 6359 1821 1822
2106 3563 3566 1822 1824
2107 4053 4054 1820 1831
2108 4041 4044 1806 1806
2109 4399 4433 1825 1828
2110 3923 3941 1804 1810
2111 3990 3995 1800 1800
2112 6117 6126 1846 1868
2113 5576 5577 1865 1873
2114 6814 6824 1796 1802
2115 7395 7443 1798 1827
2116 4210 4218 1797 1798
2117 4622 4625 1822 1829
2118 8272 8276 1823 1832
2119 7360 7362 1780 1780
2120 7516 7524 1792 1794
2121 3198 3203 1830 1835
2122 2665 2666 1768 1769
2123 8066 8073 1785 1786
2124 5569 5590 1782 1792
2125 2848 2854 1757 1769
2126 4189 4198 1755 1758
2127 4198 4206 1753 1758
2128 5910 5911 1746 1747
2129 6152 6175 1748 1757
2130 8088 8093 1756 1764
2131 8056 8059 1739 1742
2132 7603 7605 1753 1758
2133 3465 3474 1732 1736
2134 3851 3871 1728 1728
2135 8230 8235 1748 1752
2136 8132 8134 1728 1731
2137 5241 5244 1735 1752
2138 3622 3623 1750 1752
2139 3613 3615 1719 1720
2140 4024 4028 1718 1720
2141 5267 5270 1717 1719
2142 4602 4607 1749 1760
2143 3993 4002 1716 1717
2144 4131 4163 1708 1718
2145 2624 2628 1703 1705
2146 7467 7484 1720 1735
2147 7792 7801 1698 1699
2148 2489 2494 1713 1721
2149 5422 5425 1697 1698
2150 7957 7960 1695 1705
2151 7809 7816 1695 1696
2152 2633 2633 1696 1701
2153 3645 3647 1695 1702
2154 2855 2865 1689 1699
2155 5941 5958 1685 1729
2156 4256 4258 1684 1685
2157 3684 3693 1679 1687
2158 7136 7156 1676 1682
2159 7558 7570 1666 1670
2160 6470 6475 1658 1667
2161 3234 3236 1653 1666
2162 7203 7208 1668 1671
2163 3948 3948 1644 1650
2164 6927 6939 1643 1644
2165 3998 4004 1632 1633
2166 2587 2594 1641 1653
2167 4473 4481 1631 1637
2168 4500 4515 1627 1628
2169 5979 6011 1653 1659
2170 7932 7935 1636 1643
2171 4666 4668 1630 1648
2172 6679 6684 1651 1663
2173 6805 6838 1622 1628
2174 4258 4273 1607 1608
2175 4218 4225 1599 1603
2176 2613 2614 1596 1596
2177 6497 6526 1611 1620
2178 3359 3361 1599 1599
2179 6278 6279 1608 1619
2180 5789 5801 1621 1631
2181 8094 8095 1623 1625
2182 7594 7600 1592 1595
2183 7899 7908 1573 1573
2184 7908 7916 1571 1573
2185 2635 2641 1579 1585
2186 3849 3853 1597 1607
2187 5768 5772 1576 1578
2188 2475 2476 1552 1556
2189 3779 3781 1566 1577
2190 3429 3442 1559 1562
2191 3238 3245 1592 1602
2192 2470 2475 1541 1552
2193 6018 6019 1535 1541
2194 3799 3813 1532 1536
2195 6018 6018 1522 1528
2196 2878 2884 1600 1601
2197 4396 4411 1550 1550
2198 3650 3651 1512 1513
2199 7057 7058 1516 1523
2200 4736 4747 1531 1538
2201 4289 4295 1533 1538
2202 4626 4629 1491 1494
2203 6599 6616 1544 1549
2204 3264 3277 1478 1482
2205 7868 7871 1519 1524
2206 2879 2881 1480 1483
2207 3267 3277 1472 1478
2208 2449 2452 1465 1472
2209 2931 2938 1463 1465
2210 3565 3568 1484 1491
2211 4779 4785 1453 1458
2212 6849 6849 1447 1448
2213 4608 4620 1457 1485
2214 3248 3255 1449 1450
2215 3063 3074 1442 1445
2216 3356 3373 1444 1449
2217 7501 7511 1430 1433
2218 2669 2670 1434 1439
2219 4492 4500 1421 1426
2220 3570 3579 1448 1448
2221 7825 7829 1413 1429
2222 2498 2508 1407 1411
2223 3551 3553 1405 1409
2224 7032 7035 1403 1405
2225 3194 3198 1440 1444
2226 4360 4372 1408 1415
2227 4629 4650 1431 1432
2228 5161 5168 1438 1453
2229 5279 5310 1402 1403
2230 3805 3811 1398 1398
2231 4474 4484 1382 1388
2232 3906 3913 1383 1384
2233 5598 5609 1435 1439
2234 5375 5375 1393 1394
2235 5295 5328 1365 1387
2236 4180 4213 1364 1365
2237 5976 5978 1418 1423
2238 5472 5477 1353 1353
2239 2604 2615 1358 1361
2240 2918 2920 1351 1367
2241 3416 3430 1371 1372
2242 7709 7716 1352 1354
2243 2341 2341 1346 1348
2244 2562 2574 1340 1345
2245 3090 3092 1336 1349
2246 5784 5797 1340 1346
2247 2537 2539 1383 1390
2248 3486 3526 1341 1348
2249 3427 3439 1312 1321
2250 7002 7016 1324 1334
2251 4632 4651 1299 1301
2252 5894 5896 1334 1339
2253 2895 2895 1319 1327
2254 6131 6156 1307 1318
2255 5030 5036 1291 1294
2256 4580 4585 1284 1294
2257 2635 2652 1279 1283
2258 6634 6640 1311 1312
2259 4587 4589 1269 1277
2260 5465 5472 1274 1284
2261 6574 6596 1266 1266
2262 4828 4839 1344 1348
2263 3749 3752 1321 1327
2264 6983 6991 1251 1251
2265 7004 7009 1249 1249
2266 6740 6766 1273 1273
2267 3714 3723 1244 1253
2268 3508 3509 1266 1268
2269 3685 3709 1235 1244
2270 4385 4393 1308 1320
2271 4214 4223 1264 1274
2272 2718 2719 1243 1248
2273 6545 6552 1227 1247
2274 2732 2737 1208 1217
2275 7092 7099 1206 1206
2276 5865 5875 1203 1206
2277 4091 4108 1240 1243
2278 6048 6050 1191 1204
2279 6068 6094 1189 1190
2280 3257 3257 1191 1199
2281 5844 5858 1171 1172
2282 7208 7219 1183 1198
2283 5726 5731 1158 1159
2284 5485 5495 1252 1261
2285 3991 3992 1152 1153
2286 3701 3719 1169 1184
2287 6238 6279 1150 1162
2288 7267 7275 1142 1142
2289 4324 4341 1140 1147
2290 2737 2741 1186 1197
2291 5891 5914 1134 1138
2292 6153 6156 1128 1133
2293 6145 6145 1170 1173
2294 6027 6039 1133 1139
2295 7077 7092 1166 1195
2296 6158 6161 1123 1123
2297 5108 5116 1121 1127
2298 3114 3124 1106 1114
2299 6099 6099 1104 1105
2300 4894 4916 1133 1150
2301 2243 2249 1136 1142
2302 6283 6286 1097 1097
2303 3736 3737 1094 1103
2304 5235 5241 1092 1132
2305 2439 2450 1088 1095
2306 3219 3230 1084 1087
2307 2118 2122 1088 1092
2308 6556 6569 1080 1081
2309 3649 3650 1089 1095
2310 3664 3669 1076 1079
2311 2897 2905 1088 1098
2312 3097 3122 1074 1085
2313 3231 3237 1077 1082
2314 6690 6705 1082 1097
2315 6305 6362 1082 1094
2316 6165 6176 1065 1072
2317 3082 3085 1065 1087
2318 6457 6459 1064 1068
2319 5030 5065 1065 1065
2320 5589 5590 1053 1062
2321 3045 3051 1057 1058
2322 7222 7230 1045 1066
2323 3460 3468 1039 1045
2324 5367 5369 1039 1050
2325 4996 5012 1035 1050
2326 2110 2112 1046 1075
2327 3385 3389 1029 1031
2328 4975 4983 1027 1027
2329 7059 7060 1024 1034
2330 2360 2365 1017 1023
2331 2270 2280 1050 1051
2332 6084 6089 1012 1022
2333 2336 2344 1006 1010
2334 4638 4647 1106 1115
2335 3358 3366 1010 1020
2336 4777 4798 1000 1004
2337 6443 6448 1033 1040
2338 7257 7277 1000 1008
2339 2345 2356 981 985
2340 4168 4183 994 998
2341 3283 3283 959 973
2342 2891 2911 975 976
2343 6275 6275 945 954
2344 3898 3919 943 949
2345 4141 4154 956 958
2346 3139 3145 919 925
2347 3786 3804 922 924
2348 3561 3570 924 925
2349 2610 2630 908 910
2350 5159 5174 955 968
2351 2659 2671 913 918
2352 6176 6180 908 925
2353 6517 6549 938 961
2354 7120 7132 884 897
2355 2774 2776 872 890
2356 2901 2928 900 902
2357 5645 5666 858 864
2358 5941 5959 887 899
2359 2235 2251 878 883
2360 2195 2225 866 886
2361 6802 6809 901 910
2362 7441 7446 870 898
2363 7286 7318 858 866
2364 5354 5379 895 918
2365 4579 4587 988 997
2366 4520 4521 829 831
2367 5371 5392 825 829
2368 2634 2652 828 839
2369 2722 2734 864 866
2370 6853 6857 837 845
2371 6195 6204 811 828
2372 4168 4175 894 900
2373 4496 4500 825 826
2374 5110 5117 804 823
2375 5438 5450 798 800
2376 6821 6823 771 788
2377 3265 3275 846 858
2378 3339 3352 762 766
2379 6325 6329 761 765
2380 3791 3793 773 791
2381 6208 6219 764 778
2382 3456 3470 760 771
2383 3450 3466 740 742
2384 3691 3710 753 753
2385 7406 7425 752 776
2386 5904 5905 876 888
2387 5899 5908 736 743
2388 4942 4967 822 822
2389 4766 4806 805 830
2390 4819 4835 719 722
2391 4335 4337 701 705
2392 6357 6369 709 713
2393 4058 4062 700 701
2394 5686 5688 684 687
2395 3497 3576 712 746
2396 2371 2371 737 746
2397 3956 3967 723 733
2398 3834 3835 740 741
2399 4590 4595 647 652
2400 4750 4757 713 715
2401 2259 2271 642 645
2402 7467 7481 636 646
2403 3060 3072 655 661
2404 2839 2863 622 624
2405 4332 4338 657 660
2406 4483 4495 609 617
2407 5518 5526 629 633
2408 2346 2365 661 668
2409 4230 4246 584 592
2410 5094 5099 686 693
2411 2161 2166 577 578
2412 4824 4836 702 707
2413 4955 4958 632 634
2414 4186 4188 559 559
2415 4109 4115 579 581
2416 2729 2737 619 620
2417 2441 2454 555 564
2418 2377 2394 596 600
2419 4518 4519 560 570
2420 5696 5706 671 677
2421 5475 5486 492 493
2422 4771 4771 445 459
2423 5660 5680 492 492