1 2645.23 2664.08 8257.21 8261.64
2 3264.97 3264.97 8229.49 8230.6
3 3189.58 3194.01 8148.56 8150.78
4 3900.22 3909.09 8118.63 8121.95
5 3929.05 3936.81 8133.04 8134.15
6 4109.76 4126.39 8064.3 8075.39
7 3813.75 3822.62 8084.26 8102
8 4236.14 4238.36 7981.15 7983.37
9 3364.75 3365.85 7949 7950.11
10 4298.23 4308.2 7864.75 7905.77
11 4042.13 4048.78 7841.46 7845.9
12 3424.61 3431.26 7849.22 7855.88
13 3990.02 3997.78 7817.07 7822.62
14 3450.11 3456.76 7793.79 7805.99
15 4315.96 4322.62 7771.62 7779.38
16 4332.59 4354.77 7758.31 7763.86
17 8270.51 8281.6 7725.06 7737.25
18 4466.74 4476.72 7720.62 7727.27
19 3457.87 3474.5 7689.58 7751.66
20 5712.86 5727.27 7681.82 7705.1
21 8140.8 8155.21 7657.43 7664.08
22 3337.03 3349.22 7666.3 7679.6
23 3217.29 3279.38 7624.17 7638.58
24 4437.92 4450.11 7613.08 7613.08
25 4635.25 4664.08 7611.97 7613.08
26 3970.07 3996.67 7610.86 7613.08
27 3462.31 3470.07 7665.19 7675.17
28 7923.5 7924.61 7583.15 7606.43
29 4754.99 4760.53 7578.71 7582.04
30 7690.69 7768.29 7599.78 7600.89
31 7252.77 7260.53 7546.56 7546.56
32 5174.06 5177.38 7563.19 7578.71
33 6966.74 6984.48 7536.59 7544.35
34 7104.21 7174.06 7505.54 7531.04
35 3297.12 3307.1 7491.13 7496.67
36 5126.39 5150.78 7470.07 7475.61
37 6964.52 6986.7 7468.96 7481.15
38 5057.65 5089.8 7454.55 7460.09
39 4322.62 4324.83 7460.09 7461.2
40 4884.7 4904.66 7436.81 7439.02
41 5139.69 5161.86 7425.72 7435.7
42 3723.95 3740.58 7415.74 7424.61
43 3871.4 3880.27 7404.66 7404.66
44 5383.59 5391.35 7392.46 7409.09
45 5381.37 5381.37 7386.92 7388.03
46 4454.55 4463.41 7376.94 7379.16
47 8732.82 8745.01 7395.79 7407.98
48 6921.29 6922.39 7361.42 7379.16
49 4268.29 4283.81 7355.88 7356.98
50 6623.06 6639.69 7364.75 7365.85
51 4283.81 4335.92 7348.12 7355.88
52 6534.37 6542.13 7353.66 7355.88
53 6488.91 6494.46 7338.14 7340.35
54 5216.19 5228.38 7372.51 7398
55 6871.4 6881.37 7319.29 7333.7
56 7208.43 7219.51 7303.77 7307.1
57 5309.31 5312.64 7300.44 7310.42
58 3671.84 3674.06 7277.16 7277.16
59 4586.47 4677.38 7266.08 7284.92
60 3511.09 3516.63 7247.23 7252.77
61 8640.8 8664.08 7303.77 7310.42
62 8445.68 8455.65 7227.27 7228.38
63 4740.58 4754.99 7216.19 7227.27
64 4167.41 4176.27 7207.32 7207.32
65 5274.94 5290.47 7218.4 7247.23
66 9073.17 9084.26 7218.4 7222.84
67 3586.47 3599.78 7187.36 7191.8
68 3956.76 3958.98 7184.04 7187.36
69 6294.9 6312.64 7247.23 7261.64
70 6212.86 6235.03 7166.3 7178.49
71 3616.41 3631.93 7171.84 7180.71
72 7961.2 7997.78 7150.78 7152.99
73 4378.05 4382.48 7123.06 7126.39
74 5831.49 5834.81 7108.65 7109.76
75 7092.02 7103.1 7121.95 7149.67
76 5251.66 5274.94 7090.91 7090.91
77 5834.81 5854.77 7107.54 7108.65
78 6119.73 6137.47 7115.3 7148.56
79 5113.08 5123.06 7078.71 7078.71
80 3058.76 3077.61 7093.13 7095.34
81 4106.43 4117.52 7072.06 7080.93
82 4924.61 4925.72 7054.32 7055.43
83 6359.2 6385.81 7063.19 7088.69
84 6891.35 6901.33 7045.45 7049.89
85 7016.63 7036.59 7055.43 7060.98
86 4253.88 4257.21 7033.26 7033.26
87 4580.93 4598.67 7023.28 7034.37
88 7583.15 7609.76 7017.74 7036.59
89 4462.31 4472.28 7013.3 7024.39
90 6124.17 6131.93 7007.76 7011.09
91 6067.63 6078.71 7006.65 7009.98
92 4109.76 4118.63 6997.78 7000
93 7124.17 7157.43 6992.24 6993.35
94 7290.47 7303.77 6994.46 6997.78
95 4462.31 4466.74 7001.11 7013.3
96 4798.23 4803.77 6968.96 6971.18
97 5665.19 5669.62 6991.13 7011.09
98 6494.46 6500 6944.57 6946.79
99 7689.58 7719.51 6940.13 6946.79
100 8070.95 8084.26 6951.22 6965.63
101 9018.85 9021.06 6921.29 6924.61
102 4772.73 4791.57 6913.53 6958.98
103 4921.29 4922.39 6911.31 6922.39
104 6590.91 6603.1 6898 6903.55
105 6996.67 6997.78 6929.05 6942.35
106 5808.2 5818.18 6879.16 6882.48
107 7258.31 7263.86 6866.96 6873.61
108 5288.25 5310.42 6900.22 6911.31
109 3584.26 3604.21 6885.81 6905.77
110 4319.29 4324.83 6852.55 6855.88
111 4324.83 4345.9 6841.46 6852.55
112 3028.82 3044.35 6842.57 6843.68
113 8270.51 8299.33 6852.55 6880.27
114 8902.44 8916.85 6845.9 6850.33
115 2942.35 2954.55 6825.94 6834.81
116 1482.26 1589.8 6830.38 6855.88
117 4672.95 4680.71 6817.07 6828.16
118 6748.34 6758.31 6811.53 6815.96
119 6035.48 6047.67 6807.1 6812.64
120 1417.96 1431.26 6793.79 6805.99
121 7322.62 7338.14 6804.88 6807.1
122 4523.28 4532.15 6849.22 6856.98
123 4392.46 4405.77 6810.42 6819.29
124 4419.07 4420.18 6783.81 6783.81
125 8098.67 8115.3 6789.36 6821.51
126 4331.49 4358.09 6777.16 6777.16
127 4543.24 4553.21 6776.05 6777.16
128 3936.81 4005.54 6769.4 6808.2
129 5238.36 5241.69 6766.08 6827.05
130 7319.29 7347.01 6759.42 6760.53
131 7463.41 7464.52 6745.01 6747.23
132 4961.2 4971.18 6736.14 6739.47
133 7002.22 7011.09 6757.21 6758.31
134 3168.51 3177.38 6728.38 6730.6
135 8742.79 8759.42 6739.47 6740.58
136 8641.91 8658.54 6722.84 6726.16
137 7017.74 7036.59 6747.23 6748.34
138 5019.96 5028.82 6717.29 6722.84
139 8584.26 8641.91 6726.16 6731.71
140 2313.75 2328.16 6710.64 6728.38
141 3705.1 3767.18 6706.21 6723.95
142 5179.6 5189.58 6730.6 6739.47
143 7130.82 7144.12 6701.77 6711.75
144 6452.33 6464.52 6687.36 6697.34
145 4466.74 4471.18 6703.99 6709.53
146 4416.85 4433.48 6682.93 6684.04
147 3651.88 3677.38 6679.6 6680.71
148 1495.57 1508.87 6696.23 6715.08
149 8662.97 8664.08 6712.86 6718.4
150 8174.06 8175.17 6667.41 6670.73
151 3926.83 3935.7 6658.54 6660.75
152 3079.82 3082.04 6650.78 6651.88
153 3095.34 3097.56 6645.23 6645.23
154 6532.15 6534.37 6640.8 6641.91
155 5805.99 5807.1 6640.8 6641.91
156 7709.53 7721.73 6646.34 6661.86
157 5829.27 5840.35 6610.86 6616.41
158 9085.37 9086.47 6616.41 6621.95
159 3400.22 3407.98 6608.65 6627.49
160 2456.76 2468.96 6595.34 6595.34
161 5140.8 5145.23 6579.82 6582.04
162 7074.28 7085.37 6573.17 6578.71
163 7917.96 7931.26 6574.28 6575.39
164 8672.95 8682.93 6606.43 6621.95
165 7909.09 7915.74 6560.98 6560.98
166 1415.74 1421.29 6555.43 6557.65
167 7361.42 7370.29 6572.06 6574.28
168 6049.89 6099.78 6557.65 6580.93
169 8710.64 8723.95 6557.65 6564.3
170 4416.85 4421.29 6563.19 6575.39
171 6245.01 6250.55 6572.06 6575.39
172 5114.19 5129.71 6564.3 6573.17
173 2751.66 2783.81 6519.96 6529.93
174 4335.92 4355.88 6514.41 6523.28
175 1618.63 1633.04 6516.63 6517.74
176 6158.54 6164.08 6501.11 6512.2
177 3703.99 3746.12 6498.89 6503.33
178 8721.73 8743.9 6495.57 6505.54
179 8993.35 9007.76 6490.02 6496.67
180 5304.88 5309.31 6481.15 6483.37
181 3944.57 3957.87 6476.72 6480.04
182 5294.9 5303.77 6484.48 6488.91
183 5194.01 5208.43 6464.52 6474.5
184 7786.03 7797.12 6484.48 6490.02
185 3529.93 3546.56 6488.91 6490.02
186 4994.46 5023.28 6444.57 6462.31
187 2474.5 2487.8 6441.24 6468.96
188 7916.85 7917.96 6494.46 6503.33
189 3171.84 3178.49 6425.72 6477.83
190 3352.55 3354.77 6483.37 6497.78
191 4618.63 4631.93 6423.5 6458.98
192 3294.9 3296.01 6414.63 6414.63
193 3263.86 3294.9 6403.55 6414.63
194 4987.8 5002.22 6403.55 6405.77
195 1931.26 1955.65 6393.57 6393.57
196 2148.56 2161.86 6381.37 6384.7
197 2782.71 2805.99 6386.92 6410.2
198 8017.74 8072.06 6369.18 6371.4
199 2230.6 2288.25 6361.42 6368.07
200 5062.08 5077.61 6389.14 6395.79
201 8804.88 8808.2 6380.27 6390.24
202 5270.51 5299.33 6347.01 6351.44
203 6422.39 6424.61 6335.92 6348.12
204 8949 8950.11 6426.83 6443.46
205 6935.7 6951.22 6335.92 6385.81
206 2500 2500 6354.77 6355.88
207 8523.28 8531.04 6344.79 6348.12
208 8141.91 8151.88 6392.46 6393.57
209 7019.96 7032.15 6321.51 6323.73
210 5046.56 5052.11 6311.53 6314.86
211 2272.73 2292.68 6334.81 6354.77
212 4809.31 4849.22 6323.73 6327.05
213 4301.55 4322.62 6382.48 6405.77
214 8435.7 8458.98 6313.75 6327.05
215 3822.62 3835.92 6286.03 6288.25
216 3793.79 3822.62 6281.6 6286.03
217 5491.13 5506.65 6350.33 6352.55
218 4542.13 4554.32 6302.66 6325.94
219 4675.17 4678.49 6406.87 6416.85
220 8341.46 8358.09 6274.94 6278.27
221 3125.28 3155.21 6272.73 6282.71
222 1606.43 1623.06 6261.64 6272.73
223 8797.12 8797.12 6294.9 6318.18
224 2913.53 2915.74 6253.88 6254.99
225 6635.25 6695.12 6256.1 6267.18
226 8018.85 8023.28 6248.34 6263.86
227 6556.54 6575.39 6240.58 6245.01
228 3100.89 3102 6230.6 6239.47
229 3064.3 3085.37 6226.16 6226.16
230 2937.92 2990.02 6221.73 6222.84
231 3172.95 3174.06 6250.55 6270.51
232 3294.9 3302.66 6205.1 6207.32
233 8513.3 8568.74 6250.55 6276.05
234 8895.79 8904.66 6195.12 6206.21
235 8933.48 8955.65 6194.01 6207.32
236 5282.71 5288.25 6223.95 6226.16
237 7051 7058.76 6251.66 6257.21
238 8906.87 8920.18 6178.49 6189.58
239 8015.52 8018.85 6217.29 6248.34
240 3165.19 3166.3 6157.43 6158.54
241 6453.44 6465.63 6149.67 6151.88
242 4652.99 4739.47 6148.56 6158.54
243 5136.36 5141.91 6237.25 6243.9
244 4289.36 4299.33 6140.8 6140.8
245 4322.62 4333.7 6137.47 6139.69
246 5738.36 5747.23 6148.56 6154.1
247 3592.02 3603.1 6133.04 6138.58
248 3263.86 3300.44 6128.6 6144.12
249 5097.56 5099.78 6114.19 6116.41
250 8654.1 8655.21 6115.3 6117.52
251 5084.26 5097.56 6106.43 6114.19
252 7444.57 7460.09 6104.21 6116.41
253 8958.98 8962.31 6130.82 6149.67
254 3746.12 3783.81 6096.45 6099.78
255 4628.6 4636.36 6143.02 6144.12
256 4045.45 4068.74 6090.91 6129.71
257 5753.88 5756.1 6073.17 6078.71
258 3179.6 3180.71 6069.84 6070.95
259 3657.43 3657.43 6058.76 6060.98
260 2513.3 2557.65 6053.21 6108.65
261 7980.04 7987.8 6045.45 6049.89
262 5188.47 5203.99 6041.02 6043.24
263 7149.67 7211.75 6042.13 6086.47
264 7403.55 7430.16 6026.61 6026.61
265 6172.95 6178.49 6023.28 6024.39
266 2444.57 2484.48 6016.63 6032.15
267 4450.11 4456.76 6045.45 6059.87
268 4227.27 4249.45 6033.26 6053.21
269 4143.02 4155.21 6003.33 6004.43
270 5497.78 5508.87 6001.11 6004.43
271 6209.53 6229.49 6005.54 6013.3
272 4641.91 4652.99 6035.48 6088.69
273 2352.55 2362.53 5991.13 5991.13
274 8708.43 8713.97 5984.48 6004.43
275 7274.94 7282.71 5992.24 5998.89
276 5797.12 5798.23 5977.83 5980.04
277 2332.59 2344.79 5975.61 5985.59
278 5241.69 5245.01 5972.28 5981.15
279 3293.79 3296.01 6001.11 6014.41
280 4029.93 4045.45 5970.07 5990.02
281 8276.05 8279.38 5951.22 5964.52
282 5802.66 5812.64 5966.74 5970.07
283 6420.18 6443.46 5935.7 5966.74
284 3589.8 3600.89 5944.57 5945.68
285 8943.46 8972.28 5976.72 5991.13
286 2991.13 2997.78 5923.5 5929.05
287 3721.73 3726.16 5964.52 5972.28
288 5917.96 6075.39 5902.44 5968.96
289 4531.04 4542.13 5912.42 5929.05
290 7109.76 7120.84 5892.46 5913.53
291 2560.98 2560.98 5913.53 5923.5
292 2713.97 2717.29 5927.94 5933.48
293 5429.05 5432.37 5905.77 5929.05
294 8098.67 8100.89 5875.83 5876.94
295 9009.98 9043.24 5871.4 5902.44
296 2052.11 2119.73 5866.96 5868.07
297 2179.6 2217.29 5860.31 5864.75
298 6535.48 6547.67 5871.4 5879.16
299 1898 1927.94 5848.12 5856.98
300 5289.36 5294.9 5845.9 5852.55
301 2864.75 2868.07 5842.57 5842.57
302 5781.6 5803.77 5839.25 5839.25
303 8514.41 8558.76 5832.59 5878.05
304 8126.39 8129.71 5832.59 5839.25
305 5718.4 5728.38 5820.4 5822.62
306 4063.19 4073.17 5814.86 5822.62
307 6488.91 6490.02 5812.64 5814.86
308 3321.51 3355.88 5810.42 5813.75
309 5264.97 5268.29 5802.66 5805.99
310 7496.67 7547.67 5801.55 5845.9
311 5258.31 5264.97 5797.12 5802.66
312 9023.28 9035.48 5792.68 5794.9
313 8139.69 8141.91 5814.86 5820.4
314 6229.49 6262.75 5789.36 5819.29
315 8439.02 8463.42 5787.14 5792.68
316 4594.23 4615.3 5788.25 5794.9
317 8419.07 8420.18 5778.27 5779.38
318 4399.11 4414.63 5779.38 5790.47
319 3174.06 3178.49 5773.84 5792.68
320 8381.38 8386.92 5763.86 5768.29
321 8771.62 8781.6 5810.42 5810.42
322 8643.02 8649.67 5756.1 5758.31
323 8626.39 8637.47 5752.77 5754.99
324 7093.13 7095.34 5751.66 5763.86
325 7095.34 7100.89 5746.12 5751.66
326 8334.81 8352.55 5739.47 5749.45
327 2751.66 2759.42 5751.66 5758.31
328 2805.99 2813.75 5730.6 5731.71
329 8041.02 8043.24 5767.18 5772.73
330 919.069 943.459 5736.14 5738.36
331 8322.62 8324.83 5723.95 5723.95
332 4508.87 4511.09 5722.84 5723.95
333 4577.61 4583.15 5713.97 5741.69
334 6538.8 6558.76 5716.19 5726.16
335 7041.02 7045.45 5709.53 5731.71
336 7437.92 7453.44 5701.77 5702.88
337 6770.51 6780.49 5700.67 5701.77
338 7802.66 7824.83 5691.8 5698.45
339 6583.15 6610.86 5688.47 5701.77
340 2116.41 2151.88 5733.92 5749.45
341 7815.96 7839.25 5675.17 5687.36
342 3072.06 3085.37 5686.25 5716.19
343 5493.35 5493.35 5664.08 5684.04
344 6659.65 6661.86 5659.65 5661.86
345 8404.66 8409.09 5654.1 5661.86
346 3400.22 3431.26 5668.51 5678.49
347 4650.78 4654.1 5644.12 5645.23
348 9364.75 9364.75 5644.12 5645.23
349 8169.62 8191.8 5688.47 5689.58
350 4667.41 4674.06 5639.69 5640.8
351 9363.64 9364.75 5637.47 5637.47
352 8822.62 8829.27 5634.15 5634.15
353 9038.8 9077.61 5629.71 5638.58
354 1912.42 1919.07 5627.49 5630.82
355 8211.75 8241.69 5630.82 5635.25
356 8276.05 8288.25 5624.17 5626.39
357 8677.38 8680.71 5630.82 5630.82
358 8682.93 8682.93 5619.73 5620.84
359 8196.23 8197.34 5616.41 5616.41
360 8416.85 8419.07 5611.97 5621.95
361 1156.32 1159.65 5627.49 5633.04
362 3506.65 3526.61 5610.86 5626.39
363 8157.43 8181.82 5599.78 5610.86
364 4518.85 4551 5598.67 5692.9
365 1518.85 1521.06 5614.19 5619.73
366 4514.41 4514.41 5584.26 5585.37
367 8351.44 8356.98 5617.52 5621.95
368 8167.41 8191.8 5578.71 5585.37
369 3029.93 3055.43 5641.91 5666.3
370 3504.43 3558.76 5563.19 5603.1
371 4503.33 4504.43 5556.54 5559.87
372 3482.26 3498.89 5564.3 5576.5
373 6742.79 6745.01 5551 5553.21
374 2245.01 2274.94 5543.24 5576.5
375 4801.55 4835.92 5538.8 5545.45
376 5133.04 5155.21 5536.59 5545.45
377 3335.92 3339.25 5534.37 5537.69
378 8619.73 8625.28 5529.93 5535.48
379 6501.11 6503.33 5525.5 5528.82
380 8410.2 8413.53 5529.93 5533.26
381 5281.6 5309.31 5518.85 5519.96
382 3216.19 3226.16 5543.24 5548.78
383 4762.75 4801.55 5531.04 5538.8
384 5609.76 5635.25 5525.5 5529.93
385 6875.83 6889.14 5496.67 5498.89
386 7380.27 7422.39 5500 5505.54
387 9518.85 9557.65 5579.82 5607.54
388 7790.47 7791.57 5533.26 5545.45
389 2646.34 2651.88 5526.61 5536.59
390 5547.67 5557.65 5511.09 5524.39
391 4213.97 4217.29 5554.32 5557.65
392 9468.96 9492.24 5480.04 5491.13
393 7905.77 7907.98 5477.83 5480.04
394 4457.87 4461.2 5472.28 5472.28
395 4467.85 4468.96 5478.94 5481.15
396 4274.94 4286.03 5467.85 5468.96
397 8495.57 8496.67 5464.52 5465.63
398 4463.41 4463.41 5460.09 5462.31
399 8962.31 8992.24 5456.76 5461.2
400 2205.1 2208.43 5452.33 5474.5
401 7174.06 7191.8 5453.44 5466.74
402 8503.33 8507.76 5442.35 5454.55
403 6678.49 6710.64 5447.89 5478.94
404 3426.83 3439.02 5529.93 5538.8
405 4226.16 4237.25 5440.13 5458.98
406 7907.98 7927.94 5425.72 5445.68
407 8277.16 8281.6 5423.5 5436.81
408 8154.1 8241.69 5424.61 5430.16
409 9385.81 9427.94 5420.18 5424.61
410 7881.37 7883.59 5414.63 5414.63
411 1508.87 1521.06 5578.71 5592.02
412 1964.52 1970.07 5447.89 5451.22
413 5876.94 5890.24 5440.13 5444.57
414 2666.3 2688.47 5406.87 5409.09
415 2155.21 2159.65 5403.55 5403.55
416 7951.22 8027.72 5403.55 5410.2
417 3002.22 3008.87 5398 5401.33
418 1664.08 1703.99 5396.9 5457.87
419 1213.97 1276.05 5394.68 5394.68
420 2253.88 2258.31 5393.57 5394.68
421 2945.68 2963.41 5390.24 5391.35
422 9536.58 9542.13 5388.03 5398
423 3281.6 3300.44 5383.59 5396.9
424 5681.82 5690.69 5383.59 5384.7
425 4946.79 4973.39 5393.57 5404.66
426 5184.04 5218.4 5406.87 5415.74
427 3226.16 3228.38 5389.14 5391.35
428 8281.6 8301.55 5371.4 5423.5
429 1728.38 1745.01 5370.29 5384.7
430 1662.97 1664.08 5393.57 5396.9
431 3584.26 3585.37 5388.03 5404.66
432 3934.59 3946.78 5363.64 5373.61
433 7768.29 7771.62 5358.09 5366.96
434 5454.55 5461.2 5441.24 5445.68
435 1333.7 1334.81 5386.92 5393.57
436 1672.95 1676.27 5350.33 5350.33
437 7753.88 7771.62 5349.22 5358.09
438 5819.29 5863.64 5351.44 5355.88
439 3532.15 3533.26 5344.79 5344.79
440 5148.56 5180.71 5341.46 5348.12
441 2328.16 2331.49 5337.03 5338.14
442 6758.31 6764.97 5399.11 5400.22
443 9695.12 9702.88 5331.49 5335.92
444 1661.86 1679.6 5324.83 5345.9
445 4092.02 4093.13 5370.29 5379.16
446 2500 2575.39 5318.18 5341.46
447 8320.4 8332.59 5317.07 5318.18
448 5034.37 5046.56 5323.73 5328.16
449 2874.72 2881.37 5368.07 5370.29
450 8889.14 8901.33 5301.55 5311.53
451 1229.49 1246.12 5299.33 5305.99
452 6472.28 6477.83 5292.68 5298.23
453 1149.67 1174.06 5291.57 5293.79
454 4098.67 4119.73 5287.14 5291.57
455 5631.93 5639.69 5299.33 5302.66
456 2672.95 2676.27 5283.81 5283.81
457 3523.28 3525.5 5281.6 5292.68
458 2782.71 2782.71 5278.27 5278.27
459 3491.13 3494.46 5274.94 5276.05
460 3123.06 3160.75 5272.73 5279.38
461 2074.28 2103.1 5270.51 5282.71
462 3169.62 3184.04 5268.29 5270.51
463 6066.52 6073.17 5274.94 5287.14
464 3840.35 3843.68 5288.25 5296.01
465 8967.85 8986.7 5264.97 5272.73
466 3042.13 3057.65 5262.75 5264.97
467 3476.72 3482.26 5258.31 5264.97
468 4555.43 4660.75 5254.99 5270.51
469 9197.34 9205.1 5247.23 5249.45
470 3018.85 3027.72 5241.69 5250.55
471 8287.14 8307.1 5281.6 5291.57
472 2152.99 2160.75 5237.25 5241.69
473 5774.94 5808.2 5235.03 5250.55
474 5025.5 5056.54 5233.92 5235.03
475 9315.96 9345.9 5230.6 5230.6
476 5012.2 5016.63 5227.27 5228.38
477 3018.85 3019.96 5226.16 5228.38
478 9143.02 9162.97 5230.6 5231.71
479 1527.72 1529.93 5221.73 5222.84
480 4958.98 4972.28 5221.73 5222.84
481 3480.04 3485.59 5220.62 5228.38
482 4919.07 4921.29 5216.19 5217.29
483 6354.77 6358.09 5211.75 5211.75
484 4915.74 4921.29 5209.53 5216.19
485 8222.84 8226.16 5207.32 5211.75
486 7697.34 7738.36 5203.99 5241.69
487 2159.65 2160.75 5227.27 5237.25
488 6109.76 6145.23 5196.23 5196.23
489 4828.16 4830.38 5202.88 5203.99
490 6175.17 6195.12 5187.36 5194.01
491 1592.02 1593.13 5188.47 5188.47
492 4911.31 4915.74 5203.99 5209.53
493 5910.2 5920.18 5171.84 5171.84
494 4437.92 4446.79 5167.41 5169.62
495 2373.61 2375.83 5168.51 5171.84
496 3892.46 3902.44 5174.06 5177.38
497 4692.9 4702.88 5184.04 5189.58
498 4365.85 4389.14 5156.32 5162.97
499 8211.75 8215.08 5152.99 5154.1
500 7054.32 7094.23 5147.45 5154.1
501 1190.69 1273.84 5145.23 5184.04
502 7160.75 7164.08 5144.12 5148.56
503 7608.65 7644.12 5152.99 5155.21
504 5971.18 5982.26 5156.32 5157.43
505 3492.24 3497.78 5188.47 5189.58
506 4536.59 4538.8 5143.02 5150.78
507 8351.44 8384.7 5129.71 5202.88
508 3118.63 3119.73 5127.49 5127.49
509 5525.5 5528.82 5131.93 5141.91
510 9647.45 9654.1 5165.19 5198.45
511 3121.95 3121.95 5115.3 5117.52
512 3699.56 3737.25 5124.17 5127.49
513 5231.71 5251.66 5134.15 5136.36
514 6237.25 6243.9 5105.32 5107.54
515 4882.48 4892.46 5097.56 5098.67
516 4805.99 4809.31 5128.6 5134.15
517 5043.24 5069.84 5087.58 5098.67
518 4503.33 4504.43 5087.58 5096.45
519 2878.05 2893.57 5082.04 5096.45
520 5110.86 5111.97 5079.82 5079.82
521 3313.75 3321.51 5078.71 5078.71
522 2878.05 2916.85 5069.84 5082.04
523 8089.8 8116.41 5120.84 5127.49
524 1859.2 1868.07 5087.58 5097.56
525 7888.03 7894.68 5056.54 5062.08
526 7874.72 7886.92 5046.56 5055.43
527 6710.64 6757.21 5051 5066.52
528 3202.88 3208.43 5053.21 5060.98
529 1094.23 1097.56 5042.13 5042.13
530 3506.65 3531.04 5039.91 5046.56
531 1433.48 1446.78 5037.69 5038.8
532 3639.69 3651.88 5086.47 5092.02
533 3176.27 3176.27 5033.26 5034.37
534 6688.47 6696.23 5041.02 5044.35
535 3951.22 3955.65 5031.04 5034.37
536 8424.61 8436.81 5058.76 5075.39
537 5573.17 5587.58 5027.72 5029.93
538 3729.49 3746.12 5036.59 5044.35
539 9689.58 9691.8 5036.59 5043.24
540 2845.9 2859.2 5009.98 5019.96
541 6696.23 6793.79 5006.65 5044.35
542 8839.25 8841.46 5038.8 5041.02
543 1420.18 1433.48 5028.82 5038.8
544 9706.21 9707.32 5014.41 5015.52
545 8789.36 8791.57 4997.78 5002.22
546 5139.69 5144.12 5009.98 5032.15
547 8713.97 8737.25 5005.54 5019.96
548 1034.37 1057.65 4994.46 5006.65
549 6070.95 6075.39 5009.98 5017.74
550 4282.71 4292.68 5031.04 5037.69
551 6497.78 6563.19 4982.26 5013.3
552 2279.38 2298.23 4993.35 4994.46
553 3502.22 3503.33 4976.72 4981.15
554 7120.84 7134.15 5063.19 5085.37
555 5331.49 5347.01 4972.28 4973.39
556 1840.35 1849.22 4972.28 4988.91
557 4788.25 4838.14 4991.13 4996.67
558 1873.61 1885.81 4966.74 4967.85
559 1610.86 1636.36 5007.76 5022.17
560 3599.78 3614.19 4978.94 4981.15
561 4641.91 4651.88 4965.63 4977.83
562 4893.57 4898 4964.52 4968.96
563 3523.28 3526.61 4955.65 4963.41
564 4505.54 4507.76 4965.63 4977.83
565 4961.2 4984.48 4953.44 4955.65
566 5065.41 5085.37 4965.63 4983.37
567 2420.18 2443.46 4962.31 4971.18
568 1899.11 1899.11 4944.57 4946.79
569 5446.79 5471.18 4941.24 4943.46
570 4130.82 4131.93 4956.76 4962.31
571 5665.19 5682.93 4934.59 4944.57
572 1645.23 1652.99 4931.26 4934.59
573 7135.25 7170.73 4927.94 4932.37
574 1837.03 1850.33 4933.48 4970.07
575 7366.96 7368.07 4960.09 4972.28
576 1375.83 1392.46 4917.96 4935.7
577 2817.07 2833.7 4914.63 4915.74
578 7455.65 7457.87 4913.53 4914.63
579 2750.55 2780.49 4912.42 4921.29
580 6087.58 6096.45 4942.35 4970.07
581 7388.03 7410.2 4904.66 4911.31
582 3488.91 3490.02 4901.33 4903.55
583 8625.28 8700.67 4896.9 4917.96
584 2616.41 2619.73 4894.68 4894.68
585 6263.86 6272.73 4899.11 4906.87
586 2584.26 2603.1 4891.35 4892.46
587 8455.65 8473.39 4896.9 4898
588 1983.37 1983.37 4933.48 4950.11
589 5585.37 5589.8 4899.11 4901.33
590 1066.52 1083.15 4905.77 4922.39
591 2312.64 2328.16 4876.94 4917.96
592 4001.11 4046.56 4891.35 4910.2
593 1023.28 1031.04 4874.72 4884.7
594 4403.55 4412.42 4904.66 4907.98
595 5391.35 5394.68 4884.7 4885.81
596 5344.79 5348.12 4871.4 4872.51
597 1445.68 1460.09 4871.4 4880.27
598 578.714 586.474 4868.07 4870.29
599 2645.23 2646.34 4865.85 4865.85
600 1494.46 1498.89 4863.64 4863.64
601 900.222 935.698 4861.42 4861.42
602 2425.72 2446.78 4859.2 4862.53
603 2623.06 2629.71 4856.98 4860.31
604 1486.7 1490.02 4851.44 4854.77
605 4296.01 4313.75 4849.22 4850.33
606 7876.94 7931.26 4844.79 4970.07
607 7126.39 7129.71 4844.79 4872.51
608 6392.46 6421.29 4847.01 4861.42
609 3395.79 3414.63 4837.03 4842.57
610 503.326 515.521 4834.81 4844.79
611 8732.82 8761.64 4833.7 4853.66
612 3375.83 3384.7 4842.57 4845.9
613 2771.62 2820.4 4841.46 4848.12
614 6420.18 6425.72 4834.81 4834.81
615 5536.59 5537.69 4834.81 4838.14
616 6272.73 6286.03 4823.73 4830.38
617 5987.8 6006.65 4827.05 4828.16
618 7334.81 7407.98 4819.29 4869.18
619 6976.72 6978.94 4820.4 4834.81
620 7751.66 7777.16 4818.18 4828.16
621 9007.76 9034.37 4811.53 4821.51
622 5303.77 5304.88 4831.49 4833.7
623 8855.88 8891.35 4862.53 4864.75
624 9033.26 9034.37 4802.66 4811.53
625 8965.63 8990.02 4800.44 4804.88
626 1266.08 1305.99 4853.66 4906.87
627 5309.31 5311.53 4798.23 4803.77
628 1641.91 1644.12 4797.12 4798.23
629 9055.43 9158.54 4789.36 4809.31
630 2324.83 2324.83 4787.14 4788.25
631 5258.31 5266.08 4787.14 4791.57
632 2356.98 2363.64 4782.71 4784.92
633 1399.11 1443.46 4779.38 4817.07
634 5432.37 5445.68 4777.16 4783.81
635 6203.99 6221.73 4781.6 4782.71
636 9158.54 9172.95 4788.25 4789.36
637 250.554 251.663 4771.62 4773.84
638 9444.57 9451.22 4769.4 4782.71
639 5644.12 5648.56 4766.08 4767.18
640 5348.12 5356.98 4786.03 4788.25
641 3389.14 3393.57 4790.47 4792.68
642 9607.54 9610.86 4761.64 4762.75
643 6662.97 6669.62 4761.64 4763.86
644 9641.91 9655.21 4756.1 4756.1
645 5252.77 5256.1 4764.97 4767.18
646 2534.37 2549.89 4754.99 4756.1
647 8241.69 8252.77 4748.34 4750.55
648 5783.81 5810.42 4750.55 4751.66
649 5878.05 5880.27 4745.01 4745.01
650 6426.83 6451.22 4740.58 4741.69
651 3337.03 3341.46 4780.49 4788.25
652 1184.04 1185.14 4737.25 4742.79
653 7572.06 7589.8 4732.82 4746.12
654 4477.83 4483.37 4728.38 4733.92
655 1654.1 1675.17 4726.16 4782.71
656 6398 6412.42 4736.14 4740.58
657 3454.55 3472.28 4741.69 4746.12
658 3635.25 3641.91 4717.29 4717.29
659 329.268 344.789 4788.25 4796.01
660 9378.05 9403.55 4708.43 4711.75
661 2658.54 2660.75 4707.32 4709.53
662 6196.23 6213.97 4722.84 4739.47
663 4588.69 4608.65 4703.99 4711.75
664 1676.27 1677.38 4698.45 4707.32
665 6646.34 6650.78 4700.67 4702.88
666 4359.2 4376.94 4696.23 4702.88
667 2960.09 2966.74 4692.9 4696.23
668 6446.79 6451.22 4735.03 4741.69
669 2668.51 2670.73 4697.34 4698.45
670 7155.21 7205.1 4698.45 4732.82
671 2660.75 2685.14 4686.25 4688.47
672 9089.8 9096.45 4689.58 4695.12
673 3056.54 3058.76 4689.58 4691.8
674 1309.31 1362.53 4680.71 4681.82
675 2063.19 2083.15 4684.04 4690.69
676 1946.78 2005.54 4684.04 4702.88
677 2231.71 2240.58 4705.1 4708.43
678 3822.62 3840.35 4671.84 4688.47
679 5298.23 5323.73 4675.17 4688.47
680 733.925 737.251 4669.62 4671.84
681 9268.29 9280.49 4667.41 4672.95
682 738.359 757.206 4665.19 4672.95
683 8593.13 8614.19 4662.97 4694.01
684 4682.93 4691.8 4671.84 4675.17
685 5753.88 5758.31 4685.14 4694.01
686 4854.77 4869.18 4659.65 4668.51
687 2833.7 2833.7 4659.65 4660.75
688 7611.97 7624.17 4689.58 4712.86
689 5453.44 5460.09 4697.34 4702.88
690 2871.4 2945.68 4656.32 4685.14
691 2006.65 2011.09 4651.88 4651.88
692 4232.82 4246.12 4670.73 4676.27
693 3360.31 3366.96 4687.36 4690.69
694 7019.96 7033.26 4648.56 4649.67
695 4771.62 4800.44 4645.23 4654.1
696 1611.97 1617.52 4641.91 4644.12
697 7470.07 7478.94 4670.73 4674.06
698 2860.31 2873.61 4638.58 4643.02
699 7032.15 7034.37 4639.69 4640.8
700 6525.5 6547.67 4640.8 4649.67