polygon((8516.72 7908.62,8516.72 7908.62,8516.72 7908.62,8516.72 7908.62,8516.72 7908.62))
polygon((8485.82 7908.62,8485.82 7908.62,8485.82 7908.62,8485.82 7908.62,8485.82 7908.62))
polygon((8515.62 7841.3,8515.62 7841.3,8515.62 7841.3,8515.62 7841.3,8515.62 7841.3))
polygon((8493.54 7841.3,8493.54 7841.3,8493.54 7841.3,8493.54 7841.3,8493.54 7841.3))
polygon((8488.03 7842.4,8488.03 7842.4,8488.03 7842.4,8488.03 7842.4,8488.03 7842.4))
polygon((8488.03 7855.65,8488.03 7855.65,8488.03 7855.65,8488.03 7855.65,8488.03 7855.65))
polygon((8457.12 7854.54,8457.12 7854.54,8457.12 7854.54,8457.12 7854.54,8457.12 7854.54))
polygon((8453.81 7854.54,8453.81 7854.54,8453.81 7854.54,8453.81 7854.54,8453.81 7854.54))
polygon((8462.64 7871.1,8462.64 7871.1,8462.64 7871.1,8462.64 7871.1,8462.64 7871.1))
polygon((8462.64 7878.82,8462.64 7878.82,8462.64 7878.82,8462.64 7878.82,8462.64 7878.82))
polygon((8456.02 7878.82,8456.02 7878.82,8456.02 7878.82,8456.02 7878.82,8456.02 7878.82))
polygon((8442.78 7877.72,8442.78 7877.72,8442.78 7877.72,8442.78 7877.72,8442.78 7877.72))
polygon((8442.78 7887.65,8442.78 7887.65,8442.78 7887.65,8442.78 7887.65,8442.78 7887.65))
polygon((8439.47 7887.65,8439.47 7887.65,8439.47 7887.65,8439.47 7887.65,8439.47 7887.65))
polygon((8420.7 7885.44,8420.7 7885.44,8420.7 7885.44,8420.7 7885.44,8420.7 7885.44))
polygon((8420.7 7895.38,8420.7 7895.38,8420.7 7895.38,8420.7 7895.38,8420.7 7895.38))
polygon((8425.12 7897.58,8425.12 7897.58,8425.12 7897.58,8425.12 7897.58,8425.12 7897.58))
polygon((4890.19 7736.45,4890.19 7736.45,4890.19 7736.45,4890.19 7736.45,4890.19 7736.45))
polygon((4896.81 7736.45,4896.81 7736.45,4896.81 7736.45,4896.81 7736.45,4896.81 7736.45))
polygon((4896.81 7732.04,4896.81 7732.04,4896.81 7732.04,4896.81 7732.04,4896.81 7732.04))
polygon((4893.5 7728.73,4893.5 7728.73,4893.5 7728.73,4893.5 7728.73,4893.5 7728.73))
polygon((4897.91 7726.52,4897.91 7726.52,4897.91 7726.52,4897.91 7726.52,4897.91 7726.52))
polygon((4901.23 7728.73,4901.23 7728.73,4901.23 7728.73,4901.23 7728.73,4901.23 7728.73))
polygon((4904.54 7728.73,4904.54 7728.73,4904.54 7728.73,4904.54 7728.73,4904.54 7728.73))
polygon((4912.26 7727.62,4912.26 7727.62,4912.26 7727.62,4912.26 7727.62,4912.26 7727.62))
polygon((4912.26 7732.04,4912.26 7732.04,4912.26 7732.04,4912.26 7732.04,4912.26 7732.04))
polygon((4910.05 7734.25,4910.05 7734.25,4910.05 7734.25,4910.05 7734.25,4910.05 7734.25))
polygon((4919.99 7734.25,4919.99 7734.25,4919.99 7734.25,4919.99 7734.25,4919.99 7734.25))
polygon((4922.19 7734.25,4922.19 7734.25,4922.19 7734.25,4922.19 7734.25,4922.19 7734.25))
polygon((4929.92 7729.83,4929.92 7729.83,4929.92 7729.83,4929.92 7729.83,4929.92 7729.83))
polygon((4936.54 7732.04,4936.54 7732.04,4936.54 7732.04,4936.54 7732.04,4936.54 7732.04))
polygon((4938.75 7736.45,4938.75 7736.45,4938.75 7736.45,4938.75 7736.45,4938.75 7736.45))
polygon((8510.1 7696.72,8510.1 7696.72,8510.1 7696.72,8510.1 7696.72,8510.1 7696.72))
polygon((8503.48 7690.1,8503.48 7690.1,8503.48 7690.1,8503.48 7690.1,8503.48 7690.1))
polygon((8506.79 7690.1,8506.79 7690.1,8506.79 7690.1,8506.79 7690.1,8506.79 7690.1))
polygon((5147.33 7616.16,5147.33 7616.16,5147.33 7616.16,5147.33 7616.16,5147.33 7616.16))
polygon((5147.33 7617.26,5147.33 7617.26,5147.33 7617.26,5147.33 7617.26,5147.33 7617.26))
polygon((5124.16 7619.47,5124.16 7619.47,5124.16 7619.47,5124.16 7619.47,5124.16 7619.47))
polygon((5119.74 7629.4,5119.74 7629.4,5119.74 7629.4,5119.74 7629.4,5119.74 7629.4))
polygon((5119.74 7640.44,5119.74 7640.44,5119.74 7640.44,5119.74 7640.44,5119.74 7640.44))
polygon((5107.6 7643.75,5107.6 7643.75,5107.6 7643.75,5107.6 7643.75,5107.6 7643.75))
polygon((5104.29 7644.85,5104.29 7644.85,5104.29 7644.85,5104.29 7644.85,5104.29 7644.85))
polygon((5095.46 7644.85,5095.46 7644.85,5095.46 7644.85,5095.46 7644.85,5095.46 7644.85))
polygon((5096.57 7638.23,5096.57 7638.23,5096.57 7638.23,5096.57 7638.23,5096.57 7638.23))
polygon((5096.57 7628.3,5096.57 7628.3,5096.57 7628.3,5096.57 7628.3,5096.57 7628.3))
polygon((5107.6 7628.3,5107.6 7628.3,5107.6 7628.3,5107.6 7628.3,5107.6 7628.3))
polygon((5107.6 7621.68,5107.6 7621.68,5107.6 7621.68,5107.6 7621.68,5107.6 7621.68))
polygon((5106.5 7608.43,5106.5 7608.43,5106.5 7608.43,5106.5 7608.43,5106.5 7608.43))
polygon((5109.81 7608.43,5109.81 7608.43,5109.81 7608.43,5109.81 7608.43,5109.81 7608.43))
polygon((5108.71 7604.02,5108.71 7604.02,5108.71 7604.02,5108.71 7604.02,5108.71 7604.02))
polygon((5108.71 7600.71,5108.71 7600.71,5108.71 7600.71,5108.71 7600.71,5108.71 7600.71))
polygon((5115.33 7601.81,5115.33 7601.81,5115.33 7601.81,5115.33 7601.81,5115.33 7601.81))
polygon((5104.29 7575.32,5104.29 7575.32,5104.29 7575.32,5104.29 7575.32,5104.29 7575.32))
polygon((5121.95 7583.05,5121.95 7583.05,5121.95 7583.05,5121.95 7583.05,5121.95 7583.05))
polygon((5107.6 7583.05,5107.6 7583.05,5107.6 7583.05,5107.6 7583.05,5107.6 7583.05))
polygon((5098.77 7581.94,5098.77 7581.94,5098.77 7581.94,5098.77 7581.94,5098.77 7581.94))
polygon((5098.77 7575.32,5098.77 7575.32,5098.77 7575.32,5098.77 7575.32,5098.77 7575.32))
polygon((4970.75 7572.01,4970.75 7572.01,4970.75 7572.01,4970.75 7572.01,4970.75 7572.01))
polygon((4977.38 7580.84,4977.38 7580.84,4977.38 7580.84,4977.38 7580.84,4977.38 7580.84))
polygon((4976.27 7580.84,4976.27 7580.84,4976.27 7580.84,4976.27 7580.84,4976.27 7580.84))
polygon((4976.27 7581.94,4976.27 7581.94,4976.27 7581.94,4976.27 7581.94,4976.27 7581.94))
polygon((4960.82 7576.43,4960.82 7576.43,4960.82 7576.43,4960.82 7576.43,4960.82 7576.43))
polygon((4956.41 7585.26,4956.41 7585.26,4956.41 7585.26,4956.41 7585.26,4956.41 7585.26))
polygon((4956.41 7587.46,4956.41 7587.46,4956.41 7587.46,4956.41 7587.46,4956.41 7587.46))
polygon((4945.37 7589.67,4945.37 7589.67,4945.37 7589.67,4945.37 7589.67,4945.37 7589.67))
polygon((4936.54 7587.46,4936.54 7587.46,4936.54 7587.46,4936.54 7587.46,4936.54 7587.46))
polygon((4936.54 7584.15,4936.54 7584.15,4936.54 7584.15,4936.54 7584.15,4936.54 7584.15))
polygon((4940.96 7581.94,4940.96 7581.94,4940.96 7581.94,4940.96 7581.94,4940.96 7581.94))
polygon((4945.37 7577.53,4945.37 7577.53,4945.37 7577.53,4945.37 7577.53,4945.37 7577.53))
polygon((4945.37 7575.32,4945.37 7575.32,4945.37 7575.32,4945.37 7575.32,4945.37 7575.32))
polygon((4954.2 7570.91,4954.2 7570.91,4954.2 7570.91,4954.2 7570.91,4954.2 7570.91))
polygon((5177.13 7535.59,5177.13 7535.59,5177.13 7535.59,5177.13 7535.59,5177.13 7535.59))
polygon((5177.13 7544.42,5177.13 7544.42,5177.13 7544.42,5177.13 7544.42,5177.13 7544.42))
polygon((5167.2 7544.42,5167.2 7544.42,5167.2 7544.42,5167.2 7544.42,5167.2 7544.42))
polygon((5162.79 7534.49,5162.79 7534.49,5162.79 7534.49,5162.79 7534.49,5162.79 7534.49))
polygon((5173.82 7534.49,5173.82 7534.49,5173.82 7534.49,5173.82 7534.49,5173.82 7534.49))
polygon((5418.83 7504.69,5418.83 7504.69,5418.83 7504.69,5418.83 7504.69,5418.83 7504.69))
polygon((5418.83 7508,5418.83 7508,5418.83 7508,5418.83 7508,5418.83 7508))
polygon((5405.58 7508,5405.58 7508,5405.58 7508,5405.58 7508,5405.58 7508))
polygon((5428.76 7522.35,5428.76 7522.35,5428.76 7522.35,5428.76 7522.35,5428.76 7522.35))
polygon((5157.27 7484.83,5157.27 7484.83,5157.27 7484.83,5157.27 7484.83,5157.27 7484.83))
polygon((5161.68 7490.34,5161.68 7490.34,5161.68 7490.34,5161.68 7490.34,5161.68 7490.34))
polygon((5157.27 7490.34,5157.27 7490.34,5157.27 7490.34,5157.27 7490.34,5157.27 7490.34))
polygon((5155.06 7489.24,5155.06 7489.24,5155.06 7489.24,5155.06 7489.24,5155.06 7489.24))
polygon((5153.96 7484.83,5153.96 7484.83,5153.96 7484.83,5153.96 7484.83,5153.96 7484.83))
polygon((5152.85 7480.41,5152.85 7480.41,5152.85 7480.41,5152.85 7480.41,5152.85 7480.41))
polygon((5152.85 7479.31,5152.85 7479.31,5152.85 7479.31,5152.85 7479.31,5152.85 7479.31))
