1 2634 2302 5 35 3484 35368
2 1380 1047 5 14 3820 14662
3 1089 651 5 20 3820 22030
4 11603 9770 11 91 9424 98592
5 1209 915 8 6 7882 6182
6 570 327 7 6 7200 5006
7 1187 727 7 31 5856 35076
8 982 664 5 16 4072 17202
9 589 281 8 9 8554 8312
10 1027 664 5 13 4744 13896
11 1994 1667 7 16 7284 17034
12 1704 870 5 58 3820 64158
13 1002 674 8 13 10990 14316
14 586 292 6 7 6854 7536
15 941 598 5 7 4912 7536
16 588 280 8 7 8218 7536
17 564 273 5 5 3652 3736
18 568 275 5 5 3820 4492
19 580 278 6 8 5090 6538
20 636 278 8 7 8974 6360
21 591 285 5 12 5332 13634
22 937 628 6 11 6266 11692
23 1158 440 5 47 4576 52204
24 1050 655 7 8 6780 8386
25 654 299 5 18 4576 19574
26 599 283 9 7 10664 6276
27 1288 1069 5 7 4156 7032
28 2119 1739 6 28 5678 34374
29 1392 1019 5 18 3904 19406
30 572 274 5 5 4156 3988
31 2231 1953 6 11 6350 10768
32 586 278 6 9 5678 8900
33 952 622 9 6 8984 5594
34 7472 6843 5 42 3652 45938
35 2560 2156 9 20 7808 21442
36 567 279 5 5 4156 3988
37 11457 7679 7 119 5688 129532
38 1088 404 5 42 4576 45434
39 645 278 5 7 4744 8040
40 583 281 6 8 7778 7462
41 575 275 5 5 4240 5080
42 567 272 5 5 4156 3988
43 574 273 5 6 3652 5426
44 1329 965 5 11 4156 10852
45 9761 7353 7 104 5268 113338
46 584 278 5 7 4660 6276
47 674 323 8 21 7462 21956
48 4252 3852 5 35 4072 38308
49 1311 1044 5 22 3652 23142
50 573 278 5 8 4576 7210
51 1319 764 6 44 4838 49738
52 607 282 6 11 6854 11608
53 573 329 5 6 5332 6098
54 595 275 7 6 6864 5678
55 586 279 5 10 4324 11262
56 1917 1712 6 6 4670 5006
57 8541 6165 6 93 4922 101804
58 2551 1949 5 48 5668 58850
59 645 283 6 7 5846 7032
60 26278 24823 7 85 8292 101304
61 575 276 7 7 6360 6108
62 623 291 7 15 6948 17612
63 585 277 5 10 4576 9498
64 575 274 5 6 4660 5258
65 654 273 6 7 5930 7032
66 3393 2425 8 72 8050 74126
67 621 289 7 16 6528 15942
68 579 283 9 6 8648 4754
69 618 293 8 13 7210 14820
70 586 302 6 10 5258 8406
71 6360 3470 8 114 7294 122342
72 637 285 7 12 5856 11030
73 2825 2602 5 24 4072 25514
74 606 282 8 9 9142 10076
75 10343 8882 12 67 15734 82056
76 622 288 8 15 7546 14672
77 576 271 5 5 6172 4408
78 577 281 7 6 6948 6266
79 574 279 7 8 6024 7546
80 595 336 6 7 5678 7620
81 569 276 5 5 5164 4996
82 957 646 5 5 4996 4324
83 571 273 5 5 4156 3988
84 3408 2613 5 52 5080 62082
85 5384 4697 5 47 4072 52288
86 612 284 5 5 4156 3988
87 622 289 7 14 7368 15838
88 593 283 5 11 3904 11608
89 570 274 5 6 4156 4754
90 577 275 6 6 5006 6602
91 1280 897 6 14 5006 16006
92 570 277 5 5 5164 4996
93 583 280 6 7 6854 7536
94 595 279 9 6 9992 6686
96 1269 855 5 39 3820 44816
97 5849 2511 9 119 7472 128692
98 585 288 7 7 7452 7536
99 1028 625 7 6 7788 5594
100 38276 35408 7 112 6192 123078
101 622 274 6 5 5594 4912
102 1327 957 5 22 3652 23142
103 583 277 8 5 9646 4744
104 2589 2091 5 36 3652 39746
105 1065 417 5 42 4576 46190
106 7449 6304 10 75 12018 89444
107 17039 14593 8 108 7294 116990
108 608 274 5 5 4240 5080
109 604 281 9 9 9824 7640
110 1610 1092 5 37 3820 42108
111 1625 1182 5 21 4240 24644
112 582 276 8 7 8134 7620
113 4145 3558 6 48 6770 57842
114 573 277 9 6 9236 4418
115 617 289 7 15 5856 15260
116 588 281 8 8 7882 10318
117 598 284 6 12 6602 13634
118 569 330 5 8 4156 8386
119 583 277 6 6 6350 5258
120 584 275 7 7 5940 8208
