1 8304 7788 7 43 6444 43932
2 8059 7703 7 33 6696 36020
3 6815 6422 7 28 6696 31266
4 28559 26544 8 98 7882 106726
5 3111 2840 6 6 5258 6182
6 1202 939 7 9 6360 9236
7 25535 25209 8 39 7546 42296
8 1579 1301 8 16 7462 17202
9 1200 941 5 9 3316 8312
10 2265 1993 5 10 3568 10674
11 3772 3520 8 16 6706 17034
12 55124 54535 8 73 7546 80520
13 5153 4844 8 13 7798 14316
14 1224 948 5 7 4744 7536
15 2567 2271 5 11 3820 12364
16 1585 1315 7 12 5604 11954
17 2614 1542 9 13 8732 11208
18 1653 1370 6 16 5510 16362
19 1218 933 5 9 3904 7556
20 1202 936 8 7 6454 6360
21 1224 952 6 12 5930 13634
22 2692 2390 7 14 6276 14830
23 6825 6056 8 52 7462 57294
24 1224 948 6 7 5258 6780
25 1655 1315 5 27 3652 29240
26 1226 942 5 12 2980 11786
27 2740 2468 7 12 5352 12374
28 6741 6394 8 27 8134 32684
29 2102 1736 8 30 7882 31874
30 1204 939 5 5 3904 3988
31 12143 11678 7 14 7536 14662
32 1211 940 6 10 4922 10170
33 2084 1786 8 19 6706 19668
34 8081 7640 6 46 5342 50094
35 6879 6418 7 22 7032 23982
36 1192 933 5 5 3904 3988
37 75588 72918 7 127 6024 139356
38 2259 1449 8 52 7462 56538
39 1255 945 7 7 6864 8040
40 2369 2106 7 8 7704 7462
41 1210 942 5 5 4576 5080
42 1198 952 5 5 3904 3988
43 1288 994 6 9 5342 9656
44 2011 1729 8 14 6118 13738
45 101727 98601 8 116 7882 125638
46 1229 949 5 8 3064 7294
47 2658 2291 8 26 6538 27550
48 23170 22411 8 48 7462 54650
49 2193 1866 6 23 5342 24328
50 1246 954 5 14 3652 14326
51 45468 44817 8 51 7546 57284
52 1356 953 7 11 6864 11608
53 1234 942 5 6 3568 6098
54 1344 943 6 7 4838 6864
55 7646 7263 10 18 11262 21338
56 2127 1823 6 14 4754 13570
57 46638 43799 8 103 7462 114000
58 15873 15475 7 45 7368 54872
59 1276 944 7 7 6444 7032
60 27837 26181 14 83 15418 99100
61 1228 946 7 7 4764 6108
62 1330 969 11 15 12700 17612
63 1234 953 5 12 3652 11702
64 1457 1069 7 7 6192 6612
65 2848 2557 8 12 8638 11870
66 3534 2599 8 74 8134 76582
67 1266 967 8 18 6538 18230
68 5968 5653 7 10 5436 10170
69 2775 2454 8 13 8722 14820
70 1252 938 6 10 4754 8406
71 7211 4941 7 111 6948 119708
72 1221 958 6 15 4754 14504
73 3544 3205 5 22 4240 23646
74 1292 946 8 10 8218 10842
75 128898 127805 12 66 13130 80702
76 1257 958 8 16 6538 16194
77 2356 2055 6 9 5594 8816
78 1604 1318 6 7 5090 7788
79 1303 964 7 11 6864 11860
80 1275 958 6 7 4502 7620
81 1209 950 5 5 4744 4996
82 1696 1334 9 9 8564 9068
83 1200 939 5 5 3904 3988
84 6885 6269 8 48 9226 58346
85 17159 16249 8 56 7462 61954
86 1195 938 5 5 3904 3988
87 6183 5494 12 28 11198 32526
88 1330 973 8 20 7546 21778
89 1208 944 5 6 3904 4754
90 1227 947 6 6 5762 6602
91 1990 1642 7 12 7788 13718
92 1217 937 5 5 4744 4996
93 1296 943 9 7 9320 7536
94 1546 1271 7 6 6444 6686
95 36599 35668 7 55 7368 67404
96 15196 14660 8 55 7546 61020
97 8076 4557 8 136 7630 148602
98 1648 1295 7 8 6192 8470
99 4667 4332 8 9 8218 9656
100 8687 6140 8 111 7462 121640
101 1215 947 7 5 6528 4912
102 2241 1900 6 25 5342 26616
103 1252 943 6 5 4922 4744
104 4188 3833 6 37 5342 40596
105 2095 1426 8 47 7462 52372
106 190086 189010 6 71 5006 85540
107 41559 39535 7 107 6948 115972
108 1211 943 5 5 4576 5080
109 2985 2620 8 10 7630 8574
110 14356 13833 8 58 7546 63822
111 2030 1613 8 21 8638 24644
112 1249 941 5 9 4576 11084
113 7576 7150 7 43 7116 51996
114 1199 949 8 6 8218 4418
115 1248 950 7 17 5772 17044
116 1242 956 7 9 7116 11336
117 1246 951 6 12 5930 13634
118 1349 962 9 15 9992 17528
119 1745 1377 11 10 9844 10170
120 2177 1890 7 10 7284 10842
