1 16976 16383 7 44 6192 45034
2 42570 42021 12 49 12122 53820
3 32846 32560 10 34 9750 37458
4 155130 153669 11 98 9424 106726
5 6351 6072 9 7 8816 7368
6 7314 7034 10 9 11514 9236
7 40194 39792 8 35 6622 38644
8 8944 8604 7 22 6192 24906
9 4051 3746 9 11 9740 10348
10 6748 6270 8 15 8302 16520
11 11568 11396 10 18 11178 19070
12 187294 186152 9 76 7472 83994
13 28042 27772 9 15 12512 16016
14 4139 3798 8 11 8722 12364
15 15144 14788 6 17 5762 20404
16 4028 3739 10 14 10506 13990
17 5834 5511 9 15 8312 13160
18 12437 11997 11 24 11944 25010
19 4647 4419 6 12 5090 11030
20 5734 5413 12 7 13382 6360
21 4219 3975 7 13 8292 14568
22 19002 18689 12 14 12458 14830
23 17695 16857 6 56 5342 61450
24 10358 10075 11 10 12028 10926
25 4891 4609 6 27 5594 29240
26 4027 3748 10 12 12186 11786
27 10840 10635 7 15 6024 15932
28 37189 36817 10 31 9918 37596
29 5339 4993 9 27 8396 28400
30 4009 3732 6 5 5090 3988
31 22839 22391 10 11 10506 10768
32 4059 3735 7 9 6696 8900
33 4774 4444 12 18 12458 18650
34 84847 84048 7 50 5688 54586
35 13153 12744 10 22 8910 23982
36 3977 3700 6 7 5090 5772
38 5535 4701 6 52 5594 56538
39 4034 3734 8 7 8470 8040
40 7894 7547 9 10 12512 9666
41 5724 5458 8 10 8134 11094
42 4016 3716 6 7 5090 5772
43 4852 4619 6 10 4670 11010
44 20485 20123 7 14 6192 13738
45 144776 142793 13 114 11208 123182
46 3967 3742 7 8 7200 7294
47 7898 7414 11 26 11272 27550
48 33402 32802 6 51 5342 57452
49 5479 5147 6 23 4670 24328
50 4050 3753 6 15 5594 15176
51 151520 151806 8 52 6622 58134
52 8366 7935 9 11 9572 11608
53 4429 4037 6 10 6518 11010
54 5708 5431 7 7 6864 6864
55 35996 35627 11 32 10852 36766
56 7431 7135 9 19 9068 18576
58 38398 37682 6 62 7358 75706
59 4016 3722 8 7 7966 7032
60 501916 499478 13 97 16164 116712
61 13367 13163 8 8 7966 7126
62 4093 3742 8 20 8050 23038
63 3983 3704 6 15 5594 15176
64 4820 4548 10 7 10758 6612
65 5617 5325 8 9 8470 8984
66 62332 60497 9 84 9320 87602
67 4013 3763 11 18 11608 18230
68 16417 15990 13 11 12972 10936
69 10786 10578 13 15 11292 17024
70 4021 3735 8 10 7882 8406
71 101629 99175 9 117 8816 126068
72 4739 4426 7 19 5856 19332
73 45846 45242 9 50 8228 54670
74 4012 3740 8 10 9142 10842
75 344175 342517 17 73 21580 89088
76 4050 3726 10 15 9918 14672
77 7204 6919 9 10 11504 10422
78 4777 4501 8 11 8134 12028
79 4007 3702 8 10 7126 10926
80 3972 3706 6 7 5678 7620
81 4025 3760 7 5 7032 4996
82 7786 7439 8 9 9226 9068
83 4048 3784 6 8 5090 6538
84 34886 34264 7 57 8544 68432
85 42578 43215 6 59 5342 65260
86 4438 4144 6 7 5090 5772
87 21638 23172 9 26 9068 29902
88 13131 11622 12 22 12122 23982
89 4144 3813 6 6 5090 4754
90 9182 9679 9 13 9488 13980
91 8203 7664 6 17 5006 20236
92 4011 3850 6 7 6098 6696
93 4312 3766 9 7 10328 7536
94 7032 6746 12 8 13214 9478
95 51544 51035 6 70 7358 85110
96 171249 168657 8 59 6622 64756
97 24303 20301 12 137 10274 149788
98 4912 4566 9 8 9068 8470
99 6278 5940 9 7 10244 6612
100 137867 134122 8 133 6958 146136
101 4032 3731 8 5 8806 4912
102 5648 5317 6 25 4670 26616
103 4111 3710 10 5 11682 4744
104 8760 8477 6 38 4670 41614
105 5535 4702 6 51 5342 56528
106 607077 607002 16 79 20562 93348
107 157084 163431 8 112 7294 121398
108 4467 4158 8 7 7714 7032
109 4929 4498 9 10 9824 8574
110 173524 174363 8 63 6622 68660
111 15575 14410 10 27 9918 31928
112 4167 3765 11 9 11608 11084
113 66889 64302 12 50 15482 60298
114 4068 3710 11 6 11020 4418
115 4488 4126 11 23 10852 23740
116 4050 3737 9 8 8648 10318
117 4101 3781 8 15 10066 16604
118 4056 3719 6 11 4922 11944
119 5173 4785 9 8 10244 8050
120 4012 3740 8 8 6958 9226
