6561.000000,6556.000000
10612.000000,8598.000000
14684.000000,10658.000000
18796.000000,12754.000000
23027.000000,14977.000000
39608.000000,29549.000000
57386.000000,45314.000000
76318.000000,62228.000000
80962.000000,64859.000000
99951.000000,81834.000000
13226.000000,13206.000000
19367.000000,17334.000000
109091.000000,105036.000000
115630.000000,109554.000000
2330.000000,2323.000000
6244.000000,4224.000000
9961.000000,5936.000000
13744.000000,7708.000000
17567.000000,9519.000000
31359.000000,21303.000000
5576.000000,5572.000000
9301.000000,7291.000000
13046.000000,9024.000000
16769.000000,10736.000000
20617.000000,12576.000000
37220.000000,24831.000000
53274.000000,38874.000000
72529.000000,56118.000000
76998.000000,58568.000000
96533.000000,76084.000000
116941.000000,94477.000000
137740.000000,113255.000000
142576.000000,116072.000000
163774.000000,135249.000000
185936.000000,155392.000000
208981.000000,176415.000000
213887.000000,179302.000000
236525.000000,199906.000000
15.000000,0.000000
2050.000000,0.000000
4063.000000,0.000000
6087.000000,0.000000
8100.000000,0.000000
10115.000000,0.000000
12134.000000,0.000000
9012.000000,9005.000000
13750.000000,11729.000000
18170.000000,14135.000000
22524.000000,16480.000000
26899.000000,18843.000000
46151.000000,36080.000000
66905.000000,54824.000000
88962.000000,74863.000000
93888.000000,77770.000000
116878.000000,98742.000000
139803.000000,119641.000000
163394.000000,141206.000000
168392.000000,144196.000000
191515.000000,165306.000000
11777.000000,11770.000000
15772.000000,13745.000000
19825.000000,15785.000000
23919.000000,17860.000000
27815.000000,19743.000000
44560.000000,34470.000000
63263.000000,51150.000000
83393.000000,69264.000000
88095.000000,71950.000000
19853.000000,19848.000000
1378630.000000,1376611.000000
2228254.000000,2224222.000000
5736882.000000,5736851.000000
