6561.000000,1
10612.000000,2
14684.000000,3
18796.000000,4
23027.000000,5
39608.000000,6
57386.000000,7
76318.000000,8
80962.000000,9
99951.000000,10
13226.000000,1
19367.000000,2
109091.000000,3
115630.000000,4
2330.000000,1
6244.000000,2
9961.000000,3
13744.000000,4
17567.000000,5
31359.000000,6
5576.000000,1
9301.000000,2
13046.000000,3
16769.000000,4
20617.000000,5
37220.000000,6
53274.000000,7
72529.000000,8
76998.000000,9
96533.000000,10
116941.000000,11
137740.000000,12
142576.000000,13
163774.000000,14
185936.000000,15
208981.000000,16
213887.000000,17
236525.000000,18
15.000000,0
2050.000000,0
4063.000000,0
6087.000000,0
8100.000000,0
10115.000000,0
12134.000000,0
9012.000000,1
13750.000000,2
18170.000000,3
22524.000000,4
26899.000000,5
46151.000000,6
66905.000000,7
88962.000000,8
93888.000000,9
116878.000000,10
139803.000000,11
163394.000000,12
168392.000000,13
191515.000000,14
11777.000000,1
15772.000000,2
19825.000000,3
23919.000000,4
27815.000000,5
44560.000000,6
63263.000000,7
83393.000000,8
88095.000000,9
19853.000000,1
1378630.000000,2
2228254.000000,3
5736882.000000,1
