polygon((8086 7518,8086 7524,8103 7524,8103 7518,8086 7518))
polygon((8068 7524,8068 7525,8086 7525,8086 7524,8068 7524))
polygon((8061 7523,8061 7525,8068 7525,8068 7523,8061 7523))
polygon((8047 7512,8047 7523,8061 7523,8061 7512,8047 7512))
polygon((8039 7509,8039 7512,8047 7512,8047 7509,8039 7509))
polygon((8029 7501,8029 7509,8039 7509,8039 7501,8029 7501))
polygon((8023 7492,8023 7501,8029 7501,8029 7492,8023 7492))
polygon((8023 7482,8023 7492,8024 7492,8024 7482,8023 7482))
polygon((8004 7478,8004 7482,8024 7482,8024 7478,8004 7478))
polygon((8024 7475,8024 7482,8057 7482,8057 7475,8024 7475))
polygon((8057 7472,8057 7475,8063 7475,8063 7472,8057 7472))
polygon((8060 7461,8060 7472,8063 7472,8063 7461,8060 7461))
polygon((7987 7478,7987 7479,8004 7479,8004 7478,7987 7478))
polygon((7966 7456,7966 7479,7987 7479,7987 7456,7966 7456))
polygon((7950 7450,7950 7456,7966 7456,7966 7450,7950 7450))
polygon((7940 7444,7940 7450,7950 7450,7950 7444,7940 7444))
polygon((7935 7437,7935 7444,7940 7444,7940 7437,7935 7437))
polygon((8060 7451,8060 7461,8060 7461,8060 7451,8060 7451))
polygon((8060 7428,8060 7451,8077 7451,8077 7428,8060 7428))
polygon((8077 7409,8077 7428,8095 7428,8095 7409,8077 7409))
polygon((7931 7376,7931 7391,7974 7391,7974 7376,7931 7376))
polygon((7974 7372,7974 7376,7981 7376,7981 7372,7974 7372))
polygon((7978 7362,7978 7372,7981 7372,7981 7362,7978 7362))
polygon((7978 7354,7978 7362,7982 7362,7982 7354,7978 7354))
polygon((7997 7341,7997 7345,8001 7345,8001 7341,7997 7341))
polygon((7996 7345,7996 7351,7997 7351,7997 7345,7996 7345))
polygon((7982 7351,7982 7354,7996 7354,7996 7351,7982 7351))
polygon((8308 7127,8308 7143,8322 7143,8322 7127,8308 7127))
polygon((8302 7143,8302 7143,8308 7143,8308 7143,8302 7143))
polygon((8281 7137,8281 7143,8302 7143,8302 7137,8281 7137))
polygon((8271 7136,8271 7137,8281 7137,8281 7136,8271 7136))
polygon((7926 7102,7926 7103,7943 7103,7943 7102,7926 7102))
polygon((8333 7091,8333 7116,8365 7116,8365 7091,8333 7091))
polygon((8322 7116,8322 7127,8333 7127,8333 7116,8322 7116))
polygon((8365 7080,8365 7091,8379 7091,8379 7080,8365 7080))
polygon((8379 7075,8379 7080,8402 7080,8402 7075,8379 7075))
polygon((8402 7075,8402 7075,8403 7075,8403 7075,8402 7075))
polygon((8403 7074,8403 7075,8404 7075,8404 7074,8403 7074))
polygon((8404 7069,8404 7074,8419 7074,8419 7069,8404 7069))
polygon((8025 7065,8025 7074,8050 7074,8050 7065,8025 7065))
polygon((8050 7074,8050 7108,8074 7108,8074 7074,8050 7074))
polygon((8074 7108,8074 7114,8081 7114,8081 7108,8074 7108))
polygon((8081 7114,8081 7119,8090 7119,8090 7114,8081 7114))
polygon((8090 7119,8090 7127,8124 7127,8124 7119,8090 7119))
polygon((8124 7127,8124 7132,8135 7132,8135 7127,8124 7127))
polygon((8135 7132,8135 7135,8150 7135,8150 7132,8135 7132))
polygon((8147 7135,8147 7140,8150 7140,8150 7135,8147 7135))
polygon((8419 7066,8419 7069,8431 7069,8431 7066,8419 7066))
polygon((8431 7063,8431 7066,8474 7066,8474 7063,8431 7063))
polygon((8474 7061,8474 7063,8476 7063,8476 7061,8474 7061))
polygon((8300 7060,8300 7062,8316 7062,8316 7060,8300 7060))
polygon((8316 7062,8316 7079,8352 7079,8352 7062,8316 7062))
polygon((8352 7079,8352 7080,8363 7080,8363 7079,8352 7079))
polygon((8363 7080,8363 7080,8379 7080,8379 7080,8363 7080))
polygon((7927 7053,7927 7054,7934 7054,7934 7053,7927 7053))
polygon((7934 7053,7934 7053,7964 7053,7964 7053,7934 7053))
polygon((7964 7053,7964 7057,7993 7057,7993 7053,7964 7053))
polygon((7993 7057,7993 7065,8025 7065,8025 7057,7993 7057))
polygon((8260 7039,8260 7040,8263 7040,8263 7039,8260 7039))
polygon((8263 7040,8263 7054,8276 7054,8276 7040,8263 7040))
polygon((8276 7054,8276 7054,8283 7054,8283 7054,8276 7054))
polygon((8478 7046,8478 7059,8495 7059,8495 7046,8478 7046))
polygon((8495 7043,8495 7046,8500 7046,8500 7043,8495 7043))
polygon((8500 7043,8500 7043,8510 7043,8510 7043,8500 7043))
polygon((8510 7039,8510 7043,8519 7043,8519 7039,8510 7039))
polygon((8519 7030,8519 7039,8533 7039,8533 7030,8519 7030))
polygon((8533 7022,8533 7030,8540 7030,8540 7022,8533 7022))
polygon((8540 7014,8540 7022,8549 7022,8549 7014,8540 7014))
polygon((8549 7004,8549 7014,8559 7014,8559 7004,8549 7004))
polygon((7960 7003,7960 7022,7994 7022,7994 7003,7960 7003))
polygon((7933 7022,7933 7051,7960 7051,7960 7022,7933 7022))
polygon((7933 7051,7933 7053,7934 7053,7934 7051,7933 7051))
polygon((7994 6977,7994 7003,8036 7003,8036 6977,7994 6977))
polygon((8088 6973,8088 6989,8125 6989,8125 6973,8088 6973))
polygon((8125 6989,8125 6996,8169 6996,8169 6989,8125 6989))
polygon((8169 6996,8169 7014,8214 7014,8214 6996,8169 6996))
polygon((8214 7014,8214 7027,8229 7027,8229 7014,8214 7014))
polygon((8229 7027,8229 7033,8239 7033,8239 7027,8229 7027))
polygon((8239 7033,8239 7039,8260 7039,8260 7033,8239 7033))
polygon((8036 6971,8036 6977,8046 6977,8046 6971,8036 6971))
polygon((8046 6966,8046 6971,8055 6971,8055 6966,8046 6966))
polygon((8055 6964,8055 6966,8063 6966,8063 6964,8055 6964))
polygon((8063 6964,8063 6965,8072 6965,8072 6964,8063 6964))
polygon((8072 6965,8072 6973,8088 6973,8088 6965,8072 6965))
polygon((8594 6960,8594 6977,8629 6977,8629 6960,8594 6960))
polygon((8573 6977,8573 6979,8594 6979,8594 6977,8573 6977))
polygon((8559 6979,8559 7004,8573 7004,8573 6979,8559 6979))
polygon((8669 6938,8669 6942,8671 6942,8671 6938,8669 6938))
polygon((8660 6936,8660 6938,8669 6938,8669 6936,8660 6936))
polygon((8639 6936,8639 6956,8660 6956,8660 6936,8639 6936))
polygon((8629 6956,8629 6960,8639 6960,8639 6956,8629 6956))
polygon((8116 6896,8116 6924,8148 6924,8148 6896,8116 6896))
polygon((8055 6924,8055 6966,8116 6966,8116 6924,8055 6924))
polygon((8148 6861,8148 6896,8191 6896,8191 6861,8148 6861))
polygon((8191 6859,8191 6861,8194 6861,8194 6859,8191 6859))
polygon((8194 6852,8194 6859,8207 6859,8207 6852,8194 6852))
polygon((8207 6850,8207 6852,8209 6852,8209 6850,8207 6850))
polygon((8209 6846,8209 6850,8216 6850,8216 6846,8209 6846))
polygon((8216 6834,8216 6846,8236 6846,8236 6834,8216 6834))
polygon((8257 6757,8257 6819,8297 6819,8297 6757,8257 6757))
polygon((8252 6819,8252 6825,8257 6825,8257 6819,8252 6819))
polygon((8236 6825,8236 6834,8252 6834,8252 6825,8236 6825))
polygon((8297 6753,8297 6757,8300 6757,8300 6753,8297 6753))
polygon((8579 6686,8579 6688,8580 6688,8580 6686,8579 6686))
polygon((8580 6688,8580 6691,8582 6691,8582 6688,8580 6688))
polygon((8581 6691,8581 6695,8582 6695,8582 6691,8581 6691))
polygon((8559 6695,8559 6722,8581 6722,8581 6695,8559 6695))
polygon((8575 6682,8575 6686,8579 6686,8579 6682,8575 6682))
polygon((8574 6680,8574 6682,8575 6682,8575 6680,8574 6680))
polygon((8565 6672,8565 6680,8574 6680,8574 6672,8565 6672))
polygon((8300 6672,8300 6753,8366 6753,8366 6672,8300 6672))
polygon((8564 6671,8564 6672,8565 6672,8565 6671,8564 6671))
polygon((8015 6661,8015 6671,8036 6671,8036 6661,8015 6661))
polygon((8541 6644,8541 6653,8554 6653,8554 6644,8541 6644))
polygon((8554 6653,8554 6671,8564 6671,8564 6653,8554 6653))
polygon((8534 6641,8534 6644,8541 6644,8541 6641,8534 6641))
polygon((8533 6640,8533 6641,8534 6641,8534 6640,8533 6640))
polygon((8526 6638,8526 6640,8533 6640,8533 6638,8526 6638))
polygon((8491 6627,8491 6627,8494 6627,8494 6627,8491 6627))
polygon((8494 6627,8494 6629,8504 6629,8504 6627,8494 6627))
polygon((8504 6629,8504 6636,8522 6636,8522 6629,8504 6629))
polygon((8522 6636,8522 6638,8526 6638,8526 6636,8522 6636))
polygon((7931 6651,7931 6655,7938 6655,7938 6651,7931 6651))
polygon((7938 6655,7938 6656,7949 6656,7949 6655,7938 6655))
polygon((7949 6656,7949 6656,7961 6656,7961 6656,7949 6656))
polygon((7961 6656,7961 6660,7976 6660,7976 6656,7961 6656))
polygon((7976 6660,7976 6661,7991 6661,7991 6660,7976 6660))
polygon((7991 6659,7991 6661,8009 6661,8009 6659,7991 6659))
polygon((8009 6659,8009 6661,8015 6661,8015 6659,8009 6659))
polygon((8430 6606,8430 6612,8442 6612,8442 6606,8430 6606))
polygon((8442 6612,8442 6620,8475 6620,8475 6612,8442 6612))
polygon((8475 6620,8475 6624,8488 6624,8488 6620,8475 6620))
polygon((8488 6624,8488 6627,8491 6627,8491 6624,8488 6624))
polygon((8366 6606,8366 6672,8430 6672,8430 6606,8366 6606))
polygon((8430 6593,8430 6606,8442 6606,8442 6593,8430 6593))
polygon((8569 6557,8569 6582,8571 6582,8571 6557,8569 6557))
polygon((8569 6582,8569 6587,8571 6587,8571 6582,8569 6582))
polygon((8540 6587,8540 6612,8569 6612,8569 6587,8540 6587))
polygon((8540 6612,8540 6630,8557 6630,8557 6612,8540 6612))
polygon((8553 6630,8553 6638,8557 6638,8557 6630,8553 6630))
polygon((8541 6638,8541 6644,8553 6644,8553 6638,8541 6638))
polygon((8442 6584,8442 6593,8451 6593,8451 6584,8442 6584))
polygon((8451 6535,8451 6584,8487 6584,8487 6535,8451 6535))
polygon((8484 6527,8484 6535,8487 6535,8487 6527,8484 6527))
polygon((8455 6531,8455 6531,8471 6531,8471 6531,8455 6531))
polygon((8471 6527,8471 6531,8484 6531,8484 6527,8471 6527))
polygon((7975 6514,7975 6536,8079 6536,8079 6514,7975 6514))
polygon((7921 6536,7921 6558,7975 6558,7975 6536,7921 6536))
polygon((8264 6512,8264 6513,8285 6513,8285 6512,8264 6512))
polygon((8285 6513,8285 6524,8331 6524,8331 6513,8285 6513))
polygon((8331 6524,8331 6525,8346 6525,8346 6524,8331 6524))
polygon((8346 6525,8346 6525,8371 6525,8371 6525,8346 6525))
polygon((8371 6525,8371 6529,8401 6529,8401 6525,8371 6525))
polygon((8401 6529,8401 6531,8455 6531,8455 6529,8401 6529))
polygon((8482 6511,8482 6527,8484 6527,8484 6511,8482 6511))
polygon((8255 6509,8255 6512,8258 6512,8258 6509,8255 6509))
polygon((8258 6512,8258 6512,8264 6512,8264 6512,8258 6512))
polygon((8240 6509,8240 6512,8255 6512,8255 6509,8240 6509))
polygon((8482 6509,8482 6511,8497 6511,8497 6509,8482 6509))
polygon((8537 6508,8537 6513,8550 6513,8550 6508,8537 6508))
polygon((8550 6513,8550 6527,8559 6527,8559 6513,8550 6513))
polygon((8559 6527,8559 6544,8567 6544,8567 6527,8559 6527))
polygon((8567 6544,8567 6557,8569 6557,8569 6544,8567 6544))
polygon((8497 6507,8497 6509,8504 6509,8504 6507,8497 6507))
polygon((8504 6507,8504 6507,8505 6507,8505 6507,8504 6507))
polygon((8505 6507,8505 6507,8506 6507,8506 6507,8505 6507))
polygon((8506 6507,8506 6507,8518 6507,8518 6507,8506 6507))
polygon((8518 6506,8518 6507,8532 6507,8532 6506,8518 6506))
polygon((8532 6506,8532 6508,8537 6508,8537 6506,8532 6506))
polygon((8188 6512,8188 6517,8240 6517,8240 6512,8188 6512))
polygon((8182 6516,8182 6517,8188 6517,8188 6516,8182 6516))
polygon((8166 6507,8166 6516,8182 6516,8182 6507,8166 6507))
polygon((8143 6502,8143 6507,8166 6507,8166 6502,8143 6502))
polygon((8128 6502,8128 6504,8143 6504,8143 6502,8128 6502))
polygon((8079 6504,8079 6514,8128 6514,8128 6504,8079 6504))
polygon((8463 6499,8463 6511,8482 6511,8482 6499,8463 6499))
polygon((8457 6496,8457 6499,8463 6499,8463 6496,8457 6496))
polygon((8537 6506,8537 6508,8542 6508,8542 6506,8537 6506))
polygon((8542 6505,8542 6506,8570 6506,8570 6505,8542 6505))
polygon((8570 6503,8570 6505,8577 6505,8577 6503,8570 6503))
polygon((8577 6478,8577 6503,8638 6503,8638 6478,8577 6478))
polygon((8638 6476,8638 6478,8644 6478,8644 6476,8638 6476))
polygon((8644 6461,8644 6476,8680 6476,8680 6461,8644 6461))
polygon((8255 6505,8255 6509,8259 6509,8259 6505,8255 6505))
polygon((8259 6500,8259 6505,8260 6505,8260 6500,8259 6500))
polygon((8240 6465,8240 6500,8260 6500,8260 6465,8240 6465))
polygon((8239 6462,8239 6465,8240 6465,8240 6462,8239 6462))
polygon((8239 6459,8239 6462,8242 6462,8242 6459,8239 6459))
polygon((8695 6452,8695 6456,8711 6456,8711 6452,8695 6452))
polygon((8680 6456,8680 6461,8695 6461,8695 6456,8680 6456))
polygon((8711 6449,8711 6452,8727 6452,8727 6449,8711 6449))
polygon((8727 6432,8727 6449,8775 6449,8775 6432,8727 6432))
polygon((8416 6469,8416 6496,8457 6496,8457 6469,8416 6469))
polygon((8385 6420,8385 6469,8416 6469,8416 6420,8385 6420))
polygon((8826 6413,8826 6416,8872 6416,8872 6413,8826 6413))
polygon((8796 6416,8796 6423,8826 6423,8826 6416,8796 6416))
polygon((8775 6423,8775 6432,8796 6432,8796 6423,8775 6423))
polygon((8668 6458,8668 6461,8680 6461,8680 6458,8668 6458))
polygon((8668 6451,8668 6458,8673 6458,8673 6451,8668 6451))
polygon((8669 6446,8669 6451,8673 6451,8673 6446,8669 6446))
polygon((8650 6439,8650 6446,8669 6446,8669 6439,8650 6439))
polygon((8644 6434,8644 6439,8650 6439,8650 6434,8644 6434))
polygon((8644 6426,8644 6434,8645 6434,8645 6426,8644 6426))
polygon((8640 6418,8640 6426,8645 6426,8645 6418,8640 6418))
polygon((8640 6413,8640 6418,8641 6418,8641 6413,8640 6413))
polygon((8636 6407,8636 6413,8641 6413,8641 6407,8636 6407))
polygon((8636 6401,8636 6407,8637 6407,8637 6401,8636 6401))
polygon((8242 6450,8242 6459,8257 6459,8257 6450,8242 6450))
polygon((8257 6441,8257 6450,8264 6450,8264 6441,8257 6441))
polygon((8264 6418,8264 6441,8268 6441,8268 6418,8264 6418))
polygon((8268 6404,8268 6418,8277 6418,8277 6404,8268 6404))
polygon((8271 6393,8271 6404,8277 6404,8277 6393,8271 6393))
polygon((8271 6378,8271 6393,8282 6393,8282 6378,8271 6378))
polygon((8282 6366,8282 6378,8302 6378,8302 6366,8282 6366))
polygon((8264 6365,8264 6366,8302 6366,8302 6365,8264 6365))
polygon((8257 6365,8257 6366,8264 6366,8264 6365,8257 6365))
polygon((8249 6366,8249 6372,8257 6372,8257 6366,8249 6366))
polygon((8231 6372,8231 6375,8249 6375,8249 6372,8231 6372))
polygon((8221 6373,8221 6375,8231 6375,8231 6373,8221 6373))
polygon((8197 6373,8197 6385,8221 6385,8221 6373,8197 6373))
polygon((8184 6385,8184 6388,8197 6388,8197 6385,8184 6385))
polygon((8159 6387,8159 6388,8184 6388,8184 6387,8159 6387))
polygon((8108 6387,8108 6391,8159 6391,8159 6387,8108 6387))
polygon((8094 6391,8094 6392,8108 6392,8108 6391,8094 6391))
polygon((8385 6393,8385 6420,8393 6420,8393 6393,8385 6393))
polygon((8393 6386,8393 6393,8393 6393,8393 6386,8393 6386))
polygon((8376 6351,8376 6386,8393 6386,8393 6351,8376 6351))
polygon((8373 6349,8373 6351,8376 6351,8376 6349,8373 6349))
polygon((8302 6360,8302 6366,8314 6366,8314 6360,8302 6360))
polygon((8314 6350,8314 6360,8327 6360,8327 6350,8314 6350))
polygon((8327 6344,8327 6350,8345 6350,8345 6344,8327 6344))
polygon((8362 6340,8362 6349,8373 6349,8373 6340,8362 6340))
polygon((8345 6340,8345 6344,8362 6344,8362 6340,8345 6340))
polygon((8371 6338,8371 6349,8373 6349,8373 6338,8371 6338))
polygon((8369 6333,8369 6338,8371 6338,8371 6333,8369 6333))
polygon((8371 6329,8371 6338,8383 6338,8383 6329,8371 6329))
polygon((8383 6327,8383 6329,8386 6329,8386 6327,8383 6327))
polygon((8386 6326,8386 6327,8387 6327,8387 6326,8386 6326))
polygon((8353 6324,8353 6326,8358 6326,8358 6324,8353 6324))
polygon((8358 6326,8358 6340,8362 6340,8362 6326,8358 6326))
polygon((8910 6323,8910 6324,8911 6324,8911 6323,8910 6323))
polygon((8637 6397,8637 6401,8638 6401,8638 6397,8637 6397))
polygon((8638 6383,8638 6397,8647 6397,8647 6383,8638 6383))
polygon((8647 6369,8647 6383,8651 6383,8651 6369,8647 6369))
polygon((8650 6363,8650 6369,8651 6369,8651 6363,8650 6363))
polygon((8646 6357,8646 6363,8650 6363,8650 6357,8646 6357))
polygon((8633 6349,8633 6357,8646 6357,8646 6349,8633 6349))
polygon((8619 6343,8619 6349,8633 6349,8633 6343,8619 6343))
polygon((8599 6341,8599 6343,8619 6343,8619 6341,8599 6341))
polygon((8596 6339,8596 6341,8599 6341,8599 6339,8596 6339))
polygon((8596 6326,8596 6339,8596 6339,8596 6326,8596 6326))
polygon((8583 6308,8583 6326,8596 6326,8596 6308,8583 6308))
polygon((8387 6324,8387 6326,8396 6326,8396 6324,8387 6324))
polygon((8396 6316,8396 6324,8405 6324,8405 6316,8396 6316))
polygon((8405 6313,8405 6316,8417 6316,8417 6313,8405 6313))
polygon((8417 6311,8417 6313,8433 6313,8433 6311,8417 6311))
polygon((8433 6307,8433 6311,8442 6311,8442 6307,8433 6307))
polygon((8442 6307,8442 6310,8464 6310,8464 6307,8442 6307))
polygon((8464 6309,8464 6310,8472 6310,8472 6309,8464 6309))
polygon((8369 6305,8369 6312,8373 6312,8373 6305,8369 6305))
polygon((8367 6312,8367 6327,8369 6327,8369 6312,8367 6312))
polygon((8367 6327,8367 6333,8369 6333,8369 6327,8367 6327))
polygon((8312 6304,8312 6313,8332 6313,8332 6304,8312 6304))
polygon((8332 6313,8332 6318,8339 6318,8339 6313,8332 6313))
polygon((8339 6318,8339 6324,8353 6324,8353 6318,8339 6318))
polygon((8472 6308,8472 6309,8483 6309,8483 6308,8472 6308))
polygon((8483 6308,8483 6309,8491 6309,8491 6308,8483 6308))
polygon((8491 6301,8491 6309,8506 6309,8506 6301,8491 6301))
polygon((8506 6299,8506 6301,8521 6301,8521 6299,8506 6299))
polygon((8521 6299,8521 6299,8557 6299,8557 6299,8521 6299))
polygon((8557 6299,8557 6305,8570 6305,8570 6299,8557 6299))
polygon((8570 6305,8570 6308,8583 6308,8583 6305,8570 6305))
polygon((8373 6282,8373 6305,8384 6305,8384 6282,8373 6282))
polygon((8384 6274,8384 6282,8384 6282,8384 6274,8384 6274))
polygon((8376 6257,8376 6274,8384 6274,8384 6257,8376 6257))
polygon((8792 6254,8792 6256,8800 6256,8800 6254,8792 6254))
polygon((8800 6256,8800 6263,8836 6263,8836 6256,8800 6256))
polygon((8836 6263,8836 6266,8841 6266,8841 6263,8836 6263))
polygon((8841 6266,8841 6275,8850 6275,8850 6266,8841 6266))
polygon((8850 6275,8850 6303,8857 6303,8857 6275,8850 6275))
polygon((8857 6303,8857 6310,8861 6310,8861 6303,8857 6303))
polygon((8861 6310,8861 6323,8910 6323,8910 6310,8861 6310))
polygon((8204 6232,8204 6236,8219 6236,8219 6232,8204 6232))
polygon((8219 6236,8219 6248,8240 6248,8240 6236,8219 6236))
polygon((8240 6248,8240 6251,8241 6251,8241 6248,8240 6248))
polygon((8232 6251,8232 6261,8241 6261,8241 6251,8232 6251))
polygon((8232 6261,8232 6265,8233 6265,8233 6261,8232 6261))
polygon((8233 6265,8233 6294,8264 6294,8264 6265,8233 6265))
polygon((8264 6294,8264 6297,8271 6297,8271 6294,8264 6294))
polygon((8271 6297,8271 6301,8303 6301,8303 6297,8271 6297))
polygon((8303 6301,8303 6304,8312 6304,8312 6301,8303 6301))
polygon((8710 6217,8710 6217,8713 6217,8713 6217,8710 6217))
polygon((8713 6217,8713 6241,8756 6241,8756 6217,8713 6217))
polygon((8756 6241,8756 6254,8792 6254,8792 6241,8756 6241))
polygon((8702 6210,8702 6217,8710 6217,8710 6210,8702 6210))
polygon((8679 6197,8679 6210,8702 6210,8702 6197,8679 6197))
polygon((8161 6194,8161 6201,8168 6201,8168 6194,8161 6194))
polygon((8168 6201,8168 6205,8177 6205,8177 6201,8168 6201))
polygon((8177 6205,8177 6228,8196 6228,8196 6205,8177 6205))
polygon((8196 6228,8196 6232,8204 6232,8204 6228,8196 6228))
polygon((8158 6189,8158 6194,8161 6194,8161 6189,8158 6189))
polygon((8369 6241,8369 6257,8376 6257,8376 6241,8369 6241))
polygon((8369 6234,8369 6241,8371 6241,8371 6234,8369 6234))
polygon((8371 6227,8371 6234,8374 6234,8374 6227,8371 6227))
polygon((8374 6217,8374 6227,8388 6227,8388 6217,8374 6217))
polygon((8388 6209,8388 6217,8390 6217,8390 6209,8388 6209))
polygon((8387 6200,8387 6209,8390 6209,8390 6200,8387 6200))
polygon((8379 6190,8379 6200,8387 6200,8387 6190,8379 6190))
polygon((8373 6173,8373 6190,8379 6190,8379 6173,8373 6173))
polygon((8667 6190,8667 6197,8679 6197,8679 6190,8667 6190))
polygon((8636 6179,8636 6190,8667 6190,8667 6179,8636 6179))
polygon((8614 6161,8614 6179,8636 6179,8636 6161,8614 6161))
polygon((8614 6159,8614 6161,8615 6161,8615 6159,8614 6159))
polygon((8521 6293,8521 6299,8521 6299,8521 6293,8521 6293))
polygon((8509 6268,8509 6293,8521 6293,8521 6268,8509 6268))
polygon((8509 6257,8509 6268,8517 6268,8517 6257,8509 6257))
polygon((8517 6242,8517 6257,8518 6257,8518 6242,8517 6242))
polygon((8518 6237,8518 6242,8523 6242,8523 6237,8518 6237))
polygon((8518 6222,8518 6237,8523 6237,8523 6222,8518 6222))
polygon((8516 6218,8516 6222,8518 6222,8518 6218,8516 6218))
polygon((8516 6215,8516 6218,8517 6218,8517 6215,8516 6215))
polygon((8517 6198,8517 6215,8535 6215,8535 6198,8517 6198))
polygon((8534 6194,8534 6198,8535 6198,8535 6194,8534 6194))
polygon((8516 6185,8516 6194,8534 6194,8534 6185,8516 6185))
polygon((8515 6184,8515 6185,8516 6185,8516 6184,8515 6184))
polygon((8505 6176,8505 6184,8515 6184,8515 6176,8505 6176))
polygon((8502 6171,8502 6176,8505 6176,8505 6171,8502 6171))
polygon((8502 6166,8502 6171,8506 6171,8506 6166,8502 6166))
polygon((8506 6164,8506 6166,8517 6166,8517 6164,8506 6164))
polygon((8517 6158,8517 6164,8529 6164,8529 6158,8517 6158))
polygon((8140 6171,8140 6189,8158 6189,8158 6171,8140 6171))
polygon((8133 6168,8133 6171,8140 6171,8140 6168,8133 6168))
polygon((8111 6165,8111 6168,8133 6168,8133 6165,8111 6165))
polygon((8086 6157,8086 6165,8111 6165,8111 6157,8086 6157))
polygon((8075 6152,8075 6157,8086 6157,8086 6152,8075 6152))
polygon((8599 6149,8599 6159,8615 6159,8615 6149,8599 6149))
polygon((8615 6138,8615 6159,8661 6159,8661 6138,8615 6138))
polygon((8054 6140,8054 6152,8075 6152,8075 6140,8054 6140))
polygon((8046 6129,8046 6140,8054 6140,8054 6129,8046 6129))
polygon((8035 6124,8035 6129,8046 6129,8046 6124,8035 6124))
polygon((8014 6118,8014 6124,8035 6124,8035 6118,8014 6118))
polygon((8003 6115,8003 6118,8014 6118,8014 6115,8003 6115))
polygon((8661 6120,8661 6138,8708 6138,8708 6120,8661 6120))
polygon((8708 6107,8708 6120,8726 6120,8726 6107,8708 6107))
polygon((8533 6106,8533 6149,8599 6149,8599 6106,8533 6106))
polygon((8519 6106,8519 6114,8533 6114,8533 6106,8519 6106))
polygon((8519 6114,8519 6122,8521 6122,8521 6114,8519 6114))
polygon((8518 6122,8518 6134,8521 6134,8521 6122,8518 6122))
polygon((8518 6134,8518 6140,8525 6140,8525 6134,8518 6134))
polygon((8525 6140,8525 6150,8529 6150,8529 6140,8525 6140))
polygon((8529 6150,8529 6158,8529 6158,8529 6150,8529 6150))
polygon((8113 6106,8113 6110,8124 6110,8124 6106,8113 6106))
polygon((8076 6110,8076 6112,8113 6112,8113 6110,8076 6110))
polygon((8051 6112,8051 6117,8076 6117,8076 6112,8051 6112))
polygon((8041 6117,8041 6120,8051 6120,8051 6117,8041 6117))
polygon((8035 6120,8035 6124,8041 6124,8041 6120,8035 6120))
polygon((8726 6101,8726 6107,8734 6107,8734 6101,8726 6101))
polygon((8372 6167,8372 6173,8373 6173,8373 6167,8372 6167))
polygon((8372 6144,8372 6167,8380 6167,8380 6144,8372 6144))
polygon((8380 6123,8380 6144,8380 6144,8380 6123,8380 6123))
polygon((8380 6091,8380 6123,8405 6123,8405 6091,8380 6091))
polygon((8405 6087,8405 6091,8410 6091,8410 6087,8405 6087))
polygon((8734 6087,8734 6101,8751 6101,8751 6087,8734 6087))
polygon((8751 6086,8751 6087,8753 6087,8753 6086,8751 6086))
polygon((8753 6077,8753 6086,8759 6086,8759 6077,8753 6077))
polygon((8746 6074,8746 6074,8756 6074,8756 6074,8746 6074))
polygon((8756 6074,8756 6077,8759 6077,8759 6074,8756 6074))
polygon((8715 6074,8715 6080,8746 6080,8746 6074,8715 6074))
polygon((8678 6080,8678 6082,8715 6082,8715 6080,8678 6080))
polygon((8616 6071,8616 6082,8678 6082,8678 6071,8616 6071))
polygon((8573 6063,8573 6071,8616 6071,8616 6063,8573 6063))
polygon((8124 6083,8124 6106,8174 6106,8174 6083,8124 6083))
polygon((8174 6061,8174 6083,8202 6083,8202 6061,8174 6061))
polygon((8202 6056,8202 6061,8204 6061,8204 6056,8202 6056))
polygon((8202 6035,8202 6056,8204 6056,8204 6035,8202 6035))
polygon((8477 6028,8477 6033,8479 6033,8479 6028,8477 6028))
polygon((8469 6033,8469 6043,8477 6043,8477 6033,8469 6033))
polygon((8468 6043,8468 6049,8469 6049,8469 6043,8468 6043))
polygon((8468 6049,8468 6087,8495 6087,8495 6049,8468 6049))
polygon((8495 6087,8495 6093,8511 6093,8511 6087,8495 6087))
polygon((8511 6093,8511 6106,8533 6106,8533 6093,8511 6093))
polygon((8410 6071,8410 6087,8434 6087,8434 6071,8410 6071))
polygon((8434 6059,8434 6071,8436 6071,8436 6059,8434 6059))
polygon((8436 6049,8436 6059,8442 6059,8442 6049,8436 6049))
polygon((8442 6028,8442 6049,8479 6049,8479 6028,8442 6028))
polygon((8501 6027,8501 6032,8503 6032,8503 6027,8501 6027))
polygon((8503 6032,8503 6044,8523 6044,8523 6032,8503 6032))
polygon((8523 6044,8523 6051,8540 6051,8540 6044,8523 6044))
polygon((8540 6051,8540 6063,8573 6063,8573 6051,8540 6051))
polygon((8200 6026,8200 6035,8202 6035,8202 6026,8200 6026))
polygon((8499 6020,8499 6026,8500 6026,8500 6020,8499 6020))
polygon((8500 6026,8500 6027,8501 6027,8501 6026,8500 6026))
polygon((8479 6018,8479 6028,8491 6028,8491 6018,8479 6018))
polygon((8491 6018,8491 6018,8492 6018,8492 6018,8491 6018))
polygon((8492 6018,8492 6020,8499 6020,8499 6018,8492 6018))
polygon((8497 6015,8497 6020,8499 6020,8499 6015,8497 6015))
polygon((8497 6014,8497 6015,8497 6015,8497 6014,8497 6014))
polygon((8200 6018,8200 6026,8201 6026,8201 6018,8200 6018))
polygon((8201 6012,8201 6018,8208 6018,8208 6012,8201 6012))
polygon((8208 5984,8208 6012,8234 6012,8234 5984,8208 5984))
polygon((8234 5978,8234 5984,8254 5984,8254 5978,8234 5978))
polygon((8254 5974,8254 5978,8256 5978,8256 5974,8254 5974))
polygon((8251 5963,8251 5974,8256 5974,8256 5963,8251 5963))
polygon((8251 5961,8251 5963,8252 5963,8252 5961,8251 5961))
polygon((8252 5957,8252 5961,8267 5961,8267 5957,8252 5957))
polygon((8529 5948,8529 5975,8556 5975,8556 5948,8529 5948))
polygon((8526 5975,8526 5992,8529 5992,8529 5975,8526 5975))
polygon((8520 5992,8520 5998,8526 5998,8526 5992,8520 5992))
polygon((8497 5998,8497 6015,8520 6015,8520 5998,8497 5998))
polygon((8491 5994,8491 6014,8497 6014,8497 5994,8491 5994))
polygon((8477 5974,8477 5994,8491 5994,8491 5974,8477 5974))
polygon((8459 5959,8459 5974,8477 5974,8477 5959,8459 5959))
polygon((8446 5938,8446 5959,8459 5959,8459 5938,8446 5938))
polygon((8438 5933,8438 5938,8446 5938,8446 5933,8438 5933))
polygon((8322 5897,8322 5918,8325 5918,8325 5897,8322 5897))
polygon((8316 5918,8316 5926,8322 5926,8322 5918,8316 5918))
polygon((8296 5926,8296 5938,8316 5938,8316 5926,8296 5926))
polygon((8289 5938,8289 5944,8296 5944,8296 5938,8289 5938))
polygon((8285 5944,8285 5956,8289 5956,8289 5944,8285 5944))
polygon((8267 5956,8267 5957,8285 5957,8285 5956,8267 5956))
polygon((8326 5893,8326 5894,8327 5894,8327 5893,8326 5893))
polygon((8325 5894,8325 5897,8326 5897,8326 5894,8325 5894))
polygon((8375 5908,8375 5933,8438 5933,8438 5908,8375 5908))
polygon((8328 5879,8328 5908,8375 5908,8375 5879,8328 5879))
polygon((8328 5879,8328 5887,8330 5887,8330 5879,8328 5879))
polygon((8327 5887,8327 5893,8330 5893,8330 5887,8327 5887))
polygon((8538 5849,8538 5859,8558 5859,8558 5849,8538 5849))
polygon((8558 5859,8558 5864,8562 5864,8562 5859,8558 5859))
polygon((8561 5864,8561 5881,8562 5881,8562 5864,8561 5864))
polygon((8561 5881,8561 5889,8564 5889,8564 5881,8561 5881))
polygon((8564 5889,8564 5895,8570 5895,8570 5889,8564 5889))
polygon((8570 5895,8570 5903,8584 5903,8584 5895,8570 5895))
polygon((8584 5903,8584 5909,8589 5909,8589 5903,8584 5903))
polygon((8589 5909,8589 5916,8589 5916,8589 5909,8589 5909))
polygon((8572 5916,8572 5937,8589 5937,8589 5916,8572 5916))
polygon((8556 5937,8556 5948,8572 5948,8572 5937,8556 5937))
polygon((8313 5868,8313 5879,8328 5879,8328 5868,8313 5868))
polygon((8305 5861,8305 5868,8313 5868,8313 5861,8305 5861))
polygon((8300 5843,8300 5861,8305 5861,8305 5843,8300 5843))
polygon((8038 5841,8038 5849,8045 5849,8045 5841,8038 5841))
polygon((8045 5849,8045 5863,8047 5863,8047 5849,8045 5849))
polygon((8047 5863,8047 5873,8054 5873,8054 5863,8047 5863))
polygon((8054 5873,8054 5879,8055 5879,8055 5873,8054 5873))
polygon((8052 5879,8052 5890,8055 5890,8055 5879,8052 5879))
polygon((8037 5890,8037 5903,8052 5903,8052 5890,8037 5890))
polygon((8319 5839,8319 5844,8342 5844,8342 5839,8319 5839))
polygon((8306 5837,8306 5838,8316 5838,8316 5837,8306 5837))
polygon((8316 5838,8316 5839,8319 5839,8319 5838,8316 5838))
polygon((8300 5842,8300 5843,8300 5843,8300 5842,8300 5842))
polygon((8300 5837,8300 5842,8306 5842,8306 5837,8300 5837))
polygon((8342 5844,8342 5844,8343 5844,8343 5844,8342 5844))
polygon((8343 5844,8343 5846,8351 5846,8351 5844,8343 5844))
polygon((8351 5844,8351 5846,8363 5846,8363 5844,8351 5844))
polygon((8363 5836,8363 5844,8384 5844,8384 5836,8363 5836))
polygon((8384 5833,8384 5836,8405 5836,8405 5833,8384 5833))
polygon((8298 5832,8298 5837,8306 5837,8306 5832,8298 5832))
polygon((8295 5830,8295 5832,8298 5832,8298 5830,8295 5830))
polygon((8263 5815,8263 5830,8295 5830,8295 5815,8263 5815))
polygon((8512 5836,8512 5849,8538 5849,8538 5836,8512 5836))
polygon((8506 5824,8506 5836,8512 5836,8512 5824,8506 5824))
polygon((8506 5820,8506 5824,8508 5824,8508 5820,8506 5820))
polygon((8508 5807,8508 5820,8526 5820,8526 5807,8508 5807))
polygon((8526 5794,8526 5807,8529 5807,8529 5794,8526 5794))
polygon((8527 5791,8527 5794,8529 5794,8529 5791,8527 5791))
polygon((8405 5829,8405 5833,8434 5833,8434 5829,8405 5829))
polygon((8434 5805,8434 5829,8462 5829,8462 5805,8434 5805))
polygon((8462 5790,8462 5805,8499 5805,8499 5790,8462 5790))
polygon((8499 5789,8499 5790,8510 5790,8510 5789,8499 5789))
polygon((8510 5789,8510 5791,8527 5791,8527 5789,8510 5789))
polygon((8527 5784,8527 5791,8545 5791,8545 5784,8527 5784))
polygon((8545 5781,8545 5784,8552 5784,8552 5781,8545 5781))
polygon((8716 5806,8716 5811,8725 5811,8725 5806,8716 5806))
polygon((8686 5771,8686 5806,8716 5806,8716 5771,8686 5771))
polygon((8008 5828,8008 5841,8038 5841,8038 5828,8008 5828))
polygon((8175 5756,8175 5781,8201 5781,8201 5756,8175 5756))
polygon((8201 5781,8201 5815,8263 5815,8263 5781,8201 5781))
polygon((8171 5751,8171 5756,8175 5756,8175 5751,8171 5751))
polygon((8165 5747,8165 5751,8171 5751,8171 5747,8165 5747))
polygon((8572 5741,8572 5769,8602 5769,8602 5741,8572 5741))
polygon((8552 5769,8552 5781,8572 5781,8572 5769,8552 5769))
polygon((8602 5726,8602 5741,8628 5741,8628 5726,8602 5726))
polygon((8642 5720,8642 5771,8686 5771,8686 5720,8642 5720))
polygon((8641 5719,8641 5720,8642 5720,8642 5719,8641 5719))
polygon((8634 5716,8634 5719,8641 5719,8641 5716,8634 5716))
polygon((8629 5716,8629 5725,8634 5725,8634 5716,8629 5716))
polygon((8628 5725,8628 5726,8629 5726,8629 5725,8628 5725))
polygon((8633 5712,8633 5716,8634 5716,8634 5712,8633 5712))
polygon((8633 5711,8633 5712,8634 5712,8634 5711,8633 5711))
polygon((8632 5710,8632 5712,8633 5712,8633 5710,8632 5710))
polygon((8125 5706,8125 5747,8165 5747,8165 5706,8125 5706))
polygon((8634 5701,8634 5711,8641 5711,8641 5701,8634 5701))
polygon((8641 5690,8641 5701,8689 5701,8689 5690,8641 5690))
polygon((8689 5682,8689 5690,8711 5690,8711 5682,8689 5682))
polygon((8108 5690,8108 5706,8125 5706,8125 5690,8108 5690))
polygon((8092 5673,8092 5690,8108 5690,8108 5673,8092 5673))
polygon((8086 5671,8086 5673,8092 5673,8092 5671,8086 5671))
polygon((8085 5671,8085 5671,8086 5671,8086 5671,8085 5671))
polygon((8086 5671,8086 5671,8086 5671,8086 5671,8086 5671))
polygon((8080 5670,8080 5671,8085 5671,8085 5670,8080 5670))
polygon((8079 5670,8079 5670,8080 5670,8080 5670,8079 5670))
polygon((8627 5701,8627 5710,8632 5710,8632 5701,8627 5701))
polygon((8627 5691,8627 5701,8632 5701,8632 5691,8627 5691))
polygon((8619 5684,8619 5691,8632 5691,8632 5684,8619 5684))
polygon((8602 5682,8602 5684,8619 5684,8619 5682,8602 5682))
polygon((8599 5680,8599 5682,8602 5682,8602 5680,8599 5680))
polygon((8595 5672,8595 5680,8599 5680,8599 5672,8595 5672))
polygon((8584 5670,8584 5672,8595 5672,8595 5670,8584 5670))
polygon((8422 5684,8422 5686,8430 5686,8430 5684,8422 5684))
polygon((8430 5684,8430 5686,8434 5686,8434 5684,8430 5684))
polygon((8434 5684,8434 5685,8445 5685,8445 5684,8434 5684))
polygon((8445 5682,8445 5685,8466 5685,8466 5682,8445 5682))
polygon((8466 5677,8466 5682,8476 5682,8476 5677,8466 5677))
polygon((8476 5676,8476 5677,8496 5677,8496 5676,8476 5676))
polygon((8496 5671,8496 5676,8508 5676,8508 5671,8496 5671))
polygon((8508 5669,8508 5671,8526 5671,8526 5669,8508 5669))
polygon((8526 5669,8526 5670,8584 5670,8584 5669,8526 5669))
polygon((8057 5665,8057 5670,8079 5670,8079 5665,8057 5665))
polygon((8049 5663,8049 5665,8057 5665,8057 5663,8049 5663))
polygon((8040 5658,8040 5663,8049 5663,8049 5658,8040 5658))
polygon((8039 5657,8039 5658,8040 5658,8040 5657,8039 5657))
polygon((8005 5644,8005 5648,8010 5648,8010 5644,8005 5644))
polygon((8010 5648,8010 5652,8020 5652,8020 5648,8010 5648))
polygon((8020 5652,8020 5654,8030 5654,8030 5652,8020 5652))
polygon((8030 5654,8030 5655,8036 5655,8036 5654,8030 5654))
polygon((8036 5655,8036 5657,8039 5657,8039 5655,8036 5655))
polygon((8247 5639,8247 5639,8258 5639,8258 5639,8247 5639))
polygon((8241 5637,8241 5639,8247 5639,8247 5637,8241 5637))
polygon((8236 5636,8236 5637,8241 5637,8241 5636,8236 5636))
polygon((8226 5634,8226 5636,8236 5636,8236 5634,8226 5634))
polygon((8711 5671,8711 5682,8739 5682,8739 5671,8711 5671))
polygon((8739 5657,8739 5671,8789 5671,8789 5657,8739 5657))
polygon((8789 5628,8789 5657,8852 5657,8852 5628,8789 5628))
polygon((8852 5617,8852 5628,8868 5628,8868 5617,8852 5617))
polygon((8143 5609,8143 5610,8153 5610,8153 5609,8143 5609))
polygon((8153 5610,8153 5634,8226 5634,8226 5610,8153 5610))
polygon((8070 5574,8070 5590,8083 5590,8083 5574,8070 5574))
polygon((8083 5590,8083 5609,8123 5609,8123 5590,8083 5590))
polygon((8123 5609,8123 5609,8143 5609,8143 5609,8123 5609))
polygon((8868 5593,8868 5617,8884 5617,8884 5593,8868 5593))
polygon((8884 5568,8884 5593,8904 5593,8904 5568,8884 5568))
polygon((8902 5563,8902 5568,8904 5568,8904 5563,8902 5563))
polygon((8876 5562,8876 5563,8902 5563,8902 5562,8876 5562))
polygon((8823 5552,8823 5562,8876 5562,8876 5552,8823 5552))
polygon((8803 5552,8803 5552,8823 5552,8823 5552,8803 5552))
polygon((8030 5545,8030 5574,8070 5574,8070 5545,8030 5545))
polygon((8021 5553,8021 5559,8026 5559,8026 5553,8021 5553))
polygon((8026 5552,8026 5553,8026 5553,8026 5552,8026 5552))
polygon((8026 5545,8026 5552,8030 5552,8030 5545,8026 5545))
polygon((8030 5542,8030 5545,8031 5545,8031 5542,8030 5542))
polygon((8892 5537,8892 5551,8893 5551,8893 5537,8892 5537))
polygon((8893 5551,8893 5563,8902 5563,8902 5551,8893 5551))
polygon((8884 5534,8884 5536,8892 5536,8892 5534,8884 5534))
polygon((8892 5536,8892 5537,8892 5537,8892 5536,8892 5536))
polygon((8773 5549,8773 5552,8803 5552,8803 5549,8773 5549))
polygon((8725 5536,8725 5549,8773 5549,8773 5536,8725 5536))
polygon((8660 5534,8660 5536,8725 5536,8725 5534,8660 5534))
polygon((8884 5530,8884 5534,8891 5534,8891 5530,8884 5530))
polygon((8891 5530,8891 5530,8892 5530,8892 5530,8891 5530))
polygon((8881 5528,8881 5534,8884 5534,8884 5528,8881 5528))
polygon((8881 5528,8881 5528,8881 5528,8881 5528,8881 5528))
polygon((8403 5527,8403 5527,8409 5527,8409 5527,8403 5527))
polygon((8409 5526,8409 5527,8418 5527,8418 5526,8409 5526))
polygon((8418 5526,8418 5526,8435 5526,8435 5526,8418 5526))
polygon((8435 5523,8435 5526,8506 5526,8506 5523,8435 5523))
polygon((8646 5533,8646 5534,8660 5534,8660 5533,8646 5533))
polygon((8633 5531,8633 5533,8646 5533,8646 5531,8633 5531))
polygon((8598 5523,8598 5531,8633 5531,8633 5523,8598 5523))
polygon((8583 5520,8583 5523,8598 5523,8598 5520,8583 5520))
polygon((8506 5520,8506 5523,8583 5523,8583 5520,8506 5520))
polygon((8218 5519,8218 5520,8235 5520,8235 5519,8218 5519))
polygon((8031 5537,8031 5542,8033 5542,8033 5537,8031 5537))
polygon((8033 5527,8033 5537,8036 5537,8036 5527,8033 5527))
polygon((8036 5516,8036 5527,8039 5527,8039 5516,8036 5516))
polygon((8021 5516,8021 5517,8039 5517,8039 5516,8021 5516))
polygon((8007 5516,8007 5517,8021 5517,8021 5516,8007 5516))
polygon((8253 5521,8253 5524,8263 5524,8263 5521,8253 5521))
polygon((8246 5516,8246 5521,8253 5521,8253 5516,8246 5516))
polygon((8240 5516,8240 5516,8246 5516,8246 5516,8240 5516))
polygon((8235 5516,8235 5520,8240 5520,8240 5516,8235 5516))
polygon((8206 5517,8206 5519,8218 5519,8218 5517,8206 5517))
polygon((8194 5516,8194 5517,8206 5517,8206 5516,8194 5516))
polygon((8183 5516,8183 5516,8194 5516,8194 5516,8183 5516))
polygon((8174 5516,8174 5517,8183 5517,8183 5516,8174 5516))
polygon((8165 5514,8165 5517,8174 5517,8174 5514,8165 5514))
polygon((8131 5514,8131 5515,8165 5515,8165 5514,8131 5514))
polygon((8063 5511,8063 5513,8068 5513,8068 5511,8063 5511))
polygon((8052 5513,8052 5515,8063 5515,8063 5513,8052 5513))
polygon((8039 5515,8039 5516,8052 5516,8052 5515,8039 5515))
polygon((8068 5509,8068 5511,8074 5511,8074 5509,8068 5509))
polygon((8074 5508,8074 5509,8077 5509,8077 5508,8074 5508))
polygon((8120 5515,8120 5515,8131 5515,8131 5515,8120 5515))
polygon((8108 5514,8108 5515,8120 5515,8120 5514,8108 5514))
polygon((8098 5512,8098 5514,8108 5514,8108 5512,8098 5512))
polygon((8086 5509,8086 5512,8098 5512,8098 5509,8086 5509))
polygon((8077 5507,8077 5508,8079 5508,8079 5507,8077 5507))
polygon((8037 5507,8037 5516,8039 5516,8039 5507,8037 5507))
polygon((8892 5520,8892 5530,8907 5530,8907 5520,8892 5520))
polygon((8881 5507,8881 5528,8914 5528,8914 5507,8881 5507))
